,date,open1,close1,high1,low1,volume1,open2,close2,high2,low2,volume2,open3,close3,high3,low3,volume3,open4,close4,high4,low4,volume4,open5,close5,high5,low5,volume5,target
0,2003-01-06,11.8869216401,12.048129,12.2347901535,11.8614678465,58936700.0,12.1329750616,12.387513,12.4723589795,12.082067474,83998600.0,12.2856973906,12.251759,12.514781527,12.1923668165,75927000.0,12.4723590502,12.684474,12.8202275679,12.4299360602,75284400.0,12.5911432799,12.913558,13.1171883495,12.582658682,91193900.0,13.1256723527
1,2003-01-13,13.1256723527,12.964465,13.1680953403,12.7608346597,66314800.0,12.9814342683,13.219003,13.2614259878,12.9729496707,69977900.0,13.2105193281,12.87962,13.261426917,12.8371970092,61992300.0,12.7947727517,12.64205,12.9814338926,12.5487194295,65668200.0,12.463874489,11.988737,12.4893282831,11.9208602159,81310000.0,12.0650983921
2,2003-02-03,11.4711753887,11.437237,11.7087441098,11.3523910282,65976600.0,11.2336073909,11.199669,11.2336073909,10.919677275,110586200.0,11.292999575,11.199669,11.5390529091,11.1148230227,115080200.0,11.1233072334,11.233607,11.3778451563,11.0893688437,58738900.0,11.3184532856,10.902708,11.4032992623,10.7415006444,69851700.0,10.9621002525
3,2003-02-10,10.9621002525,11.157246,11.2336073795,10.8433158844,55955700.0,11.3014840356,11.428753,11.5390527691,11.2505764499,71241800.0,11.4032993455,11.199669,11.5814758977,11.1911844023,58732000.0,11.2081540195,11.293,11.3693613824,11.114823441,51646500.0,11.3608766594,11.60693,11.6238991959,11.2590614839,57732400.0,11.819045269
4,2003-03-03,12.0141902974,11.640868,12.1244900671,11.539052828,63539600.0,11.6323837836,11.564507,11.717229763,11.5135994123,38787400.0,11.6154140124,11.657837,11.7426829753,11.5475372322,53969100.0,11.4117832085,11.437237,11.530567569,11.3523910282,58081600.0,11.1572456231,11.233607,11.2505761949,11.0723996488,89592800.0,11.157246372
5,2003-03-10,11.157246372,11.038462,11.191184764,11.004523608,47938900.0,11.0639161966,11.046947,11.2251235645,10.9705856152,65703400.0,10.9196767518,10.766954,11.0214919196,10.4615084965,121329600.0,11.0130077049,11.38633,11.4202683905,10.8008927645,92368100.0,11.5135991619,11.369361,11.7087449104,11.2336074358,76184900.0,11.2081539823
6,2003-03-17,11.2081539823,11.988737,12.0566137841,11.1148234041,87513600.0,12.0566135979,12.048129,12.0735827937,11.819044857,64714100.0,12.1414593797,12.065098,12.2941821392,11.9378290338,68112700.0,11.852982817,11.912375,12.0396439637,11.7172292557,82711300.0,12.1075211201,11.793591,12.2263054899,11.7426834129,112479400.0,11.4881457942
7,2003-03-24,11.4881457942,11.462692,11.6323839615,11.4542074019,62278100.0,11.4542068513,11.640868,11.7511677697,11.360876277,56643600.0,11.6238983895,11.58996,11.7511673499,11.5135986237,48058100.0,11.5220837822,11.454207,11.6154143578,11.4117840111,50736700.0,11.3778463684,11.216639,11.4966307451,11.1742160083,46659800.0,11.0469463914
8,2003-03-31,11.0469463914,11.013008,11.1572461633,10.9111928259,66180200.0,11.0639155871,11.013008,11.123307772,10.8602852388,78283300.0,11.3439078475,11.572992,11.6832917771,11.2505772669,67337000.0,11.785106956,11.572992,11.7935915543,11.4966306158,57730000.0,11.7596529716,11.632384,11.7851067659,11.4626920379,51357100.0,12.1584284208
9,2003-04-07,12.1584284208,11.513599,12.200851409,11.5051144024,61510800.0,11.6069299479,11.394815,11.6408683395,11.3014844229,46422700.0,11.4032999264,11.063916,11.5560226933,11.063916,63171900.0,11.1063389908,11.063916,11.1233081871,10.8857394387,49099500.0,11.462691941,11.208154,11.488145735,10.945131461,49207900.0,11.2336072546
10,2003-06-02,14.4153322128,14.254124,14.5935096219,14.084432886,76219800.0,14.3304849769,14.432301,14.5510853704,14.2710936402,59187800.0,14.5001774168,14.737747,14.8565305189,14.4068468424,69641600.0,14.6274463818,14.737747,14.7801691399,14.5171474606,52535900.0,15.2383361493,14.729262,15.4419681848,14.7122919567,77286700.0,14.5935090551
11,2003-06-09,14.5935090551,14.618962,15.009254347,14.4916930331,51020800.0,14.7292624577,14.7632,14.848045977,14.6274464368,45810800.0,14.7038078614,14.932892,15.0177388257,14.6274464818,51445400.0,15.0347057188,15.085615,15.1874293202,14.9159222038,50701900.0,15.0941005699,14.771685,15.1874302987,14.6613860753,48705100.0,14.8225906877
12,2003-06-16,14.8225906877,15.255306,15.2722751947,14.7971385926,52161700.0,15.357121168,15.255306,15.4419679897,15.2298530565,59257700.0,15.2807599845,15.891651,15.9255893897,15.2468207463,68132300.0,15.8661990686,15.747413,16.2055821393,15.6880216626,84495000.0,15.7389282201,15.212884,15.925590222,15.1534926633,87622000.0,15.2128832239
13,2003-06-23,15.2128832239,14.627446,15.2298532673,14.5086616357,68731000.0,14.398361299,14.211701,14.7462298011,14.0929174819,79578400.0,14.3813937808,14.313517,14.6783529999,14.2117009803,60166000.0,14.4662382185,14.534115,14.66987026,14.3389701015,50488900.0,14.5510853938,14.330485,14.8310771244,14.3050329032,50579400.0,14.4916924782
14,2003-09-08,17.4273648682,17.698872,17.7497787387,17.3934256283,45159500.0,17.758263118,17.630995,17.8600774427,17.5376635761,64965100.0,17.5037241605,17.359486,17.7752329831,17.3255484577,57323600.0,17.3764561012,17.571601,17.6564469771,17.1558557124,56578800.0,17.529179,17.529179,17.6564471181,17.266156469,49716800.0,17.5800857263
15,2003-09-15,17.5800857263,17.300094,17.5885711726,17.2746419036,35947300.0,17.325548166,18.063709,18.1740079195,17.2322167447,67877700.0,18.0382550226,17.936439,18.1485539462,17.741294098,51082200.0,17.9194719073,18.174009,18.1994636426,17.7752337406,45000500.0,18.2079464636,17.834625,18.2927924436,17.817655804,45582300.0,17.4952414358
16,2003-09-22,17.4952414358,17.630995,17.6988717821,17.4782713918,43277400.0,17.6140246922,17.944924,18.004315335,17.6055400946,42942300.0,18.1570385236,17.240702,18.2249153031,17.1388876792,79483300.0,17.1982804092,17.020103,17.384941568,16.9182895194,75988800.0,16.9691952389,16.935256,17.3425183827,16.9267730993,53048000.0,17.0540411755
17,2003-09-29,17.0540411755,17.138888,17.2067647808,16.9861643947,46655100.0,17.020102246,16.621327,17.0794944303,16.3752728167,64659700.0,16.6976880764,17.138888,17.1897947371,16.6976880764,52225000.0,17.172825945,16.960711,17.2237326833,16.7570806528,51899500.0,17.3510033171,17.614025,17.8346245424,17.1982797086,60069700.0,17.7073568829
18,2003-10-06,17.7073568829,17.647963,17.8091712105,17.1304042187,24923600.0,17.4867565413,17.817655,17.8261395976,17.3510029794,42996400.0,17.8600778499,17.63948,17.9279546336,17.5546340204,35680500.0,17.8855319215,17.775233,18.1485536013,17.5716009586,53862200.0,17.843110351,17.63948,17.9958314173,17.5716015194,38793300.0,17.8431096413
19,2003-10-13,17.8431096413,17.817655,17.8940163786,17.6988714818,36969900.0,17.6819019131,17.936439,17.9703782398,17.6055405324,30248000.0,18.1315867785,17.834625,18.1740089201,17.74977902,40761500.0,17.7582635738,17.851595,17.9025017394,17.6309954525,35934800.0,17.8261399669,17.512209,17.8431100109,17.5037244022,35416300.0,17.6055402751
20,2003-10-20,17.6055402751,17.885532,17.9279541402,17.6055402751,31664100.0,18.021284918,17.910986,18.021284918,17.7328086057,35152900.0,17.7073570509,17.503725,17.8261405757,17.4782720542,29864600.0,17.0116175766,17.104949,17.2831264005,16.9861646319,50188600.0,17.0116179476,16.799503,17.0540417856,16.3243663659,63894200.0,16.8504126618
21,2003-10-27,16.8504126618,16.909804,17.1473718982,16.8079879744,37862700.0,17.0455565938,17.732809,17.7582627928,17.0285873986,48905600.0,17.7243233341,17.664932,17.7667480185,17.5122083965,37626200.0,17.8855323046,17.698872,17.9279544455,17.5716013351,42331800.0,17.8006859885,17.758263,17.9194712049,17.6734170229,38105900.0,17.9703781645
22,2003-11-03,17.9703781645,18.420061,18.4709694353,17.9703781645,60013500.0,18.5388461399,18.309762,18.5388461399,18.15703924,50027800.0,18.3437019312,18.496423,19.56548236,18.1146169342,83930200.0,19.4806357384,19.429729,19.6333584991,19.1836765118,116611100.0,19.4382140877,18.954592,19.5315446661,18.8612614217,61683600.0,18.9715611598
23,2003-11-10,18.9715611598,18.827323,19.234582838,18.7509607728,45426700.0,18.7933840447,18.963076,19.0479228261,18.7085372187,39155500.0,19.0139843545,19.489121,19.5145756428,18.9800468106,39368700.0,19.2260987601,19.260038,19.3024601409,18.6661153011,48079500.0,19.2770056565,18.886715,19.5060906491,18.8527757598,47384400.0,18.6661158579
24,2003-11-17,18.6661158579,18.708538,18.8018694277,18.4964230471,39254300.0,18.8782300851,18.437031,19.005499052,18.4030934573,45390100.0,18.4115787628,18.708538,18.8103540259,18.3267319332,35350100.0,18.5812687611,18.615208,18.9800456971,18.4709689922,43726800.0,18.7679308602,18.810353,18.9036844227,18.284307097,37072700.0,18.9885288949
25,2003-12-01,19.4466984538,19.667298,19.7266901855,19.3703370725,51925600.0,19.607906,19.607906,19.7182049209,19.5654813149,38504900.0,19.7012352177,19.769112,20.1933418895,19.6248738376,66001400.0,20.1254646144,20.346065,20.456365617,20.0915270726,70632500.0,20.193342141,20.15092,20.2357659789,20.0406210758,42335500.0,20.1084977275
26,2003-12-08,20.1084977275,20.609089,20.6769657827,20.1000131296,39845800.0,20.6769649638,19.70972,20.7448417439,19.480635019,67079200.0,19.8539584418,20.176374,20.2527353786,19.7351740751,64492100.0,20.1000134966,20.303643,20.354550588,19.8963831447,51500700.0,20.2612185986,20.439396,20.4478805978,20.0151661121,38349800.0,20.821203313
27,2003-12-15,20.821203313,20.346065,20.87211005,20.2697027733,55187900.0,20.1594044022,20.167889,20.5581804994,20.0321362835,43183900.0,20.1763741818,19.93032,20.3036422989,19.8200210783,43194700.0,19.9557741398,20.507273,20.5666651849,19.9557741398,51439900.0,20.5581804545,20.184859,20.5751496501,20.1084976199,61620400.0,20.2612181757
28,2004-01-05,20.7024188777,21.016349,21.0757411853,20.6854488334,38892100.0,21.0672570921,21.262402,21.2963412409,20.9993803072,43684400.0,21.355733521,21.686632,21.8308710169,21.0842263804,48757500.0,21.9242011025,22.348431,22.5266067085,21.6187555763,61683300.0,22.0429851095,22.467215,23.0781068908,22.0175321645,68856400.0,22.5520602622
29,2004-01-12,22.5520602622,22.933868,23.035682322,22.3144906826,52871900.0,22.9678066113,22.815083,23.1205293741,22.4502452888,56334200.0,22.9253832832,23.247798,23.3241593803,22.7726605226,42293600.0,23.2053753608,23.044168,23.3411289278,22.908414433,46099400.0,23.6720282998,24.715633,24.9107804499,23.5786985707,91298000.0,24.9022944421
30,2004-02-02,22.1532856201,22.229647,22.6538768884,21.7545078281,81642800.0,22.3823683579,22.407823,22.5944833049,22.0769236827,81729600.0,21.1266480025,20.430911,21.2114939784,20.3715188169,190549000.0,20.7024186734,20.210312,20.7872646516,20.0660738371,103966000.0,20.4054569021,20.990895,21.0078641956,20.3545501637,74134700.0,21.0842257621
31,2004-02-09,21.0842257621,20.931503,21.2539168714,20.8721108148,52703900.0,20.8890804365,21.024834,21.118162878,20.8551411971,39742500.0,21.0672562686,20.566665,21.0842254641,20.4393960334,87763700.0,20.5242430669,20.405457,20.6599957842,20.2781888806,48597500.0,20.5581810149,20.413942,20.7448430199,20.3121285206,43363800.0,20.7533257082
32,2004-03-01,19.7266894188,19.964259,20.0236503347,19.6503280404,36765900.0,19.9642588774,19.540029,20.252735194,19.4891197178,62706500.0,19.4721529466,19.260038,19.5569972283,19.2091287159,55386900.0,19.2770052095,19.675783,19.7182051402,19.2685206117,45492400.0,19.3873064564,19.421244,19.811536357,19.3024604763,56365600.0,19.5994203712
33,2004-03-08,19.5994203712,18.971561,19.7097201395,18.9461063589,62038700.0,18.8782299219,18.767931,19.0733756694,18.6152082411,64071900.0,18.9206523807,18.844291,19.2176141543,18.810353457,80618500.0,18.7339924512,18.954592,19.3363997598,18.7000549075,89673500.0,19.2430679448,19.624874,19.6672978378,19.0818605855,73013300.0,19.4806350584
34,2004-03-15,19.4806350584,19.327914,19.7606284735,19.2430671763,68079900.0,19.5145749777,19.616391,19.6842677825,19.361852217,59320900.0,19.8200214782,19.938805,20.0406210229,19.6757833144,52578100.0,19.8454733022,19.658813,19.8794125416,19.5569969785,55961200.0,19.6333584093,19.090345,19.6672976489,19.0479228596,70226700.0,18.8612608268
35,2004-03-22,18.8612608268,18.963076,19.0733757709,18.7424764582,56288400.0,19.2430672736,18.971561,19.3957908782,18.9206517177,58934600.0,19.0139834596,19.234583,19.3703365633,18.9291366341,51709700.0,19.3618525547,20.006682,20.0660741858,19.3533671083,64449300.0,20.0151663594,19.853959,20.1848591651,19.8030514128,48203800.0,20.100013282
36,2004-03-29,20.100013282,20.235766,20.3545503706,20.0660740419,44442700.0,20.1339510401,20.303643,20.3375805435,19.9897120258,38857600.0,20.3036425206,19.998197,20.3545501073,19.9388048154,51583000.0,20.1000128598,20.142435,20.3460653454,19.95577385,44882300.0,20.498788853,20.727873,20.7448430445,20.4054574262,54740900.0,20.6090895965
37,2004-07-12,18.8018683822,18.912169,18.9206519007,18.6152080824,35420900.0,18.9630764053,18.784899,19.1921613982,18.7594469031,38472500.0,18.9206521063,18.750961,19.1157995512,18.6661150226,51297000.0,18.8103532395,18.776414,18.9970135418,18.7255072619,44642800.0,18.9970137174,18.26734,19.0139837615,18.029770412,53512700.0,18.1740077362
38,2004-07-19,18.1740077362,18.123101,18.4539994521,17.8685613796,51550900.0,18.1740083526,18.564299,18.5897536417,18.0891623752,43821500.0,18.8442913452,17.961894,18.8951997818,17.944924804,49817900.0,17.9873483373,18.148554,18.2673400671,17.7667487927,47121200.0,18.0382547243,17.758263,18.0552247682,17.6055402413,42685700.0,17.6819020895
39,2004-07-26,17.6819020895,17.427365,17.8431102986,17.2237329527,55848600.0,17.4528174806,17.571601,17.6394794786,17.181310354,59712700.0,17.4358471393,17.393425,17.5546332021,17.0285873049,51187900.0,17.6140254564,17.647963,17.8006866125,17.5122094319,39528900.0,17.6649330201,17.749779,18.0721928752,17.6055408341,49267200.0,17.4782717326
40,2004-08-02,17.4782717326,18.021286,18.021286,17.3934257533,40797300.0,17.9279544688,17.597056,18.012801296,17.5885714021,40501300.0,17.4952411195,17.919471,17.9703777372,17.4613018806,44277100.0,17.9194714899,17.486757,18.0128012177,17.4528177602,47932100.0,17.1558564962,16.909804,17.4782720723,16.8588972599,58285300.0,16.9861650547
41,2004-08-09,16.9861650547,17.011618,17.1558561648,16.9182891197,36272700.0,17.2322170348,17.359486,17.3679705977,17.0116174952,69741700.0,15.7813516795,15.51833,15.8237746679,15.4759061632,177709300.0,15.4843906417,15.0941,15.5692366178,14.8735004621,101232800.0,15.4674212594,15.153492,15.4674212594,15.102582718,60959900.0,15.1450063001
42,2004-08-16,15.1450063001,15.467421,15.662565891,15.1110670621,46308300.0,15.6031748105,15.849229,15.849229,15.4759066895,52342800.0,15.7304449527,16.112251,16.137704793,15.6455989759,59931200.0,16.0358900419,16.205582,16.2989117285,15.9849824545,49590700.0,16.0783138823,16.01892,16.1377052192,15.8152896502,56920000.0,16.0613440495
43,2004-08-23,16.0613440495,16.273459,16.3583058286,15.9934672654,38174000.0,16.239519161,16.095281,16.2564892049,15.9595274367,40605100.0,16.1122512717,16.392243,16.4346668376,15.9595276624,41765700.0,16.3328507825,16.264974,16.485573543,16.2564894022,32536800.0,16.2904285573,16.519511,16.5619348373,16.2904285573,33479300.0,16.3837570347
44,2004-08-30,16.3837570347,16.14619,16.511025998,16.14619,35887900.0,16.2480053252,15.917106,16.2819445659,15.6371142633,64745900.0,15.8237747014,16.197097,16.2225516415,15.7813517129,36191100.0,16.1631580538,16.375273,16.4346668819,16.0443745324,41595100.0,16.1461905887,15.908621,16.2564895125,15.7728674341,41392400.0,16.1037666637
45,2004-09-20,16.146190555,16.375273,16.5279966097,16.0698291744,64036100.0,16.4516336177,16.672234,16.7231407363,16.3752722406,45349500.0,16.2819444514,16.086797,16.3667904316,16.0019527167,74770900.0,16.03589,16.03589,16.2225520019,15.9680132169,40950100.0,16.0189198472,15.61166,16.0613436848,15.5352977711,62734100.0,15.4843907021
46,2004-09-27,15.4843907021,15.306215,15.5692366785,15.2298536212,62098200.0,15.3486371954,15.331668,15.3910593353,15.1450068511,63723900.0,15.4080298792,15.535298,15.6455994703,15.3401530956,49683100.0,15.5098456087,15.357122,15.577722391,15.3146981626,40058700.0,15.5013605325,16.061344,16.1207361859,15.4843913365,52428600.0,16.2989119505
47,2004-10-04,16.2989119505,16.086797,16.3752733327,16.0104373147,53095600.0,16.0358900419,16.205582,16.3328509686,16.0274045955,40998700.0,16.1631576173,16.57042,16.5789045976,16.1546747166,51120800.0,16.5110267318,16.231035,16.7485963225,16.1970974567,48634500.0,16.0867960585,15.934075,16.3073955942,15.8492281763,45200100.0,15.9255894531
48,2004-10-11,15.9255894531,16.103766,16.1377043899,15.8831656173,23204500.0,15.8492283152,16.256489,16.4176963544,15.7643823392,37134100.0,16.5110261616,16.001952,16.5449654006,15.7983216566,72680900.0,15.9340752035,15.772867,16.0189194829,15.6965056213,39006800.0,15.8237741558,15.679536,15.9510422684,15.5946891775,46820000.0,15.7134752279
49,2004-10-18,15.7134752279,15.823775,15.8916517828,15.6286292493,41431300.0,16.0443747083,15.866199,16.2395196125,15.7813521721,49868000.0,15.7728675223,15.654084,15.8322597077,15.5183304334,52679500.0,15.84074424,15.806805,15.8831663809,15.594690053,41317800.0,15.8492295282,15.501361,15.9255909124,15.4080304193,35461500.0,15.3995452298
50,2004-10-25,15.3995452298,15.323183,15.5183304491,15.2722762609,34106100.0,15.3740915975,15.365607,15.4504512785,15.1025827792,51352600.0,15.3401527536,15.738928,15.8237748261,15.1874299939,62748800.0,15.7304445049,16.078313,16.095280498,15.6201438897,55132600.0,16.0867970488,16.298912,16.4346672657,16.035890309,73345000.0,16.2989121609
51,2004-11-01,16.2989121609,16.341336,16.4176973832,16.0783143064,39880500.0,16.3752729009,16.36679,16.5619349009,16.2564893802,37906300.0,16.7740494334,16.358305,16.7995023777,16.2649735781,52075400.0,16.3328508581,16.561935,16.5958725429,16.3158816624,49091300.0,16.7910199361,16.943741,16.9776802397,16.7316260545,54285800.0,16.9522264463
52,2004-11-08,16.9522264463,16.943741,16.9776802397,16.7655652942,49754000.0,16.8843499696,16.757081,16.9691959494,16.6976888142,67607200.0,16.1037664271,15.645599,16.1461902641,15.6286289561,171452900.0,15.6965056564,15.900136,15.9171051953,15.2722757737,61753500.0,15.9595282357,16.341336,16.3583060447,15.9255906916,73480000.0,16.2480049334
53,2004-11-15,16.2480049334,16.587388,16.587388,16.1886127483,56094100.0,16.4940592847,16.44315,16.5619352199,16.3413356729,40062000.0,16.5364811624,16.578905,16.8249574885,16.4686043798,52465900.0,16.5449658043,16.561935,16.7740499462,16.4855736194,45872100.0,16.5534509053,16.129221,16.6637498322,16.1122518038,49743200.0,16.018919022
54,2004-11-29,16.2904285417,16.069829,16.4516342021,16.0189197165,49567700.0,15.9934669787,15.908621,16.2480049147,15.8746817601,63515000.0,16.018919022,16.248004,16.2564885974,15.9595268403,64190300.0,16.1970965793,16.290428,16.5110258374,16.1716419384,52050100.0,16.485574,16.485574,16.7061743976,16.4516347594,62014100.0,16.5534504657
55,2004-12-06,16.5534504657,16.816473,16.8588968379,16.5110266278,56369700.0,16.9352558956,16.740111,17.2661560492,16.680718817,103909000.0,16.791020099,16.799503,16.8928344254,16.6213272925,53601500.0,16.5449649742,16.460119,16.7740491046,16.3667892768,67721400.0,16.4176968151,16.477089,16.7316260867,16.3922430216,44146000.0,16.5449657499
56,2004-12-13,16.5449657499,16.34982,16.5958724883,16.2225518812,54596100.0,16.2310343392,16.358305,16.5279961033,16.214066841,50080000.0,16.2904279,16.460119,16.4770881948,16.2649732593,49847800.0,16.3583046794,16.460119,16.680718533,16.3413346361,86874900.0,16.2819438021,16.112251,16.6128422633,16.112251,100599300.0,16.2055818376
57,2005-01-24,15.3995449099,15.060161,15.4419687471,15.0177388597,80477000.0,15.1874303198,14.856531,15.2553071034,14.7716850206,76495900.0,15.1025828767,15.009254,15.1534921592,14.8904679367,73530300.0,15.0771304857,15.424999,15.4589365432,15.0431920941,76947600.0,15.5013601173,15.18743,15.603174442,15.1450070112,77990000.0,15.3995447256
58,2005-01-31,15.3995447256,15.306215,15.5268128418,15.2553065657,51573700.0,15.3486374572,15.382575,15.4843910223,15.2722760768,55135300.0,15.4589363361,15.399545,15.5268131185,15.3146981736,57884400.0,15.3062159535,14.865016,15.3486380959,14.8480468037,86470500.0,14.9159228715,15.18743,15.2043991955,14.9159228715,75320600.0,15.2722754405
59,2005-02-07,15.2722754405,15.408029,15.4419682383,15.1874294659,62682700.0,15.4674214024,15.475906,15.6371133542,15.4080292193,112368000.0,15.5352976476,14.958345,15.5437830938,14.8480460776,116920500.0,15.0431919676,14.915923,15.0686457611,14.8565308151,81179800.0,14.9074383798,15.017739,15.161977163,14.7377472718,99165600.0,15.0262224485
60,2005-02-14,15.0262224485,15.246822,15.3146987851,14.9668302615,59189600.0,15.3231825187,15.204399,15.4249985391,15.1110675773,65160200.0,15.1534926651,15.026222,15.2298540461,15.0007690548,56805900.0,15.0431918898,14.805624,15.0516764876,14.7547147163,46135700.0,14.8819860532,14.678354,14.9159235975,14.6613865006,60417100.0,14.559569881
61,2005-03-07,15.5098452388,15.475906,15.7134747325,15.3995446217,97495200.0,15.4759063247,15.374092,15.6880212689,15.3656074022,54072000.0,15.5013596168,15.72196,15.9001356989,15.4928750193,80748600.0,15.815289814,15.874682,15.9425604809,15.6625670501,81350200.0,15.8407443057,15.654084,15.9510432301,15.4504519531,55821100.0,15.6795365653
62,2005-03-14,15.6795365653,15.730445,15.8068046825,15.6540836206,41102900.0,15.7643827277,15.484391,15.8237749123,15.4419688594,43168700.0,15.3995447814,15.331668,15.4928753558,15.2722758163,47912700.0,15.2892445541,15.29773,15.5268124335,15.2807599567,48988500.0,15.3316679855,15.102583,15.3995447668,15.102583,52249300.0,15.0771299918
63,2005-06-06,16.434667099,16.44315,16.4855738383,16.2225521499,41321900.0,16.4516339563,16.468604,16.8079870567,16.4346664579,61546800.0,16.5619345739,16.468604,16.7485957218,16.3837571752,48675100.0,16.3243660999,16.519511,16.6382970656,16.3073960559,51722500.0,16.5110263012,16.324366,16.5279963451,16.205581632,34056400.0,16.2819441206
64,2005-06-13,16.2819441206,16.375273,16.4431497828,16.2480048807,38163300.0,16.3837579258,16.273459,16.4940593969,16.2310351614,32261600.0,16.4176967935,16.392243,16.4346668376,16.1037666739,37016500.0,16.3922426015,16.57042,16.5958720959,16.3243658206,40746400.0,16.7655648968,16.57042,16.9437405984,16.5534499563,63688900.0,16.4855738347
65,2005-06-20,16.4855738347,16.629812,16.7316263271,16.4261824974,33230900.0,16.6552647813,16.77405,16.875864326,16.5110266174,48643300.0,16.8079875979,16.799503,16.8843498275,16.7231416189,38822500.0,16.9182885624,16.782535,17.1813102411,16.782535,94433400.0,16.680719371,16.375273,16.7740499474,16.3667900991,71213900.0,16.3752724371
66,2005-06-27,16.3752724371,16.14619,16.3837570347,16.1292199564,48612100.0,16.256489,16.256489,16.4092117568,16.2480044024,40675100.0,16.3667898161,16.426182,16.612842301,16.3413351745,50326900.0,16.4940593768,16.188613,16.5364815183,16.1716429555,44756000.0,16.2310345191,16.112251,16.2904283998,16.0274041747,35006000.0,15.9255900112
67,2005-07-18,16.8164721567,16.672234,16.8419259491,16.6637485541,28303900.0,16.7910201276,17.113434,17.1388886422,16.7146587463,57088900.0,16.9607103842,17.071011,17.1643407239,16.7401108494,53833300.0,17.0370729487,16.595873,17.0540421449,16.553450858,58550600.0,16.5873879015,16.392243,16.6128425435,16.3328508152,44899500.0,16.451634437
68,2005-07-25,16.451634437,15.993467,16.4686044812,15.9680132064,58224700.0,16.1207362603,16.171643,16.2310351862,16.044374878,51468000.0,16.1801284218,16.273459,16.3328511861,16.027404809,33351600.0,16.3413354571,16.375273,16.3837575978,16.1716426516,39176100.0,16.3922421556,16.248004,16.4601189347,16.2140664589,38389000.0,16.341336
69,2005-08-01,16.341336,16.341336,16.5025442129,16.2564900187,32113700.0,16.3922428384,16.536481,16.6807191616,16.3413352519,41131800.0,16.4431497379,16.578905,16.6298117385,16.4007275972,33585500.0,16.4940594465,16.485574,16.7401119413,16.4431501613,36055700.0,16.4855736205,16.375273,16.5364812076,16.375273,32085300.0,16.4516345224
70,2005-08-08,16.4516345224,16.332851,16.5364813501,16.3158818042,30455000.0,16.4770887946,16.638297,16.7485959221,16.4601195992,57249300.0,15.9764976729,15.484391,16.0358898575,15.4504517603,202313300.0,15.5268133501,15.323183,15.5522679924,15.0771305087,146112700.0,15.2807603995,15.102583,15.3146979417,15.0601608601,78558700.0,15.1110679788
71,2005-08-15,15.1110679788,15.026222,15.1534926651,14.949862316,63939500.0,15.0262217821,14.958345,15.1450069991,14.9413775014,61166300.0,15.043192421,15.136523,15.2553073733,15.0262223763,53838000.0,15.1450073613,14.9838,15.1789449047,14.9838,40870100.0,15.0601608165,15.119553,15.1704597374,14.9922840354,39708600.0,15.1704596574
72,2005-08-22,15.1704596574,15.009254,15.2043988963,14.9328917732,41834500.0,15.0347067596,15.068646,15.1534928282,15.0177392606,45893500.0,15.034707115,14.865016,15.1195539452,14.865016,58383200.0,14.8989529341,14.831077,14.9668297168,14.831077,41768300.0,14.8650151724,14.7632,14.8819852163,14.7292624577,43243600.0,14.6783536685
73,2005-08-29,14.6783536685,14.96683,15.0771306223,14.6783536685,40543200.0,14.9159231856,14.856531,14.9498624258,14.7547149762,41220500.0,14.8904681192,14.949862,14.9922841401,14.7971392414,41540900.0,14.8650152295,14.975315,15.1025831175,14.8141067946,41311000.0,15.000769456,15.034707,15.3316687823,14.9668302151,32300100.0,15.2553069981
74,2005-09-19,15.5268129215,15.416514,15.552267563,15.280760437,45725200.0,15.3316688298,15.246822,15.6031751217,15.1450076708,57286600.0,15.1789445426,15.145007,15.2637913686,15.0347063807,53269700.0,15.0516760424,15.365607,15.3910590957,15.0007684572,48006300.0,15.2553066646,15.314698,15.4165140209,15.2298537199,38083100.0,15.4080293437
75,2005-09-26,15.4080293437,15.204399,15.4249985391,15.1619768602,56453300.0,15.1619776685,15.034707,15.2128844087,15.0092549026,50452100.0,15.0686454375,15.204399,15.3146979211,15.0516762422,54427100.0,15.1959141391,15.153492,15.2213687801,15.0601605789,56199200.0,15.0941000789,15.204399,15.2213690438,14.9753148633,56270900.0,15.2128833529
76,2005-10-03,15.2128833529,15.051676,15.3740915542,15.0431914025,47714900.0,15.0686453786,14.992284,15.1874297453,14.9753148048,54171400.0,15.0007687589,14.848046,15.0856155845,14.848046,47135300.0,14.8735008913,15.043192,15.0686457936,14.8565308472,60516800.0,15.0516764238,14.958345,15.1025831619,14.9328920552,35569800.0,14.8480455975
77,2005-10-10,14.8480455975,14.839561,14.9328915723,14.6359306604,57891200.0,14.7886534922,14.585024,14.8819849135,14.5425993154,55344100.0,14.551085261,14.788654,14.8395615869,14.3983616518,85491800.0,14.6953240448,14.678354,14.822592169,14.5935097151,45537800.0,14.7207777852,14.652901,14.7377478299,14.5680550185,35672800.0,14.6189615853
78,2005-10-17,14.6189615853,14.568054,14.7377467995,14.5425993589,34345300.0,14.5171476194,14.406847,14.5935089992,14.3983615538,40865700.0,14.3474548164,14.593509,14.6019919008,14.2795780343,54073600.0,14.5935089879,14.364424,14.712292508,14.3389702067,51650900.0,14.5256323807,14.449271,14.5765391194,14.3729096193,58366000.0,14.4916932168
79,2005-10-24,14.4916932168,14.55957,14.5765391958,14.3559396503,44339100.0,14.4407851752,14.525632,14.5850241834,14.4068467846,47079800.0,14.4916938035,14.508663,14.6019927322,14.457756259,36709500.0,14.440786054,14.466239,14.6274472133,14.4153322596,39260800.0,14.5426,14.5426,14.6189622298,14.4747232166,42458300.0,14.5595698155
80,2005-10-31,14.5595698155,14.805624,14.8819853802,14.5510852177,79135500.0,14.7038080326,14.831077,14.8565307935,14.63593125,44269500.0,14.746230056,14.958345,15.043191826,14.6868378717,60933700.0,15.0347067084,14.856531,15.0516767527,14.8310772062,48334600.0,14.8819852748,15.161977,15.1704599008,14.873500677,42839300.0,15.1704599448
81,2005-11-07,15.1704599448,15.145007,15.2553067709,15.0601610224,42952500.0,15.0856152199,15.153492,15.2383362782,15.034705938,38219200.0,15.0856156417,15.060161,15.1450069775,15.0177388597,70124300.0,14.6444155743,14.551085,14.7207769534,14.4407852303,143451000.0,14.5510857099,14.822592,14.8480466427,14.5001781214,82869100.0,14.7801701879
82,2005-11-14,14.7801701879,14.720778,14.8141077325,14.6444166156,35685900.0,14.6868385441,14.652901,14.7886545704,14.6019925627,44044300.0,14.6019924019,14.610477,14.7207776232,14.5086626718,44170800.0,14.6444155772,14.737747,14.7547144984,14.610476338,47690900.0,14.6444163549,14.440786,14.7632007286,14.3135178767,137429400.0,14.4662384022
83,2005-11-28,14.8904683363,14.831077,14.9668297168,14.8225915537,37443800.0,14.8480464021,14.856531,15.1365227322,14.8310772062,62938300.0,14.8650149564,14.881985,15.0601607007,14.8480457612,47405500.0,15.0262214983,15.009254,15.0601607371,14.9583447175,39729500.0,14.9753154464,14.96683,15.0431922303,14.8480464766,42998300.0,14.907438184
84,2005-12-05,14.907438184,14.848046,15.1195531269,14.788653816,57253100.0,14.8819855012,14.898953,14.9668297829,14.7547148363,55187700.0,15.1534917791,15.085615,15.272275294,15.0431911646,97856800.0,15.1110681658,14.96683,15.1195536122,14.9159232605,66400200.0,14.9498618804,14.890468,15.0347061598,14.8141066213,62666400.0,14.9074389909
85,2005-12-12,14.9074389909,14.865016,15.0516771598,14.8056246612,39552100.0,14.8310768046,14.848046,14.9159227817,14.8056238599,49275100.0,14.8225911559,15.009254,15.0516761395,14.8141065583,58556500.0,14.9753154223,15.068646,15.1365227838,14.9328924324,62294800.0,15.0431925616,14.865016,15.0771309543,14.8565314018,94010200.0,14.8650158389
86,2005-12-19,14.8650158389,14.822592,14.983800212,14.8141074019,46770600.0,14.8225915653,14.686838,14.8989529458,14.6529004571,49564300.0,14.6868379782,14.601992,14.7462301629,14.5680544572,77024500.0,14.5850240246,14.66987,14.7377467803,14.568053981,36231800.0,14.6698712588,14.720778,14.7547155446,14.6359320173,22792700.0,14.7462299214
87,2006-02-06,15.2977308058,15.128038,15.3571221425,15.128038,51811100.0,15.136523047,15.348638,15.4419694278,15.1195538507,78522100.0,16.3498192335,16.460119,16.5449649742,16.2140665232,200671700.0,16.5619350548,16.587388,16.9522265571,16.519511217,119726500.0,16.6382968834,16.765565,16.8673793236,16.6298114372,73782500.0,16.6467818821
88,2006-02-13,16.6467818821,16.587388,16.8419267848,16.3922430973,58621900.0,16.6637487178,16.714658,16.8504115606,16.6128419811,55792800.0,16.629810841,16.918288,16.9352554978,16.629810841,65024300.0,16.8928338168,16.952226,16.9691951952,16.824957036,46990700.0,16.9182887821,16.850412,16.9607109224,16.8249573583,35965900.0,16.7231409197
89,2006-03-06,17.7922012158,17.860078,18.2249165637,17.7158398335,85155100.0,17.758262737,17.707356,17.8006857249,17.5461477975,47523100.0,17.5716013351,17.698872,17.8091709238,17.5461483899,54435200.0,17.7328086334,17.342518,17.7412932309,17.342518,45597800.0,17.4188795209,17.664932,17.7158387366,17.2407021249,48463600.0,17.7073565979
90,2006-03-13,17.7073565979,17.698872,17.9449244897,17.6564473137,46526400.0,17.6649323012,18.02977,18.02977,17.6225093129,54956400.0,17.9788630612,18.190978,18.2418847369,17.9534084201,48514600.0,18.2334003435,18.02977,18.4030931449,18.0212854024,55426200.0,18.190978242,18.343701,18.3946077375,17.9449240613,62104500.0,18.3437012617
91,2006-03-20,18.3437012617,18.394608,18.4455155867,18.1824930554,34525500.0,18.165524,18.165524,18.5388463055,18.0552250764,49443400.0,18.0212862353,18.174009,18.2418857843,18.0128016373,35794900.0,18.0637096742,18.165524,18.2334007828,17.9958311945,37038000.0,18.1061309566,18.123101,18.2418845158,18.0212849821,34047900.0,18.0637090968
92,2006-03-27,18.0637090968,18.403093,18.5388457128,18.029769858,53091400.0,18.3352165854,18.097647,18.5812690717,18.080676956,54353600.0,18.157038841,18.301277,18.5642986768,18.0552245184,58304500.0,18.3267317217,18.640661,18.6661156425,18.2843078832,54944600.0,18.6236935942,18.386124,18.666115736,18.386124,54881800.0,18.538846547
93,2006-04-03,18.538846547,18.318247,18.6491463205,18.318247,46689300.0,18.2673399035,18.292792,18.4115780661,18.1570392837,43116400.0,18.3182461757,18.403093,18.6152079395,18.3182461757,38695200.0,18.3267311048,17.970378,18.3691540935,17.9109866643,71000400.0,17.9703789818,17.656448,18.1485546954,17.6309959023,44277000.0,17.6479627914
94,2006-06-05,17.266156955,16.86738,17.2831269995,16.86738,36223900.0,16.9013190521,17.113434,17.2746422089,16.8758644098,53468500.0,17.1897949191,16.892834,17.1982795168,16.8843494023,40723000.0,16.7655660717,16.875865,17.0370732145,16.4686051342,71683800.0,16.8843496637,16.943741,17.1728259896,16.824957479,39833700.0,16.9267729326
95,2006-06-12,16.9267729326,16.527996,16.9691950719,16.527996,30463800.0,16.4516340962,16.426182,16.6467815403,16.3837573146,47899800.0,16.4601195992,16.638297,16.7655651175,16.4261820567,40552900.0,16.6892039668,17.155856,17.1643414463,16.680719369,44788100.0,17.1134333544,16.952226,17.1558554939,16.8843492192,41165300.0,16.9776803597
96,2006-06-19,16.9776803597,16.816473,17.0964647301,16.7231415748,32760800.0,16.7570801951,16.740111,17.0116172737,16.6637487734,28931100.0,16.7655654649,17.028588,17.3255489268,16.7655654649,48813100.0,17.0794946081,16.706174,17.164341435,16.5789050324,41353700.0,16.638297,16.638297,16.8928340835,16.5873877167,27523400.0,16.5958727597
97,2006-06-26,16.5958727597,16.629812,16.7146588281,16.5364814224,21107200.0,16.655264729,16.375273,16.7825353937,16.3498200549,36313200.0,16.3837578143,16.44315,16.4940592847,16.1886129096,35188100.0,16.4855733109,16.892834,16.9691953792,16.3837572902,43745100.0,16.9776798373,16.57042,16.994649881,16.5619345539,52846800.0,16.7825356925
98,2006-07-10,16.5279963315,16.095281,16.5789047662,15.9680128829,39284000.0,15.968012922,15.857714,16.0104367591,15.577722275,74690400.0,15.7728677349,15.492876,15.8322599211,15.4419692603,37847600.0,15.3571227858,15.289246,15.628629929,15.1704607764,50040000.0,15.2892449326,15.221369,15.4589360368,15.0771299918,39858300.0,15.246822
99,2006-07-17,15.246822,15.246822,15.5013607925,15.1534931174,42147100.0,15.2977306638,15.17046,15.4165141844,14.8565307302,48048900.0,15.178944576,15.272276,15.6371137044,15.0941002951,68719700.0,15.3316682065,15.17046,15.348637402,14.9413775566,61521400.0,15.1025833269,14.814107,15.1450071647,14.8056240991,55748300.0,15.0007690094
100,2006-07-24,15.0007690094,15.229854,15.2892453365,14.8904683888,44061300.0,15.2637912186,15.331668,15.4419686182,15.0347062329,33636900.0,15.2553065421,15.221369,15.4249984947,15.1534922189,33595300.0,15.3231824142,15.009254,15.3740916967,14.9328917732,33205100.0,15.1365226504,15.340153,15.340153,15.0941005094,37831900.0,15.2637914241
101,2006-07-31,15.2637914241,15.17046,15.5777223908,15.1450070551,49167000.0,15.1450071196,14.831077,15.1619771637,14.831077,41097500.0,14.9074383804,14.831077,15.0092544028,14.6613858919,57824900.0,14.6953234997,14.898953,14.9668297829,14.5510853361,58640200.0,14.9753144954,14.627446,14.9837990928,14.5086616357,66834600.0,14.6613860753
102,2006-08-07,14.6613860753,14.771685,14.9244077628,14.585024694,34420000.0,14.9668292171,14.66987,14.9753146631,14.5510847859,87925000.0,16.4686040385,16.782535,16.92677316,16.4176964526,221606700.0,16.6298122408,16.595873,16.7825358547,16.3922434945,52250700.0,16.5534503581,16.578905,16.7401115102,16.434666837,42210200.0,16.8673795975
103,2006-08-14,16.8673795975,17.045557,17.1558559231,16.7740498701,63896400.0,17.3510028969,17.520694,17.6903859516,17.2152493356,72488900.0,17.6479632084,17.902502,17.936439544,17.4697874967,65318300.0,17.8091713731,17.690387,17.9364394959,17.5800863765,43863800.0,17.6649327601,17.698872,17.732809543,17.3679709862,35119900.0,17.4867569145
104,2006-08-21,17.4867569145,17.741294,17.8176553802,17.4528176748,29109700.0,17.7328096704,18.021286,18.1061319793,17.6819020829,52518200.0,17.9873486673,17.860078,18.0976475932,17.6734176918,36645300.0,18.0806773056,17.894017,18.1740087312,17.7922009766,36280600.0,17.8431105009,17.860078,18.0467400051,17.7837166178,28999000.0,17.7837162482
105,2006-08-28,17.7837162482,18.165524,18.224916185,17.7243240633,35100000.0,18.1061316753,18.394608,18.4030934462,17.9788635569,43576400.0,18.3606693574,18.386124,18.4540007845,18.2418858329,36124700.0,18.3691536835,18.65763,18.7933835607,18.3691536835,85353600.0,18.708537993,18.8952,18.9630767849,18.5388468792,67306400.0,18.7764145436
106,2006-09-18,19.3194298135,19.378822,19.5145755692,19.2345838327,47057700.0,19.3448825435,19.310945,19.4976061555,19.0394387131,55677100.0,19.47215272,19.743659,19.8030511844,19.3703366983,76481300.0,19.811536332,19.52306,19.9133506596,19.4636686625,56254600.0,19.387306055,19.412759,19.5485142623,19.1497373155,45428100.0,19.4891196165
107,2006-09-25,19.4891196165,19.70972,19.726689195,19.2345825398,40179800.0,19.6248740303,19.938805,19.938805,19.5145751064,56462000.0,19.7775967601,19.811536,19.9218357722,19.6163910977,37352300.0,19.7097200618,19.921835,19.9388041951,19.6163903374,40084600.0,19.8878973324,19.497605,19.9642587096,19.4806349566,38149200.0,19.5569963339
108,2006-10-02,19.5569963339,19.497605,19.7182045344,19.4806349566,33241700.0,19.4042755776,19.862443,19.9303197809,19.3448816975,38231300.0,19.7521449788,20.303643,20.34606599,19.7351749344,56151300.0,20.2866725975,20.278188,20.3630339749,20.1424344402,51196400.0,20.1848589157,20.439396,20.5327274238,20.1424350785,48906000.0,20.5751502602
109,2006-10-09,20.5751502602,20.626057,20.7024192309,20.4648513341,37616400.0,20.5666646215,20.643026,20.6939327372,20.3630342787,40784600.0,20.5412097983,20.702418,20.8296861147,20.5072722566,40331200.0,20.7024181635,20.744842,20.8127187809,20.4648502789,41497200.0,20.7024183815,20.812719,20.8890803793,20.6684808391,35911400.0,20.9060481406
110,2006-10-16,20.9060481406,20.863626,21.0248342067,20.8296867603,39460700.0,20.7448420556,20.770295,20.8381709326,20.4648503338,41022800.0,20.7278729504,20.515758,20.9060486602,20.4478812159,36313200.0,20.3715190348,20.498788,20.5666647815,20.1339502997,48336400.0,20.5327277704,20.829687,20.8551416422,20.3206128228,48070200.0,20.7448430445
111,2006-10-23,20.7448430445,20.727873,20.9060487103,20.5921194314,48564000.0,20.6769656418,20.651511,20.8212038041,20.4987882399,29854800.0,20.5581805645,20.609089,20.7193879235,20.4393961948,38940300.0,20.651511119,20.524243,20.6684811631,20.329095553,34273600.0,20.4563660089,20.125465,20.5242427909,20.0491036203,43007600.0,19.9557732954
112,2006-10-30,19.9557732954,20.278188,20.3884886158,19.7436583582,43630700.0,20.4987886423,20.473334,20.6939335466,20.380004271,45209900.0,20.6515113502,20.447881,20.7448427758,20.3206128796,50207200.0,20.3460656635,20.405457,20.4818183807,20.2781888806,38778500.0,20.3715193475,20.167889,20.3884893916,19.9897115975,39342200.0,20.4818188566
113,2006-11-06,20.4818188566,20.939988,21.0842261669,20.4648513574,74537100.0,21.0587718043,21.075741,21.219979163,20.8466568587,76090900.0,20.9315032857,21.296341,21.5423934938,20.7872651195,124079100.0,23.2817373397,22.66236,23.2817373397,22.6114532614,198731600.0,22.6284218168,22.687814,22.8914443426,22.5350903946,59171800.0,22.6962991848
114,2006-11-13,22.6962991848,22.636907,22.7387213255,22.5011534348,49334500.0,22.6538772844,22.602968,22.6878148276,22.4078230964,48229900.0,22.5860000439,22.56903,22.6962989662,22.4841840226,47325100.0,22.6962990884,23.035683,23.1799211624,22.6793298928,65702600.0,22.8999295871,22.849022,22.9593209235,22.7302384786,44484400.0,22.8914443825
115,2006-11-27,22.7047842568,21.890262,22.8150831824,21.8308706624,63803200.0,21.7375397468,22.933868,23.0187122785,21.7120851057,108606500.0,22.950836358,22.976291,23.1629513044,22.8235682386,68137400.0,22.9253835771,22.832053,22.9508365224,22.7387215744,45935300.0,22.8659915391,22.645392,22.9762904602,22.4417616562,47014700.0,22.8575073167
116,2006-12-04,22.8575073167,23.120529,23.3920361295,22.7896305343,68450100.0,23.2477976684,22.942353,23.2817369076,22.9084137608,43080300.0,23.0102306425,22.984776,23.1374987641,22.8659924764,34092600.0,23.0781068261,22.806598,23.162951107,22.806598,31417900.0,22.8065971767,22.891444,23.0356821572,22.696298258,29495600.0,22.8235676015
117,2006-12-11,22.8235676015,23.001745,23.3156742635,22.7811446134,43035200.0,23.0102302399,22.976291,23.2477981315,22.7047838685,43065500.0,23.1968903802,23.120529,23.205374978,22.8490218705,43170100.0,23.095074619,23.171436,23.2817374695,23.0611370758,39441600.0,23.2732520756,23.383551,23.5617284046,23.1884060965,66987100.0,23.4174895539
118,2006-12-18,23.4174895539,23.425975,23.7229342213,23.2732513936,46255800.0,23.3071894345,23.442943,23.5532436205,23.1629512711,38603100.0,23.4853671897,23.239313,23.5023372341,23.230828402,31825400.0,23.3326437035,23.154468,23.4174896806,23.0950741191,32398900.0,23.1968905117,22.849022,23.2647672945,22.849022,27400500.0,22.9423530345
119,2007-02-05,23.2647676183,23.341129,23.4768825674,23.103560257,61115800.0,23.544758237,23.145983,23.5702128781,23.010229439,105179400.0,24.2829195277,23.833235,24.4780644268,23.8247504023,128470500.0,23.6720284958,23.875658,24.053835407,23.5871816671,55285200.0,23.8077809274,23.51082,23.8841431571,23.3156750962,50559800.0,23.4344597818
120,2007-02-12,23.4344597818,23.366583,23.5447587039,23.2647669788,39247500.0,23.4683976976,23.061137,23.5277898826,22.9168988363,59367700.0,23.1290138904,23.298705,23.4599132087,23.0356833134,48659900.0,23.4090056422,23.383551,23.5956659478,23.2902221199,36506000.0,23.3156756076,23.349614,23.3750669459,23.2138612787,34920100.0,23.3835501754
121,2007-03-05,21.2284635479,21.601785,21.8478391829,21.058771593,60022300.0,21.8817785346,22.026015,22.1193464241,21.8054171545,51801300.0,21.9835925422,21.949655,22.1617699415,21.7036008193,65487300.0,22.2041921954,22.187223,22.4247917358,22.1193462184,43868500.0,22.4163073244,22.127831,22.4756995088,22.0090474796,39302700.0,22.0429856378
122,2007-03-12,22.0429856378,22.204193,22.2720697841,21.9666234072,29173700.0,22.0599538824,21.635724,22.2550996282,21.6102693586,58047500.0,21.6357250677,21.932686,21.9581389457,21.4320947141,53373200.0,21.8054171214,21.898746,22.0005620217,21.7375403393,38348800.0,21.8817778977,22.051469,22.1193457803,21.830869464,49897100.0,22.2211631185
123,2007-03-19,22.2211631185,22.314492,22.3738858832,22.0599549072,37540300.0,22.3399464021,22.348431,22.4672153713,22.1448006492,43996700.0,22.3993378425,22.730238,22.730238,22.1108606733,44297700.0,22.7047834621,22.373885,22.7302381037,22.3654004023,37075400.0,22.441761538,22.221162,22.5520604585,22.221162,31198200.0,22.2551004226
124,2007-03-26,22.2551004226,22.348431,22.3569155979,21.8987464602,44659700.0,22.1872231508,22.000562,22.2635845307,21.9326852179,39229400.0,21.8817783795,21.805417,22.9084138557,21.6951163811,42165000.0,21.9920772882,21.576332,22.0344994284,21.3472478616,56818400.0,21.5763321737,21.661179,21.762993325,21.3048258929,38922900.0,21.7799621362
125,2007-06-04,22.6708448117,22.916899,22.9508365432,22.6114534746,32524500.0,22.7896306731,23.078107,23.1629512816,22.7896306731,59452300.0,22.8914447143,22.56903,22.9762906917,22.4587293809,42858600.0,22.4417627324,21.932686,22.5690308549,21.9242014019,68232400.0,21.958138283,22.467215,22.4926687934,21.9242007402,47289500.0,22.3060080555
126,2007-06-11,22.3060080555,22.331461,22.509638399,22.2890380118,24508400.0,22.1617702837,22.110861,22.5096387932,22.0854089035,49529900.0,22.2466147691,22.509639,22.509639,21.9411709426,43020100.0,22.5096389133,22.764176,22.8829595213,22.4926688692,39936800.0,22.9423537679,23.239313,23.2477984464,22.8065985034,74476400.0,23.239312762
127,2007-06-18,23.239312762,23.08659,23.2477982083,22.9423535329,45438500.0,22.9932598935,23.162951,23.2477978259,22.8065978946,42405200.0,23.2308280644,23.078107,23.5023368925,23.027197716,62296300.0,23.0611366318,23.179921,23.2817370212,22.832052493,50549100.0,23.0526519424,22.840537,23.3241590687,22.7811448161,53207100.0,22.7726597983
128,2007-06-25,22.7726597983,22.933868,23.2053742728,22.6962984204,44086600.0,23.1544682175,23.035683,23.3241593249,22.8999294354,53507400.0,22.8659927095,23.137499,23.1629519458,22.7811458801,38389500.0,23.5108197817,23.629605,24.0962578815,23.3920362603,77966700.0,23.739904772,23.629605,23.8077807063,23.4599130431,44996100.0,23.7738436226
129,2007-07-09,24.1217109564,24.138681,24.1811031395,24.0538341756,33283200.0,23.9095970749,24.019896,24.1641350139,23.8417202911,39571700.0,23.8756570938,24.401703,24.4356405424,23.8671724961,42390300.0,24.5120025878,25.284101,25.4283391649,23.3835510624,91906700.0,25.0465327296,25.360462,25.4198541847,25.0295635339,56273400.0,25.2162238373
130,2007-07-16,25.2162238373,25.360462,25.4537934243,25.2162238373,44305500.0,25.3265241726,25.224709,25.4368239428,25.1144092297,37508500.0,24.9871405975,24.978656,25.071984876,24.503516841,47968900.0,25.3265237733,25.402886,25.453792737,25.2925845346,53279800.0,25.4028867728,25.105925,25.4028867728,24.9447176411,45824600.0,25.2247093156
131,2007-07-23,25.2247093156,25.674393,25.7846919232,25.1822863265,63484100.0,25.4113712063,25.250163,25.7592397154,25.0974402399,69577300.0,25.4537933801,25.377432,25.6574237272,25.1568324574,53082100.0,25.0210792376,25.173802,25.4113715899,24.6732107233,75708200.0,25.2247092818,24.579879,25.3265244555,24.5544269035,65845500.0,24.6138183042
132,2007-07-30,24.6138183042,25.021079,25.0804703363,24.2914027382,44467000.0,25.3010703923,24.528972,25.3350096316,24.528972,53750200.0,24.4101882083,25.258648,25.3010709896,24.3932190124,60419600.0,25.2162234946,25.564092,25.6319687815,25.1738013546,57743600.0,25.4537931247,24.995624,25.5640920465,24.9786565015,51310500.0,25.1059253817
133,2007-08-06,25.1059253817,25.029564,25.1992568078,24.520488122,71355300.0,25.046531993,25.190771,25.3350091585,24.5459407371,80731400.0,26.4125522696,26.879206,27.3628280777,26.302253346,193438400.0,26.471945893,26.641637,27.5494898099,26.454975849,102385500.0,26.3022535299,26.633152,26.7264834255,26.1664999633,82953500.0,26.7858752368
134,2007-08-13,26.7858752368,26.158015,26.8113290302,26.1155928595,76475600.0,26.285284043,25.674393,26.4464914015,25.5216702393,86429500.0,25.5810627523,25.385917,26.0816540301,25.3604623578,67216700.0,25.2671333961,24.859871,25.4962158425,24.2489807996,103117900.0,25.4622781957,25.445309,25.8440842512,25.0804704433,78478700.0,25.3944011623
135,2007-08-20,25.3944011623,25.250163,25.7168150296,25.0465326532,50697300.0,25.2501636678,25.53864,25.7083311117,25.1907723302,39863000.0,25.835601207,25.674393,25.8525687057,25.3774320763,39826300.0,25.8695391549,25.682878,25.9798397768,25.5047005946,38032000.0,25.6234861657,26.073169,26.0901381956,25.513185546,33962000.0,25.8865077328
136,2007-08-27,25.8865077328,26.387099,26.5143679662,25.8865077328,43417300.0,26.1834697508,25.801662,26.3870992502,25.7846919559,41973100.0,25.9119623523,26.302253,26.3192221955,25.8695385152,39609200.0,26.149530532,26.667091,27.1252584347,26.098622945,56344200.0,27.0404138597,27.082836,27.1337435865,26.8707210564,39064400.0,27.0998061331
137,2007-09-17,26.5822448378,26.726483,26.9385979444,26.5143680556,29943700.0,26.7943596556,27.184652,27.184652,26.6501214941,56188700.0,27.3458583677,27.227074,27.5579733101,27.1931347608,49602000.0,27.1422286946,27.328889,27.4816117623,27.0743519113,33397100.0,27.6258512394,27.40525,27.6258512394,27.3119194244,56843000.0,27.3373750228
138,2007-09-24,27.3373750228,27.048897,27.5155507285,26.9385980768,41171000.0,26.9385976091,27.524034,27.600395379,26.8537516324,47893500.0,27.7022136731,27.99069,27.9991729009,27.6597872901,64886200.0,28.0161414493,28.194318,28.2452264344,27.8719015923,38079100.0,28.1179559008,28.109473,28.3215879423,27.9737194369,33792100.0,28.0076558019
139,2007-10-01,28.0076558019,27.99069,28.2791663269,27.9737199558,42086900.0,27.999173099,28.007656,28.1094737203,27.8888724777,31426300.0,27.9143287535,27.532521,27.9737200903,27.5155509558,37321200.0,27.6513035977,27.277983,27.7276649762,27.0488963193,50560900.0,27.4391887762,27.702213,27.8379657138,27.3713102981,36316300.0,27.6003962372
140,2007-10-08,27.6003962372,27.753119,27.9143289062,27.5834261928,19355200.0,27.8294797181,28.067051,28.0755339008,27.7022132975,32963800.0,28.3300713256,28.228257,28.4234027502,28.1264435229,36917700.0,28.3215883705,27.82948,28.5082469771,27.6597871951,45218400.0,27.8549360144,27.931294,28.1009868029,27.7870575357,29083700.0,27.9312942259
141,2007-10-15,27.9312942259,27.820997,28.1179562257,27.5834257165,34711500.0,27.4985813246,27.396767,27.5749427044,27.0234438503,51867400.0,27.744636047,27.541004,27.7785752871,27.0743519629,38775000.0,27.3119198535,27.727666,27.939780948,27.303436104,33165700.0,27.6767571027,26.726483,27.6852433973,26.6416370222,60430500.0,26.3870990122
142,2007-10-22,26.3870990122,26.616184,26.7010282806,26.2598308944,41887400.0,26.5992137952,26.760422,26.7943595423,25.5301544848,50306400.0,26.446491619,26.522853,26.6076998273,25.8949927562,48647400.0,26.616184207,26.454976,27.0488969989,26.3446753799,41326500.0,26.9895047713,27.065867,27.2355572592,26.565274881,42232000.0,27.3628274375
143,2007-10-29,27.3628274375,27.498581,27.5664594782,27.1507124961,34941700.0,27.3713105346,27.668274,27.9567503223,27.2610133096,39989100.0,27.9482641301,28.050081,28.1603790738,27.5664597769,54876500.0,27.8634194605,27.303436,28.2112879739,27.261013859,49818300.0,27.4900988172,27.583426,27.753118806,27.2440446303,53250400.0,27.6937261543
144,2007-11-05,27.6937261543,28.067051,28.2112874646,27.4731283102,69607200.0,28.3809804901,28.915511,29.0512645648,28.3470412505,91068600.0,28.8815719727,27.787058,28.9239941136,27.6088822933,138236000.0,25.8016624918,25.139863,26.3786151552,25.0380486726,192353700.0,24.6562398373,24.24898,24.8429026819,23.8841423023,120564300.0,24.4610954136
145,2007-11-12,24.4610954136,24.698665,25.2756176494,24.4271578709,89644700.0,25.1228950121,25.572577,25.5810624463,24.6986651208,64869800.0,25.8101462871,25.207739,25.827116331,25.0719854364,61079800.0,25.0295638065,24.859871,25.1822865687,24.6562406504,59934000.0,25.3265237733,25.402886,25.5386387128,24.9871407186,53853200.0,25.250163735
146,2007-11-26,24.4017033251,23.332644,24.427157967,23.2647672175,84568600.0,23.4429425189,23.324159,23.7399042859,22.8405369327,70141600.0,23.6720278814,23.799296,24.1301970114,23.5871810548,71609300.0,23.5956648361,23.884142,23.9944426161,23.578697338,42602000.0,24.0962577159,23.773843,24.1047423137,23.4853666752,65641700.0,23.7568737033
147,2007-12-03,23.7568737033,23.392036,23.9605040493,23.3580984575,52984900.0,23.2987048933,22.874475,23.3326441333,22.7556914783,71486400.0,23.2817364584,23.315674,23.5956648699,23.0102293375,66642200.0,23.459912783,23.578698,23.714451564,23.3326438167,53056600.0,23.7399048386,23.290222,23.7823286764,23.2817374021,56313400.0,23.4853661952
148,2007-12-10,23.4853661952,23.468397,23.7568733189,23.2647666573,58231300.0,23.6041510443,23.773843,24.5968489854,23.5871810002,90163900.0,24.5374570228,24.435641,24.9786569602,24.0708049888,86656700.0,24.5035182356,24.656241,25.0635034019,24.452611496,55224800.0,24.5968483169,24.308372,25.1483463097,24.1895876342,53644700.0,24.2574654176
149,2007-12-17,24.2574654176,23.714452,24.3083730051,23.6889973578,43977000.0,23.875656554,23.884142,24.155648272,23.4005199417,49890100.0,23.8756573142,23.918082,24.1811036828,23.7314191518,33411700.0,24.2659492763,23.994443,24.2829193201,23.8926269798,47296000.0,24.3168575874,24.26595,24.6053339161,24.1132272378,69126500.0,24.3338264573
