,date,open1,close1,high1,low1,volume1,open2,close2,high2,low2,volume2,open3,close3,high3,low3,volume3,open4,close4,high4,low4,volume4,open5,close5,high5,low5,volume5,target
0,2003-01-06,16.957712484,17.235338,17.3253797016,16.957712484,238000.0,17.235337435,17.122787,17.9631699344,16.9652160908,383900.0,17.1227867716,17.017739,17.1903174819,16.7326085839,424200.0,17.1452972296,17.400414,17.400414,17.1152828299,347800.0,17.4454336985,17.355392,17.4829500098,17.2653518022,433600.0,17.4829503243
1,2003-01-13,17.4829503243,17.467945,17.6405227367,17.3403869879,260800.0,17.482950312,17.445434,17.4979578873,17.3779032877,216600.0,17.5204674261,17.257848,17.5204674261,17.2203316895,171200.0,17.37039929,17.43793,17.6480255422,17.3328822289,305800.0,17.2578488745,17.332883,17.4004144633,17.2578488745,219200.0,17.4454333321
2,2003-02-03,16.9051887173,16.560031,17.0327467268,16.5525268373,297000.0,16.5675351902,16.454984,16.5900461785,16.454984,248800.0,16.4624875519,16.552527,16.972719595,16.4624875519,213900.0,16.9201939072,16.762623,17.0327465919,16.507506983,319700.0,16.8676707933,16.657576,17.0177390388,16.6425684251,294500.0,16.6575762884
3,2003-02-10,16.6575762884,16.725107,16.7401123241,16.409963679,280200.0,16.7326095873,16.740113,16.9352024807,16.5675352581,223800.0,16.8301546026,16.7101,16.8901819039,16.6950931747,203700.0,16.7176042626,16.740113,16.8076444647,16.3574389519,332700.0,16.7326090882,17.190318,17.2578487124,16.7326090882,456500.0,17.3103724522
4,2003-03-03,17.4071878656,17.165527,17.4222924721,17.0598000409,195600.0,17.241046011,17.014489,17.241046011,17.014489,212900.0,16.8634501361,16.954074,17.142872143,16.765275857,365300.0,16.9540741972,16.795483,16.9691765384,16.6973087197,168800.0,16.7124108788,16.878554,16.9163136286,16.651995473,224200.0,16.8105866928
5,2003-03-10,16.8105866928,16.372575,16.8105866928,16.3423665419,196300.0,16.0704995792,15.745766,16.3423674098,15.745766,421100.0,15.58717426,15.715557,15.7457654587,15.3681691647,312100.0,16.0856018703,16.251745,16.2592976813,15.9119083248,511200.0,16.2970555206,16.349919,16.4631971293,16.1988812425,374400.0,16.334814643
6,2003-03-17,16.334814643,16.908761,16.9163136809,16.213983831,344100.0,17.1051111362,16.916313,17.1881823161,16.7728256613,439100.0,17.0673521143,17.180631,17.2939098857,16.9389693771,337600.0,17.180631,17.180631,17.2863572048,16.9163136,319700.0,17.3316705,17.611091,17.6715064065,17.1730793027,407000.0,17.4222927693
7,2003-03-24,17.4222927693,16.991833,17.4298446951,16.8332433139,492900.0,16.9163134796,16.86345,16.9993846619,16.7275153381,673600.0,16.7879310353,16.689756,16.8105868127,16.5915802095,551800.0,16.6973082673,16.546269,16.7350671401,16.4631970632,511500.0,16.5462693949,15.874148,16.5538213206,15.594726746,1197100.0,15.6324873471
8,2003-03-31,15.6324873471,15.489,15.6324873471,15.3002018528,524700.0,15.2548911034,15.519207,15.519207,15.2020261116,482900.0,15.7457652617,15.874148,16.0402903673,15.7080048775,281900.0,15.843939539,15.594726,15.8816999213,15.5871733194,345700.0,15.5343118138,15.617383,15.708005357,15.511656791,268100.0,15.7835241356
9,2003-04-07,15.7835241356,15.594726,16.1158088542,15.5871733194,371900.0,15.6475892309,15.239786,15.6475892309,15.239786,412000.0,15.4059288285,15.209578,15.6249354347,15.1038517926,488200.0,15.2095777811,15.390824,15.3983759258,15.1038515753,159700.0,15.5418634048,15.277546,15.6173826634,15.224682519,223200.0,15.3908238788
10,2003-06-02,20.2066598051,20.237045,20.5409060652,20.1382914072,319100.0,20.2826258513,20.168677,20.381379446,19.9635733217,274700.0,20.0927132688,20.7688,20.7688,20.0319413595,318800.0,20.4345540099,20.282625,20.5105188947,20.0319408802,428400.0,20.3358,20.3358,20.6168693188,20.2218534305,564200.0,20.3206076428
11,2003-06-09,20.3206076428,20.07752,20.3206076428,19.9483796897,251100.0,20.1686765114,20.176273,20.3206070433,20.0851166559,241800.0,20.3661856843,20.328204,20.3661856843,20.183870713,303300.0,20.3130105342,20.3358,20.419360615,20.1610815217,210200.0,20.3433973509,20.069923,20.3889755231,20.0623265114,300500.0,20.2446422272
12,2003-06-16,20.2446422272,20.396572,20.4117657369,20.1610816118,252600.0,20.4345541444,20.199063,20.4345541444,20.1155016262,211500.0,20.2826251213,20.031941,20.2826251213,19.978764061,201200.0,20.0927138708,19.826836,20.1686772404,19.7660640889,207600.0,19.9787647307,19.796449,20.0167479343,19.796449,253700.0,19.5229766464
13,2003-06-23,19.5229766464,19.447011,19.6749056602,19.2950812266,258300.0,19.6369229084,19.576151,19.864817565,19.507782603,274000.0,19.3862382626,19.074783,19.6217294014,19.067185752,317400.0,19.0064148488,19.241906,19.3938365346,19.0064148488,215300.0,19.1811337745,19.203924,19.5305714915,18.8013093433,289100.0,19.4849927055
14,2003-09-08,22.9748941144,22.860364,23.0894249923,22.7305615748,258500.0,22.6771143829,22.509135,22.6771143829,22.2418955238,308100.0,22.4251467294,22.051011,22.4633229253,21.951751669,511400.0,22.2037197547,22.539677,22.6007601355,22.0968250312,282700.0,22.5396769116,22.799281,22.837457196,22.1655434717,348600.0,22.7611027242
15,2003-09-15,22.7611027242,22.654208,22.8527281914,22.6160318036,287700.0,22.7305616555,23.005435,23.0283419392,22.7305616555,212600.0,22.906176,22.906176,23.0054353325,22.60076032,233900.0,22.9901659495,23.356664,23.356664,22.6465725479,443700.0,23.2879452106,23.707891,23.7231625473,23.1734143325,519100.0,23.7078911817
16,2003-09-22,23.7078911817,23.845329,23.8682351758,23.6315387895,493700.0,23.7842458735,23.440654,23.8071520493,23.2344976543,372600.0,23.3261209768,22.867999,23.3261209768,22.7152904018,452600.0,22.7916457482,22.188449,22.8603650416,22.0662834882,721600.0,22.1426363919,22.135001,22.1731787228,21.9135753996,296200.0,22.1350012018
17,2003-09-29,22.1350012018,22.325886,22.3335213919,21.7608669973,416000.0,22.257167338,22.386969,22.5702176416,21.9288447235,359800.0,22.2953453446,22.883269,22.8909051555,22.2189906613,344700.0,22.9061764123,23.112332,23.19632055,22.776374746,356700.0,23.3032160608,23.39484,23.5475486014,23.3032160608,305100.0,23.3337571723
18,2003-10-06,23.3337571723,23.08179,23.3642995038,22.9748945121,322800.0,23.1046958515,23.341393,23.4024761351,22.9825295813,281300.0,23.3795702478,23.272674,23.3795702478,23.0817892067,154800.0,23.3948404559,23.570456,23.8376931944,23.3795711989,231200.0,23.4788302049,23.104696,23.5628202797,23.104696,548700.0,23.3795710675
19,2003-10-13,23.3795710675,23.8606,23.8606,23.349028736,397500.0,23.7460691801,23.883507,23.9293185886,23.6697152599,274700.0,23.8376933921,23.830058,24.1049328794,23.7613409981,270100.0,23.8376921855,23.97513,24.1202024427,23.6315381362,315700.0,24.0896615514,23.616268,24.0896615514,23.6086326078,211200.0,23.4788301214
20,2003-10-20,23.4788301214,23.593361,23.6697149191,23.3261215196,299600.0,23.5933611608,23.746069,23.9674946033,23.555184201,226000.0,23.066518347,22.791645,23.7537051505,21.9746588238,1130700.0,22.7763745477,22.761103,22.7763745477,22.272438671,457600.0,22.7611031971,22.722927,22.7687393528,22.4175120781,299700.0,23.1734143085
21,2003-10-27,23.1734143085,22.524406,23.1734143085,22.3716973992,440100.0,22.5244063211,22.829822,22.8527281759,22.2189906421,594200.0,22.7152912,22.906176,22.9443521965,22.654208064,445600.0,22.9061751951,22.867999,22.9748937207,22.8298212778,334500.0,22.9443521965,22.906176,22.9443521965,22.4938640685,459100.0,22.7916445328
22,2003-11-03,22.7916445328,23.287945,23.4177466607,22.7916445328,730900.0,23.0588848208,22.921447,23.0588848208,22.6923844743,396800.0,22.9978019388,22.814551,22.9978019388,22.5167714694,354700.0,22.70765494,23.020706,23.0436121751,22.692383393,516800.0,23.0741530497,22.867999,23.1123307719,22.8221851225,362900.0,22.8603647594
23,2003-11-10,22.8603647594,22.310615,22.8832694087,22.2953457428,713000.0,22.3335215884,22.28771,22.3793331769,22.2189907085,661900.0,22.2877102128,22.142637,22.2877102128,21.9364814141,742700.0,22.0968254111,22.142637,22.2037201366,21.9670229824,480300.0,22.0662827993,21.875398,22.2037198548,21.8372210401,287800.0,21.7608670606
24,2003-11-17,21.7608670606,21.783774,21.7990432568,21.4859921868,643700.0,22.9061756888,23.555184,23.7918811488,22.8832687496,1913800.0,23.6702748987,23.31733,23.6702748987,23.1255125373,550500.0,23.3250035443,23.033441,23.4170759267,23.033441,445400.0,23.0411146589,23.363368,23.4631123145,23.0411146589,492200.0,23.4017311342
25,2003-12-01,23.9158012972,24.590998,24.7597981348,23.9158012972,365700.0,24.544961767,24.2534,24.544961767,24.1996911121,224600.0,24.3301258834,24.092273,24.4912533172,24.0078740848,397000.0,24.13063785,24.215036,24.2457275617,23.7930383445,326500.0,24.1306377773,23.647257,24.1306377773,23.3633679201,390000.0,23.6088928912
26,2003-12-08,23.6088928912,24.038564,24.0539093967,23.5935474944,245000.0,24.0002009742,24.030891,24.2840900431,23.9695094138,402600.0,23.9925289723,24.023219,24.1076194535,23.8544203949,400800.0,24.1459810958,24.614018,24.6753980527,24.1229645352,349900.0,24.5909978245,24.713761,24.7291071642,24.2687444888,344600.0,24.905578328
27,2003-12-15,24.905578328,24.882561,25.1664500745,24.7137608673,806300.0,24.9746333551,25.289214,25.3122343978,24.8595451771,513000.0,25.3582681779,25.235505,25.3582681779,25.059033699,423200.0,25.2815425533,25.918375,25.9413946302,25.2815425533,600000.0,26.5475350325,26.217609,26.5859015937,25.7956113536,775800.0,26.2176091526
28,2004-01-05,25.9030292445,26.163901,26.1715760005,25.9030292445,347100.0,26.4708100339,27.184371,27.2457510539,26.4017557468,807700.0,27.0462615513,27.130662,27.2304078453,26.8544440935,737200.0,27.5066225376,27.706115,27.706115,27.1997168999,507200.0,27.85189486,27.644732,27.85189486,27.360842922,432100.0,27.6063693355
29,2004-01-12,27.6063693355,28.135784,28.1588043974,27.4682599946,360200.0,28.00534916,28.772619,28.8646906135,27.9669864353,924700.0,28.772619085,28.381313,28.9797819424,28.3352752749,450600.0,28.4657098014,28.810982,28.9260740116,28.3659670231,455600.0,29.0027989069,28.734256,29.064182028,28.6805471117,429900.0,28.4657094875
30,2004-02-02,28.2355299279,27.851895,28.3122592153,27.3685142235,499900.0,27.9669872463,27.667752,28.0130211362,27.5449895893,522300.0,27.3531715917,27.475934,27.5603313814,27.2764423052,285500.0,27.6600779334,27.276443,27.6830983313,27.1997175479,585200.0,27.3531716992,28.197167,28.3736390656,27.3531716992,501900.0,28.2662213728
31,2004-02-09,28.2662213728,28.46571,28.6882190245,28.2662213728,374300.0,28.0053497928,27.790515,28.135784134,27.606369467,681700.0,27.8135318911,28.427347,28.465709725,27.7214602769,465000.0,28.4273468997,28.266221,28.4273468997,28.1664751532,393300.0,28.2355296493,27.813532,28.4657098365,27.5066225261,434800.0,28.0053497384
32,2004-03-01,28.544396512,28.814049,28.9835410855,28.4134251098,387000.0,28.6984832703,28.505876,29.2069664638,28.4288346328,556000.0,28.5058757315,28.698483,28.7447095149,28.3132684631,363000.0,28.5829172115,28.960429,28.9681317499,28.3903099422,318700.0,28.9681313815,29.176148,29.2763045491,28.7447092633,320700.0,29.1761485096
33,2004-03-08,29.1761485096,28.706186,29.1761485096,28.706186,216300.0,28.544396166,28.69078,28.8525693337,28.3903095821,379200.0,28.6984832597,28.220818,28.8217519126,28.220818,378300.0,28.228520664,28.39031,28.8371604064,28.0205048128,583300.0,28.4134253658,29.10681,29.1299244134,28.4134253658,342900.0,29.1145156052
34,2004-03-15,29.1145156052,28.760119,29.1684456406,28.698483133,519100.0,28.8756820052,28.737004,29.0991064391,28.467355362,358000.0,29.0451773603,29.314826,29.3687560361,29.0220621764,444000.0,29.1992642095,28.552103,29.1992642095,28.4134257631,1027800.0,28.9681317606,28.159182,28.9835411126,28.105252735,605000.0,28.1206613359
35,2004-03-22,28.1206613359,27.958872,28.1206613359,27.6892202819,302700.0,27.866417766,27.658405,27.9049415306,27.5736570323,438200.0,27.6584052501,27.666108,27.6969259333,27.311711397,433800.0,27.8587160448,28.552103,28.5598065205,27.7354473898,420800.0,28.5983261175,28.374904,28.8371598981,28.2516322679,395500.0,28.2978599472
36,2004-03-29,28.2978599472,28.729301,28.9142024373,28.2978599472,256300.0,28.8833880948,29.630702,29.661519934,28.8833880948,584400.0,29.5074327282,29.838718,30.0390310999,29.4149820098,565800.0,29.7385609161,30.647668,30.6707824132,29.7385609161,697000.0,30.7786424843,30.647668,30.8171631679,30.3857221131,464300.0,30.4319491451
37,2004-07-12,29.7260540891,29.60226,29.7337927671,29.5016796238,305500.0,29.7570024975,29.873061,29.9194814609,29.6099977949,231800.0,29.8498506268,30.128385,30.4069216944,29.7183178626,279700.0,30.1206494655,30.68546,30.824728351,30.1206494655,368500.0,31.1032660405,30.600351,31.1032660405,30.5616661204,339500.0,30.6003505267
38,2004-07-19,30.6003505267,30.878888,30.9794714708,30.5616656477,494500.0,30.7164089444,31.002682,31.1187397315,30.7164089444,850000.0,31.0645807677,31.420488,31.7144997352,31.0181564369,747100.0,31.428223832,30.832464,31.428223832,30.5848765937,691400.0,31.1806354938,31.296694,31.7067611474,31.1496861977,898900.0,31.2193200901
39,2004-07-26,31.2193200901,31.76092,31.7996048789,31.2193200901,779000.0,31.8073444485,32.642953,32.7125871749,31.7763951526,944700.0,32.642953058,32.84412,32.9756496721,32.4340497592,957100.0,33.0143342922,33.524988,33.5481986178,32.8828046211,953300.0,33.5327231905,33.192291,33.6333066596,33.1536022531,691900.0,33.19229157
40,2004-08-02,33.19229157,34.066585,34.1439578528,32.9214896799,865000.0,34.0743228288,34.321911,34.5849734319,33.9892136213,1164700.0,34.1594332455,34.058849,34.2677523005,33.942791267,491500.0,34.0897976636,33.648782,34.2600129867,33.648782,632700.0,33.6565179708,32.828645,33.6565179708,32.7512752417,863200.0,32.8828049109
41,2004-08-09,32.8828049109,33.006599,33.1845522293,32.8518556149,500800.0,33.0375476366,33.803522,33.803522,33.0375476366,479200.0,33.7338876943,33.33156,33.7648369902,33.2696614081,733800.0,33.3470308735,32.820906,33.4244044995,32.7435362425,591500.0,32.8363807567,32.581057,33.0143339827,32.4572629132,351200.0,32.5810578858
42,2004-08-16,32.5810578858,33.285136,33.3470314977,32.5810578858,422700.0,33.285135678,33.277397,33.7338877032,33.1149180319,390900.0,33.277399681,33.735488,33.7743082676,33.1842299518,415900.0,33.7354884909,33.502563,33.9761766378,33.3084577772,350500.0,33.774309,33.774309,33.9218281939,33.6190240443,372600.0,33.696668374
43,2004-08-23,33.696668374,33.463739,34.069349627,33.4093903138,337800.0,33.6190243874,33.650082,33.8131296135,33.3860988925,275600.0,33.619023658,33.743251,33.8131288799,33.5258539279,387700.0,33.5802037022,33.991706,34.0538212244,33.5802037022,427400.0,34.1236989378,33.634553,34.1236989378,33.6034953879,400100.0,33.6578436348
44,2004-08-30,33.6578436348,33.31622,33.6578436348,33.0134158564,386300.0,33.4715053765,34.015,34.015,33.4715053765,437000.0,34.0848787318,34.123699,34.2556889989,33.9218280151,412400.0,34.0615839836,34.768127,34.8147130303,33.9917061028,364000.0,34.7836557312,34.822476,35.0554053769,34.6904859991,225600.0,34.8224749235
45,2004-09-20,36.0958082198,35.901703,36.2200355604,35.8551161944,456300.0,35.9017038947,36.297677,36.297677,35.8085310576,444600.0,36.2666189345,35.645483,36.2666189345,35.614425388,545400.0,35.6532451944,35.699832,36.4451952671,35.3659702458,456700.0,35.5600754873,36.033693,36.1268627291,35.5600754873,231900.0,36.0336935195
46,2004-09-27,36.0336935195,35.560076,36.0414561756,35.4280860015,526500.0,35.6532460579,36.010402,36.1035717313,35.6377207456,299100.0,36.0181648937,36.150158,36.3209690457,35.8706464751,246900.0,36.2666185566,36.522839,36.6004795352,36.1734488273,366600.0,36.4607242561,36.996457,37.0197480739,36.3986121377,391100.0,37.0740977164
47,2004-10-04,37.0740977164,36.779057,37.2060877156,36.546131508,407400.0,36.9731617978,37.501128,37.547714806,36.9265780975,333100.0,37.5632440419,37.982509,37.9980381945,37.5399490855,388300.0,37.9825086114,37.819461,37.9980378058,37.679705239,537700.0,37.8272269561,37.671942,37.8660472246,37.5088943877,467900.0,37.7728780602
48,2004-10-11,37.7728780602,37.4856,37.7961691341,37.268202926,320200.0,37.4079582485,37.035277,37.4545450544,36.8489344347,452800.0,37.3458440137,36.30544,37.353610552,36.2588570749,656300.0,36.3597920018,36.623772,36.8334064177,36.1889786288,564400.0,36.1812124854,36.988691,37.0740980757,36.0569859175,776200.0,36.8955206778
49,2004-10-18,36.8955206778,37.679705,37.6952334178,36.7868225297,520100.0,37.5942981187,37.532186,38.1766137889,37.5011283878,550600.0,37.5321854176,37.516657,37.5321854176,37.2371447062,424500.0,37.5632435102,37.928159,38.0446236866,37.2216167651,374400.0,37.9359254547,36.841172,38.3551935116,36.841172,535900.0,36.841172
50,2004-10-25,36.841172,36.841172,36.9886904162,36.1035713782,586600.0,37.2293828508,37.470071,37.4778367618,36.8489350578,484700.0,37.4700709825,37.912634,37.9359258505,37.4545456702,581300.0,37.9126339397,38.463892,38.463892,37.7340540278,633600.0,38.1999085289,38.898685,39.5974653532,38.1999085289,470600.0,38.859864315
51,2004-11-01,38.859864315,38.976329,39.2868950231,38.5881185595,619300.0,38.9763301402,38.471655,38.9840927964,38.2387295053,709200.0,39.0151500443,39.170435,39.170435,38.8210448202,442100.0,39.1316139524,40.521405,40.5757536852,39.0927898026,647200.0,40.5369340439,40.560229,40.7543342232,40.4127067011,343000.0,40.6068120887
52,2004-11-08,40.6068120887,40.917382,41.0959580297,40.4515271331,438900.0,40.9173816864,40.800917,41.1425445209,40.6068117775,425400.0,40.9950223888,41.15807,41.3677044176,40.723276629,334700.0,41.2667715114,41.499697,41.5540456854,41.150306826,364700.0,41.2822975514,41.670508,41.6938029562,40.8242123277,540900.0,41.8646128668
53,2004-11-15,41.8646128668,42.237298,42.2761182681,41.4608771094,526300.0,42.268352342,42.144125,42.3304667894,42.0431926139,601000.0,42.587913214,42.8137,43.2496982303,42.4321979475,782700.0,42.73583994,42.743628,42.8837710375,42.3932696276,464000.0,42.751413342,41.404483,42.7981284677,41.3733393233,912800.0,41.4823387892
54,2004-11-29,41.4434109141,41.349983,41.6925533159,40.8439093577,608200.0,41.4589825263,41.762625,41.7781972274,41.1942678961,634400.0,41.7314812784,42.907128,43.0161273632,41.7314812784,706500.0,42.7124850145,42.471126,42.9460559689,42.4399823237,549700.0,42.2764819862,41.902768,42.2764819862,41.7548400175,612300.0,41.9027679683
55,2004-12-06,41.9027679683,41.381126,41.9027679683,41.3266259302,665600.0,41.5601979553,40.758266,41.5601979553,40.6959817615,681800.0,40.4079108709,40.275552,40.9529084603,40.1665518593,1000400.0,40.1821244695,40.298908,40.3066952816,39.9796932991,730400.0,40.2989081673,40.291124,40.5869823075,40.1354087325,411600.0,40.3534112026
56,2004-12-13,40.3534112026,40.62591,40.6726259036,40.2755524013,635900.0,40.6259097548,41.91834,42.0974116605,40.6259097548,689600.0,42.0818398037,42.183055,42.3231988184,41.6146978947,652900.0,42.3543424089,42.089627,42.3543424089,41.6847693301,413100.0,42.0896269048,42.432198,42.4399821673,41.9494838655,801400.0,41.6536253593
57,2005-01-24,34.5530461425,34.264972,34.7243297459,34.264972,468900.0,34.3739743736,34.638689,34.8878313993,34.3739743736,573400.0,34.5919731623,35.020188,35.0980468004,34.5063301948,574900.0,35.0902599143,34.996832,35.4484024586,34.7554729862,273400.0,35.0746877518,34.568618,35.0746877518,34.2727589147,496200.0,34.9345447388
58,2005-01-31,34.9345447388,35.463974,35.5106899037,34.8800446678,319200.0,35.3471904693,35.463974,35.7053330145,35.207046651,301900.0,35.46397354,35.720904,35.7754040703,35.354974178,278000.0,35.7364763841,35.759832,35.892187757,35.4639736956,615700.0,35.4250467792,35.051332,35.4250467792,34.8411174367,863500.0,34.9812596525
59,2005-02-07,34.9812596525,35.238187,35.3939022662,34.8878317385,330500.0,35.1136149071,35.876619,35.8999753942,35.0746870643,541200.0,35.7364763056,34.825545,35.7364763056,34.825545,451800.0,34.8255449619,34.965688,35.207046233,34.6854011453,368900.0,34.9734723946,34.950116,35.300474376,34.7321172743,444900.0,34.872260474
60,2005-02-14,34.872260474,34.568618,34.9579042212,34.2961153094,406900.0,34.5686174812,34.638689,34.6698295615,34.1014716871,526700.0,34.5996184293,34.529294,34.6543144262,34.2401832387,358400.0,34.576178226,34.068278,34.794964561,34.0292096534,453100.0,34.1620464475,33.654147,34.2948799205,33.5838225693,527100.0,33.6619623545
61,2005-03-07,33.6775863296,33.404104,33.7322831081,33.3415918333,372800.0,33.3572209633,34.232371,34.2714401283,33.3337802677,1255000.0,34.0995336922,34.021397,34.2323702884,33.6932147663,688500.0,33.9276288331,33.990141,34.122974471,33.7713546669,330100.0,34.0682780665,34.419901,34.4667855164,34.0682780665,571700.0,34.4902252747
62,2005-03-14,34.4902252747,34.662131,34.6933870837,34.3183203309,727800.0,34.6933872118,34.623062,35.0059378915,34.5839905279,409800.0,34.4902251939,34.13079,34.4980413636,33.7869832386,790700.0,34.1307907171,33.669775,34.1386037614,33.5525668329,402800.0,33.6775867072,33.161875,33.7088427909,32.841508151,668500.0,33.2556417898
63,2005-06-06,28.7258467255,29.016247,29.0554891773,28.5296319147,281100.0,29.071187112,28.788637,29.1496714665,28.6630595213,476300.0,28.8749722891,28.55318,28.922061489,28.4354503289,636900.0,28.5610271958,28.780787,29.0005499436,28.4982400258,508300.0,28.7650924625,28.670907,28.7729394852,28.5217845306,597300.0,28.5767253275
64,2005-06-13,28.5767253275,28.694455,28.9299127753,28.5688783047,415300.0,28.6944546407,28.561027,28.7650927573,28.4746924835,367300.0,28.5610266233,28.192142,28.7179992543,28.1372018538,653200.0,28.2156898319,28.278477,28.427601822,28.2156898319,330000.0,28.9220619602,28.458995,28.9220619602,28.1842958306,471100.0,28.1921426829
65,2005-06-20,28.1921426829,28.231388,28.35696548,27.9566856929,599600.0,28.1136576309,27.956685,28.1999921463,27.7840183239,735400.0,28.0979600578,28.317723,28.3805101696,28.0587178806,533900.0,28.317723078,27.807563,28.3334171235,27.7997128378,619400.0,27.7840190928,27.509316,27.8389584556,27.509316,906800.0,27.4700742757
66,2005-06-27,27.4700742757,27.156129,27.4700742757,27.0933418285,567700.0,27.2660110176,27.501468,27.5642551682,27.1639785336,855800.0,28.2549330194,28.725847,29.1496717802,28.2156908417,1555000.0,28.9613079146,28.725847,29.1889147427,28.6473626447,1110000.0,28.8043346768,28.898517,29.1732161622,28.7807865452,473400.0,28.5845717933
67,2005-07-18,30.4132953389,30.366203,30.6958454482,30.2720206767,424900.0,30.3819006645,30.240626,30.5231753289,30.0915035279,651500.0,30.1385959496,31.151062,31.2844896386,30.1385959496,699400.0,31.3158855529,30.656603,31.3394297606,30.4682359957,619500.0,30.7272409697,30.711543,30.9862429505,30.4054486797,411800.0,30.6958460924
68,2005-07-25,30.6958460924,30.421143,30.8528179426,30.3348116218,366300.0,30.4368406056,29.997321,30.5153280995,29.9659258455,356600.0,30.044410859,30.311263,30.4132954858,30.0208658667,468100.0,30.5074781015,31.190308,31.190308,30.3583556297,573400.0,31.2452467848,30.601663,31.2452467848,30.4917795682,530900.0,30.6095104668
69,2005-08-01,30.6095104668,30.248476,30.6409056214,30.1856856909,475800.0,30.3740531542,30.342658,30.7507848019,30.2406255147,407700.0,30.2641735934,29.432222,30.2641735934,29.3301895122,886900.0,29.4322215986,29.047639,29.4322215986,29.0397919773,1287500.0,29.0790337859,28.43545,29.1261269096,28.3726628311,603800.0,28.561026876
70,2005-08-08,28.561026876,28.60812,28.9456094722,28.4982397067,517200.0,28.6081204474,28.254933,28.7650930822,28.1999928525,481800.0,28.333417015,28.302025,28.6238172886,28.2078403214,518300.0,28.2235370391,28.451147,28.529631353,28.1685968932,644400.0,28.4119053785,28.804335,28.9770016789,28.2627797678,679200.0,28.7572422261
71,2005-08-15,28.7572422261,29.204612,29.5577994485,28.5217852352,710600.0,29.1575230656,28.65521,29.1653700885,28.65521,544500.0,28.608119371,28.765092,28.8121811987,28.4511467421,521100.0,28.6630593032,28.121508,28.8043347506,28.0430205067,606700.0,28.5787651526,28.373788,28.7049059091,28.310716045,359400.0,28.4762755821
72,2005-08-22,28.4762755821,28.421089,28.6891381131,28.279180646,258700.0,28.4605063363,27.585408,28.4605063363,27.577522626,486200.0,27.4040774179,27.356777,28.1215029612,27.3015904197,475600.0,27.482918265,27.743082,27.8928757259,27.4356139043,301800.0,27.9165264714,27.601173,27.9165264714,27.2937056911,375600.0,27.5617545095
73,2005-08-29,27.5617545095,27.845572,27.908643955,27.341008974,375400.0,27.798267371,27.585408,28.1530390337,27.4671494652,414100.0,27.4750322862,27.664245,27.7825035374,27.1596827562,716300.0,27.5932899513,27.427731,27.5932899513,27.0650771204,768400.0,27.4277311884,27.98748,28.1530389525,27.4277311884,1270400.0,28.0268984644
74,2005-09-19,26.1978578001,26.134789,26.300347951,26.0322980608,763800.0,26.1978581382,26.055949,26.58416499,26.0244130228,619300.0,26.0953679652,25.299106,26.2136265036,25.2360340437,756000.0,25.3227558813,26.087485,26.1111356033,25.2281511031,527600.0,26.0322984433,26.221508,26.2530439773,25.8194359182,721400.0,26.2688120798
75,2005-09-26,26.2688120798,25.969227,26.5683971596,25.7642490627,466800.0,25.8746220465,25.937694,26.2136253214,25.7563635134,335300.0,26.0165309162,26.316116,26.3476488239,25.945576741,447400.0,26.2136259161,26.615698,26.7260743153,25.7011775169,693600.0,26.6078157406,26.978355,27.0414238013,26.5289793448,766700.0,26.8837470836
76,2005-10-03,26.8837470836,26.481675,27.0177732138,26.3555342438,491700.0,26.5053250696,26.599933,26.9941228551,26.5053250696,445100.0,26.5210933706,25.780018,26.5210933706,25.7169460447,590400.0,25.7957861968,25.858855,26.1899760716,25.5829236644,326800.0,25.9376946488,26.079603,26.4422568868,25.8825080678,367900.0,26.213626
77,2005-10-10,26.213626,26.213626,26.5132110855,25.9771128696,447300.0,26.6393517631,27.143914,27.5617544669,26.6393517631,941600.0,26.994123578,26.410721,27.3173592678,26.3476490447,737200.0,26.4186033528,26.174208,26.5447441104,25.7011777937,466300.0,26.1742078911,26.442257,26.4895574188,25.969227584,374400.0,26.4107213405
78,2005-10-17,26.4107213405,26.229394,26.6156984966,26.0322990646,447400.0,26.2293942487,25.827319,26.2293942487,25.6696454153,368600.0,25.9771135801,26.024414,26.1032543402,25.3937109877,339700.0,25.8982721777,26.363417,26.7654922332,25.8982721777,909100.0,26.5605126371,26.032299,26.6708881658,25.7169463158,456200.0,26.2293943818
79,2005-10-24,26.2293943818,26.883748,26.883748,26.1505548297,312100.0,26.7970279768,26.765492,27.1754494501,26.4501385386,338800.0,27.3961960093,29.217354,29.2725405819,27.3961960093,1544800.0,29.3671455185,29.114864,29.5405898509,28.5551151691,1149400.0,29.4459814432,30.163407,30.328969109,29.3750272672,1241400.0,30.3526193019
80,2005-10-31,30.3526193019,31.275022,31.3932805351,30.3053157302,1083200.0,31.1961861192,31.550957,31.9136116782,31.1725355155,1313500.0,31.4721170976,32.228964,32.3235687788,31.4721170976,1293500.0,32.2289641575,32.757177,32.757177,32.1895459594,815500.0,32.9936902856,32.654687,33.2302073592,32.1185919345,1131700.0,32.631036354
81,2005-11-07,32.631036354,33.119831,33.1434847571,32.3551050243,787400.0,32.9858087166,32.796596,33.0646459032,32.2210795713,621600.0,32.9148532906,33.104066,33.5219056746,32.5837353851,649200.0,33.0804122558,33.734769,33.829373778,32.8675497314,687100.0,33.6953513541,34.184146,34.184146,33.584975038,431600.0,34.1131912429
82,2005-11-14,34.1131912429,33.711116,34.3497051642,33.6086289993,660300.0,33.6795826551,33.230207,33.9318641672,33.0725302666,766600.0,33.2775073492,33.033112,33.6874655939,32.9069712442,742000.0,33.269625138,33.663815,33.7505367696,33.269625138,869500.0,34.2810652597,34.526383,35.412688605,34.2810652597,696600.0,34.439335
83,2005-11-28,34.7004764709,33.806259,34.7004764709,33.6638169008,434900.0,34.2652369481,34.178189,34.7242186206,34.1069671602,497300.0,34.075317151,33.576769,34.2019323534,33.4738933567,568500.0,33.6242507319,33.885393,34.0753165919,33.6242507319,535500.0,33.7666899124,33.402672,33.7666899124,33.0623936465,699200.0,33.2048349694
84,2005-12-05,33.2048349694,32.70629,33.2048349694,32.2947898141,631400.0,33.0069988999,32.991172,33.4343259879,32.9832593414,472500.0,33.0940480353,32.453057,33.1731809529,32.3897509824,600800.0,32.1760871136,31.970339,32.6350687879,31.9545113089,651000.0,32.12860457,32.231481,32.3264408148,31.8595472771,349500.0,32.4926262473
85,2005-12-12,32.4926262473,32.136521,33.0149139434,32.009905801,447500.0,32.3106175052,32.70629,32.8566439653,31.9228568777,706700.0,32.579671536,33.196923,33.3314500651,32.579671536,655800.0,33.0782205917,33.046566,33.3077114357,32.7695968295,422700.0,33.2760569653,32.840818,33.3947602998,32.840818,528800.0,32.6271541994
86,2005-12-19,32.6271541994,32.500539,32.8408173484,32.4451448503,325700.0,32.4847113757,32.366012,32.619241608,31.9861632356,361000.0,32.6429813659,33.030742,33.3631053185,32.5875872157,506300.0,33.006999017,32.943693,33.006999017,32.7142021596,335600.0,32.9516042599,33.386844,33.4501523899,32.9120378021,231000.0,33.3156232326
87,2006-02-06,32.6429807658,33.125702,33.125702,31.9624232846,1434300.0,32.8408171645,32.563848,33.1731804784,32.4847111268,772200.0,32.6429815574,33.695472,33.7825175768,32.5955000656,755500.0,33.7350385461,34.05949,34.3048045789,33.4105870922,657800.0,34.0040959308,34.138623,34.2414986428,33.5292873412,617800.0,34.2019317333
88,2006-02-13,34.2019317333,33.671729,34.2019317333,33.418499391,331800.0,33.6954710951,34.40768,34.40768,33.3235381603,1073900.0,34.36000264,34.455358,34.4950889365,33.9626853291,306900.0,34.4553586465,34.701693,34.725534423,34.3282171046,277800.0,34.8765136188,34.375893,34.8844623491,34.026255347,549400.0,34.328217606
89,2006-03-06,35.9572177484,35.504276,36.0764145347,35.3612417637,415300.0,35.3453489681,35.162583,35.5360620773,34.9400860943,424500.0,34.9957099356,34.987762,35.1149035409,34.4791958363,740000.0,34.9718688632,34.415627,35.1546380087,34.3123237023,521100.0,34.5666063252,35.059279,35.1705270533,34.1772337681,450400.0,35.0433861822
90,2006-03-13,35.0433861822,34.979817,35.4804384146,34.8367827642,273200.0,34.9400864905,35.400973,35.4486526685,34.812944946,340600.0,35.5201684603,35.64731,35.7188271161,35.1149032131,426400.0,35.7585592688,35.47249,35.9810561763,35.3691867008,309100.0,35.8380212747,35.996949,36.1399840322,35.6314178541,606500.0,35.8936451747
91,2006-03-20,35.8936451747,35.679097,36.3386421633,35.4963278539,422000.0,35.7585596421,35.973111,36.1399842783,35.3691870701,347900.0,36.0605204392,36.481676,36.5849792969,35.8221308439,498000.0,36.1558767806,35.408921,36.2035556545,35.2102623364,675300.0,35.4565976772,35.973111,36.1558769715,35.377135006,549200.0,35.8380210561
92,2006-03-27,35.8380210561,35.726773,35.9572178427,35.6473111244,425500.0,35.5757931577,35.806238,35.9810560331,35.2738311971,433400.0,35.8300759245,36.203555,36.5452486899,35.766503564,371700.0,36.1558762246,35.567845,36.2432868299,35.4248139429,479500.0,35.6473103598,35.583738,35.9890032513,35.3056166736,383500.0,35.7029342681
93,2006-04-03,35.7029342681,35.742666,36.3306964265,35.3374031295,520800.0,35.734720383,36.267124,36.6723900483,35.4009722466,498000.0,36.4181067104,37.443183,37.5941651691,36.3704270433,665300.0,37.3875588827,37.459076,37.6497899022,37.117383106,463000.0,37.5226480523,37.443183,37.9358588549,37.3160414591,374700.0,37.4590759372
94,2006-06-05,43.7781583799,42.861128,43.8180283993,42.8372063074,744400.0,43.7382842007,43.562855,44.0572523283,42.7654386683,1089300.0,43.5947488931,44.176866,44.7031599771,43.5947488931,1225500.0,43.7781582054,44.041304,44.2167363904,42.7016437653,1282600.0,44.2805279175,44.001433,44.4958303262,43.8897955114,418000.0,43.9615631694
95,2006-06-12,43.9615631694,43.259836,44.4400121711,43.1641468376,567500.0,43.2518631886,42.773411,43.5389298768,42.4544468613,844000.0,42.6139279409,41.991944,42.8212577818,41.8244873679,972500.0,42.1912973826,43.74626,43.8180274686,42.1912973826,1036900.0,43.6665167501,43.522985,43.7941033632,43.4033709554,577600.0,43.5389302506
96,2006-06-19,43.5389302506,42.940868,43.5708277014,42.6458255512,547600.0,43.0604811674,43.443241,43.6585434058,43.0525085991,737200.0,43.6744915767,44.144968,44.3841920971,43.5708266583,773100.0,44.1130706314,44.248633,44.4878570975,43.833975718,536600.0,44.3841933222,44.934409,45.2135071102,43.8578985398,792700.0,44.9663053448
97,2006-06-26,44.9663053448,44.910487,45.5563950146,44.6074680019,685300.0,44.8945383434,44.360271,45.4527305689,44.2645786487,611100.0,44.655314757,44.471909,44.6712630837,43.9854850357,612900.0,44.6553144014,46.696701,46.768469267,44.6074686242,933400.0,47.0475633065,46.593036,47.7891604908,46.3697610232,782500.0,46.4016553048
98,2006-07-10,45.0221253786,45.75575,45.9471283252,44.9583336667,586500.0,45.6122140183,45.572344,45.691954055,44.6553136429,729100.0,45.5005761175,44.918463,45.5723443838,44.7510031802,582300.0,44.918463349,43.778158,44.9663059364,43.658543956,1078400.0,43.6106979512,42.167376,43.6266462777,41.3061647755,1358100.0,42.1594002607
99,2006-07-17,42.1594002607,42.127506,42.7335408115,41.8803053447,813400.0,42.2391441007,42.741514,42.8053089017,42.1992708917,603800.0,42.6617739117,43.164147,43.2917336136,42.4225498086,779100.0,43.1641459574,41.553365,43.4831108888,41.4417267158,728900.0,41.6809515742,41.066941,41.6809515742,40.3731895902,1069900.0,41.3380629103
100,2006-07-24,41.3380629103,41.840436,41.9839717381,41.2264254205,654600.0,41.1307358579,42.231168,42.2630654506,40.5246978528,801700.0,42.0238409323,40.795819,42.1354784199,40.2216784512,1178400.0,39.0734003333,38.275984,40.1977573633,37.8772758333,1866800.0,38.4354677362,39.854868,40.0462487158,38.3158536924,1140400.0,39.846894186
101,2006-07-31,39.846894186,40.189784,40.4927998084,39.5757726381,812300.0,39.6794342922,38.961762,39.8070209028,38.5550772866,873900.0,39.3843915482,39.719308,40.0462486937,39.3843915482,784900.0,39.0733993324,40.787846,40.9632751966,39.0733993324,1074200.0,41.2104764244,40.213706,42.0637119076,39.9665061373,941600.0,40.0701707761
102,2006-08-07,40.0701707761,39.846895,40.2296548402,39.6634900406,581900.0,39.6953846732,39.711333,40.3412927071,39.5119789147,635300.0,39.7910768593,38.32383,39.7910768593,38.2759842223,1109300.0,38.1962438788,38.475338,38.6986137754,37.7815865889,781200.0,38.2999062884,38.188268,38.3557246352,37.9570164623,607400.0,38.555078137
103,2006-08-14,38.555078137,38.539133,39.4162893722,38.4992597911,480000.0,38.937840658,39.775127,39.8468944691,38.937840658,437900.0,39.7512019453,40.692154,40.9154321644,39.2328837297,689100.0,40.5641155901,40.556114,40.8201912792,40.2680279495,454900.0,40.7321681849,40.884212,41.0362566153,40.1720000643,526800.0,40.5801206109
104,2006-08-21,40.5801206109,40.091974,40.5801206109,39.7398704255,427100.0,40.0919734533,40.300038,40.7481694522,40.0519623024,352400.0,40.2040098674,39.443782,40.3640552703,39.2517230352,342300.0,39.6278358186,38.995647,39.6758517597,38.5235051833,465300.0,38.8355985206,38.771581,38.8836136616,38.4114726437,362800.0,38.6515439777
105,2006-08-28,38.6515439777,39.451783,39.81989215,38.6515439777,380900.0,39.3397510624,39.723865,39.843902456,38.683555052,493800.0,39.8038909078,39.891914,40.0119514548,39.6278367209,392500.0,39.7718803276,39.547811,40.003950445,39.3317496643,439900.0,39.7478707651,40.212011,40.3320484542,39.6358381019,294500.0,40.155995
106,2006-09-18,41.6284333282,41.732466,42.3486468372,41.4043680057,439200.0,41.5724177544,41.372358,41.6604440463,40.8922121888,697500.0,41.4523800322,41.964533,42.3886612769,41.4523800322,452600.0,42.0445591668,40.868207,42.2766292842,40.7641751265,750000.0,40.9242225346,40.708158,41.0762703486,40.2200113993,405600.0,40.8922132706
107,2006-09-25,40.8922132706,41.284332,41.5324077024,40.0439622905,452900.0,41.2843308908,42.172597,42.3006352427,41.2443197402,449400.0,42.0765699324,43.012848,43.0928703028,42.0605643515,577200.0,43.0528590372,42.588722,43.356950669,42.4366749837,722200.0,42.0925713059,41.356353,42.1645936187,41.1082781009,1155400.0,41.4923920597
108,2006-10-02,41.4923920597,41.21231,41.4923920597,40.8121904854,713100.0,41.1322880585,41.1803,41.4123701207,40.9082187277,666400.0,41.044260687,42.436675,42.5327060844,40.9402288128,846400.0,42.3726570697,43.084869,43.1088753705,42.092571011,735100.0,42.9328249886,42.596723,43.0048465003,42.2126082707,436000.0,42.4926903037
109,2006-10-09,42.4926903037,42.740766,42.9088153937,42.1165803655,261800.0,42.8527996835,44.253218,44.269223581,42.8127885319,991700.0,43.7810761748,43.268924,43.8290913164,43.0208483022,694800.0,43.372955746,43.164892,43.5330043504,42.9728362354,578000.0,43.0848690338,43.276928,43.4769877559,42.8127877658,659100.0,43.3809574898
110,2006-10-16,43.3809574898,43.789081,43.965131988,43.3809574898,580700.0,43.1328855848,42.124582,43.2129078878,41.6924521209,775500.0,42.6527392343,41.532407,43.1488866296,41.2443201507,833100.0,41.4523807878,42.100576,42.5647130351,41.4523807878,666100.0,42.5327056035,42.044559,42.5727167543,41.6524402789,613700.0,41.9165205318
111,2006-10-23,41.9165205318,41.372358,41.9645332724,41.2123093963,534200.0,41.1722991882,41.660445,41.6684465901,40.8442011836,715600.0,43.0128484566,42.892811,43.765072355,42.4206699658,913000.0,43.2289125037,43.148887,43.7730758456,43.148887,750600.0,43.0688649477,42.692751,43.3649525909,42.588722326,470500.0,42.6607438077
112,2006-10-30,42.6607438077,43.829092,43.8530983708,42.644739027,607300.0,43.8530974921,42.132586,43.8931086429,42.060563688,1148100.0,42.020549909,41.780479,42.6287331729,41.6524407551,876000.0,41.6924516719,41.916521,42.2206094293,41.5564126379,598600.0,42.0605643256,41.172299,42.1725977901,41.0842719062,549500.0,41.4123696377
113,2006-11-06,41.4123696377,41.772478,41.9485281852,41.3803592764,579700.0,41.8925113946,42.05256,42.7967830941,41.7804787313,438900.0,41.9965441682,42.628733,42.8688047083,41.8364955624,613700.0,42.7487670327,41.956532,42.7487670327,41.9325264298,536600.0,42.0925705739,42.396663,42.5006948722,41.9885419027,274300.0,42.3326459084
114,2006-11-13,42.3326459084,42.420669,42.7487669994,42.1245813618,557600.0,42.5727166085,43.068864,43.2049062337,42.1565915184,605200.0,42.9328253613,42.900815,43.2769281426,42.5727169992,464900.0,43.101547942,43.824191,43.8803964463,42.844609562,741200.0,43.7358676937,43.527103,43.8402468287,43.1818409702,669100.0,43.559220354
115,2006-11-27,42.9570190786,42.651903,43.1978987565,42.4270820208,434300.0,42.4592012999,43.270164,43.342428949,41.889115072,1113300.0,43.350458621,42.338759,43.3906045647,42.0336421197,788600.0,42.3467911361,41.889115,42.5154066738,41.7526176635,758700.0,41.8409403238,41.511737,41.9132044681,40.9657404405,677500.0,41.0299741503
116,2006-12-04,41.0299741503,41.913205,42.4672285071,40.9898282059,610500.0,41.9132051664,42.033643,42.0978794018,41.1102702169,611100.0,42.0497018788,41.776704,42.097878778,41.6883803539,727200.0,41.808822446,41.752617,41.9372920367,41.2387394399,528300.0,41.6723252572,40.917564,41.8409407927,40.8131848659,620300.0,40.7248613805
117,2006-12-11,40.7248613805,41.198593,41.415386239,40.5482148889,936900.0,41.4796192902,41.335091,41.7285299263,41.0299741148,1201000.0,41.270858163,40.596392,41.2949446057,40.4358050095,1385700.0,40.6044201664,41.487647,41.6402070483,40.6044201664,547500.0,41.6161195258,41.254798,41.7526168596,41.1263284097,793600.0,41.3511492888
118,2006-12-18,41.3511492888,41.206621,41.8730586041,41.0460332095,460100.0,41.1182978614,41.383268,41.6000604358,40.957710069,401000.0,41.2788851305,41.744589,41.8971450322,41.1825337409,629700.0,41.6321756271,41.35115,41.913205269,41.1825344631,367600.0,41.343121727,40.949682,41.4073549165,40.8693901118,237200.0,40.9496814337
119,2007-02-05,43.1657812178,42.756286,43.1738121731,42.3949644703,640800.0,42.7562858549,42.82855,42.9409608924,42.3949643264,494600.0,42.9008144368,42.684022,43.1336663755,42.5635801515,417800.0,42.7081094312,42.427083,42.7562863314,42.2986134073,474400.0,42.4351105097,41.881087,42.4913159562,41.7847356089,355000.0,41.953351
120,2007-02-12,41.953351,41.953351,42.1299974914,41.7606450068,310800.0,42.1139387347,42.675994,42.6920494872,42.0577332884,359900.0,42.7081087994,42.740227,42.8927830332,42.1139385476,651300.0,42.6515559397,43.280325,43.5624669369,42.6515559397,667300.0,43.4737932395,43.514099,43.514099,42.9901257262,422400.0,43.2964472356
121,2007-03-05,40.3057606914,39.749542,40.5314721452,39.6931147411,927100.0,39.7172964171,40.394434,40.6282082171,39.5480130291,738000.0,40.4911669846,40.789428,41.0635079774,40.2573927677,618500.0,40.9909560269,40.595962,41.1602426361,40.5072885225,696300.0,40.9506521019,40.49923,41.0312660417,40.3218830405,380500.0,40.4992293682
122,2007-03-12,40.4992293682,40.426679,40.5717797364,40.1767816751,787500.0,40.152599361,39.169138,40.3057604445,39.169138,613100.0,39.2819943914,39.314239,39.5077050392,38.5967972654,771100.0,39.3222992412,39.902703,40.104231803,39.2175066819,846300.0,40.225150869,39.967194,40.4347392128,39.7011743666,1319600.0,40.3460654531
123,2007-03-19,40.3460654531,39.781784,40.7652461684,39.6044410722,675300.0,39.6125009568,40.144537,40.3138203895,39.5721960021,443200.0,40.0881095029,40.813614,40.8700420649,39.9188253083,657300.0,41.4020785716,40.821674,41.4020785716,40.6040228903,424400.0,40.9506515838,40.644327,41.0876927808,40.5314716775,654900.0,40.5395347153
124,2007-03-26,40.5395347153,40.120354,40.6201446241,39.9027028933,497800.0,40.0719861245,39.757602,40.1364769533,39.5963781525,354400.0,39.6286238029,39.427095,39.7092337118,39.233625737,426900.0,39.6286236499,39.265871,39.7979070376,38.9595496391,449500.0,39.3303624346,39.773725,39.8220935255,39.2739343691,746500.0,39.89464392
125,2007-06-04,43.7579911199,43.579947,43.8308266886,43.5232979225,617800.0,43.4990202332,43.377626,43.8955710594,43.3047904312,495700.0,43.2966984574,42.649272,43.3209761706,42.4712286924,736400.0,41.9856588343,42.139422,42.6411773198,41.9856588343,699200.0,42.0827731837,42.366021,42.5036009155,41.9209155545,577000.0,42.2689081088
126,2007-06-11,42.2689081088,42.204167,42.5359726683,41.9937507083,408100.0,42.147516306,41.969473,42.4064872104,41.9613777314,955500.0,42.098958545,42.228444,42.3093716001,41.8885430622,774600.0,42.2527213024,41.953287,42.7787575766,41.8238015463,971200.0,42.527878022,42.325557,43.0539142979,42.2041668146,1054400.0,42.5278782088
127,2007-06-18,42.5278782088,42.204167,42.7544801823,42.1394226541,578700.0,42.2608158765,42.009937,42.3983925529,41.9451958915,632600.0,42.0342148587,42.058495,42.6088089909,42.0261228271,652300.0,42.0099371767,42.406488,42.4631370771,41.9371016085,352500.0,43.280513137,43.847012,44.1059829088,43.2643266459,1368100.0,43.9441251403
128,2007-06-25,43.9441251403,44.866709,45.2308868394,43.9036617452,1460700.0,44.874803844,44.154541,45.166146118,44.0007754035,1087800.0,43.9926838862,43.936034,44.0655194542,43.6446909187,911300.0,43.8470126912,44.146447,44.5672755428,43.7013415527,766800.0,44.0331471015,43.539483,44.219281632,43.45855621,607700.0,43.8551041683
129,2007-07-09,43.6123181897,44.13026,44.1626321724,43.5313914004,879100.0,44.0817050492,43.798454,44.1788183304,43.7337128916,805000.0,43.7660852189,44.397326,44.4135116818,43.7418042683,671100.0,44.4944397003,44.988103,44.988103,44.3973264178,750300.0,44.996193509,45.01238,45.069029886,44.7291313795,371500.0,44.9152668491
130,2007-07-16,44.9152668491,44.745318,45.0771244758,44.5834603732,567500.0,44.664387886,44.607738,44.8667089075,44.4377891513,668900.0,44.6077379414,44.69676,44.9314523846,44.2921179576,470700.0,44.8748028855,44.300212,45.0609374139,44.2678398276,500700.0,44.4782532433,43.717527,44.6562965542,43.5475781486,788700.0,43.8470123303
131,2007-07-23,43.8470123303,43.345257,44.0250564501,43.2481412899,551800.0,43.2238632029,42.471229,43.3614431167,42.3903014004,627800.0,42.4631365737,42.511692,42.9325197225,42.1313301002,876400.0,43.3452564436,43.021542,43.4504617562,42.4469511084,1845400.0,43.1510271725,43.118655,43.8631979726,42.5116919396,1805300.0,43.1429355928
132,2007-07-30,43.1429355928,43.936034,44.1707271951,42.9325201111,1070500.0,44.1869095307,44.000775,45.0123801087,43.9360338916,1369200.0,44.0493328756,44.745318,44.9881024169,43.9117529622,1242700.0,44.8667094078,45.141866,45.3846536563,44.4701618199,1666100.0,44.9719173025,44.122169,45.2713516093,44.0007755761,1595100.0,44.1788187674
133,2007-08-06,44.1788187674,45.133774,45.1985151091,43.7498990062,1212100.0,45.0609381683,45.97543,46.3719775859,44.9961938224,1517400.0,46.1211022193,45.255165,46.6956931178,44.7048550522,1691700.0,44.5187160229,43.677063,44.8748034492,43.677063,1752700.0,43.3371622363,43.644691,43.9441253042,42.8920567958,1529800.0,43.9360346761
134,2007-08-13,43.9360346761,44.75341,45.0528443082,43.863199107,1075900.0,44.5106250949,42.633086,44.7129461181,42.600713827,1379800.0,42.6735503902,42.082773,43.5394835638,42.082773,1026300.0,42.1884059627,42.944092,43.0659784699,41.6439886147,1562300.0,43.4722609062,43.39913,44.7561162179,42.9684710316,1273100.0,43.5697685015
135,2007-08-20,43.5697685015,43.439758,44.2360723217,43.2284925602,750400.0,43.4641370004,43.382878,43.6754024382,42.8303333738,554500.0,43.5697684911,44.366082,44.406713532,43.5697684911,562400.0,44.5773511919,43.537268,44.6586061296,43.3097471863,540300.0,43.5778950961,44.089809,44.089809,43.5210155026,412700.0,44.1141881538
136,2007-08-27,44.1141881538,43.862292,44.1954430904,43.6591505958,581800.0,43.8379156748,42.927843,44.0816845464,42.927843,744900.0,43.1878650854,43.927299,43.927299,43.0416024587,659700.0,43.6835260331,43.935423,44.276702185,43.5047640347,679600.0,44.2767025625,44.487968,44.8048677814,44.2279469998,775900.0,44.6098551581
137,2007-09-17,40.8801777505,40.831423,41.0995712836,40.790795531,697200.0,40.9695572478,42.464678,42.6109406253,40.8964295917,1007500.0,42.6028160695,41.757747,42.7653300084,41.7252435622,725900.0,41.5464814753,40.498271,41.5871089442,40.498271,875100.0,40.7826680319,40.514523,41.0101880328,40.4332639996,898400.0,40.4007634972
138,2007-09-24,40.4007634972,39.783212,40.6039049025,39.685704938,917700.0,39.5069395919,39.271298,39.7344604029,39.1575363756,709000.0,39.2712982814,39.929474,40.3113814689,39.2712982814,625100.0,40.173244002,39.913223,40.2870056281,39.7263329048,440800.0,39.8400921564,39.815716,40.2870056921,39.7425850931,544800.0,39.669453381
139,2007-10-01,39.669453381,40.221998,40.4982703095,39.669453381,472500.0,40.1569913421,39.872595,40.5714014337,39.6288253138,500000.0,39.8075911168,39.125036,39.8075911168,38.8487628782,921800.0,39.1331602143,38.523736,39.3444256501,38.418101657,629100.0,38.6862501886,40.018857,40.0919879062,38.6862501886,646000.0,38.1580810654
140,2007-10-08,38.1580810654,37.313012,39.2794224442,36.7685946546,2599500.0,37.3780185372,38.426229,38.8406358413,37.1748771321,1784800.0,38.4749810011,38.296219,38.5399878767,37.4592739624,1237800.0,38.5318599653,38.18246,38.8487629939,38.0118187826,1087300.0,38.149957397,38.87314,38.9381436257,37.9549400194,964400.0,38.8812638449
141,2007-10-15,38.8812638449,38.726878,39.0844052528,38.4587329667,1061700.0,38.5968673459,38.05245,38.6699982524,37.7599255612,1430900.0,38.4831085609,38.255591,38.491232592,37.7680500031,1313700.0,38.1418298739,38.304343,38.5562399705,37.9224363412,835600.0,38.3124713171,37.95494,38.6212438207,37.7517985912,1164800.0,37.6461665684
142,2007-10-22,37.6461665684,38.117453,38.1987079364,37.4592732267,907000.0,38.3205950306,38.491233,38.6212435005,37.9955671542,1158000.0,38.3937258442,38.158081,38.4668567506,37.1179978109,1461700.0,38.0768260942,37.889936,38.3205949697,37.3698948113,1297700.0,38.2312116886,38.507484,38.6618739058,37.7843014092,814200.0,38.5643638444
143,2007-10-29,38.5643638444,38.328719,38.7106256573,38.1337048747,576900.0,38.2393397196,38.198709,38.5318609114,37.9955675906,809300.0,38.2637157427,38.881264,39.2306680355,38.2230882735,1325500.0,38.5968675943,38.539988,38.6699985014,38.1012017453,1017000.0,38.5887435897,38.970647,38.970647,38.2393395544,958100.0,38.4749804377
144,2007-11-05,38.4749804377,38.523736,38.7756321545,38.1174531905,761200.0,38.8568880613,38.49936,38.8568880613,37.8411810333,1049700.0,38.1093293429,37.662415,38.1418295301,37.4999051257,987700.0,37.6624151867,37.889936,38.117453563,37.1830014668,1932800.0,37.4836531885,37.142374,37.6705432827,37.0042394685,1595900.0,37.2398841882
145,2007-11-12,37.2398841882,37.824929,38.1093294062,37.1911286256,1849500.0,37.9874431837,38.653747,38.6781223438,37.9143122771,964700.0,38.8081326886,37.979319,39.2875464081,37.979319,813500.0,37.9548309607,37.212059,38.1915393249,37.048811599,1061200.0,37.1385977001,35.538782,37.1385977001,35.1633156746,1802300.0,35.3836956033
146,2007-11-26,32.4044475536,31.824923,32.9839721073,31.7922728672,673900.0,31.8902198608,32.845214,32.9105110005,31.833083557,1838300.0,33.0166221727,34.649088,34.7062234877,32.9023495648,1549200.0,34.4042187193,33.930802,34.4287040741,33.7593939055,905900.0,34.2817824197,35.39186,35.4571570007,34.2817824197,1635300.0,35.0898552046
147,2007-12-03,35.0898552046,35.269424,35.6040795005,34.7307102676,1141500.0,35.3265597243,34.722549,35.3265597243,34.5674622975,1075800.0,35.0408789173,35.816301,35.9060874366,35.024554259,793800.0,36.1183064302,38.542519,38.5751658678,36.1183064302,1728200.0,38.8118743134,39.424049,39.7178936658,38.6078160846,1452500.0,39.1465303417
148,2007-12-10,39.1465303417,39.832166,40.0851998397,39.1465303417,865000.0,39.6689185254,38.950636,40.3708796571,38.8363642067,1696200.0,39.7423800323,39.081233,40.4933159507,38.6323057105,1621400.0,38.8445246,39.007772,39.1465299637,38.297646912,842900.0,38.9914466002,37.905856,39.9464383006,37.7507725614,1272200.0,37.6773112661
149,2007-12-17,37.6773112661,37.546714,38.6078159707,37.3997920757,836300.0,37.7426115059,38.077267,38.2078634498,37.2936809553,578200.0,38.3058106296,37.228384,38.3058106296,37.1304368666,634500.0,36.901889903,37.008001,37.1222736101,35.9958705356,877200.0,37.3426559501,38.191539,38.3058107921,37.3181697789,1004800.0,38.3629474063
