,date,open1,close1,high1,low1,volume1,open2,close2,high2,low2,volume2,open3,close3,high3,low3,volume3,open4,close4,high4,low4,volume4,open5,close5,high5,low5,volume5,target
0,1/6/03,17.7892526,18.26978,18.31856348,17.7892526,1837000.0,17.65997438,17.403855,17.68680583,17.37946326,1547000.0,16.95503885,16.942842,17.02821456,16.8330777,1028000.0,16.95747686,17.39166,17.39166,16.91601032,812000.0,17.14041899,17.250185,17.30628615,17.09895244,548000.0,17.08919573
1,1/13/03,17.08919573,16.972114,17.08919573,16.83063858,881000.0,16.85747039,16.940403,16.940403,16.77941526,770000.0,16.94284243,16.935525,16.9623567,16.85259044,525000.0,16.94284244,17.025777,17.04772903,16.89161901,1007000.0,16.93064751,16.913571,17.02089754,16.81844155,561000.0,16.55500701
2,2/3/03,16.56720188,16.667211,16.70623759,16.48914675,890000.0,16.58671615,16.667211,16.68672527,16.52573558,869000.0,16.53061259,16.423288,16.61842461,16.3671849,926000.0,16.19644096,15.947639,16.27937357,15.90861241,988000.0,15.88665803,15.618344,15.88665803,15.53297144,1334000.0,15.84275186
3,2/10/03,15.84275186,15.784211,15.87934045,15.58175599,869000.0,15.76225925,15.720791,15.87934073,15.66956756,667000.0,15.55736328,15.245143,15.6085877,15.245143,561000.0,15.3622257,15.559803,15.63054071,15.29636644,1511000.0,15.62810181,15.950079,16.03545156,15.56712123,921000.0,16.22083217
4,3/3/03,16.28913058,16.296448,16.32084169,16.12570313,797000.0,16.15009441,16.120823,16.28181269,15.85494868,1785000.0,16.09399398,16.208636,16.31352259,16.02081656,1106000.0,16.17204855,16.269616,16.37450258,16.16472942,990000.0,16.0378903,15.928126,16.16229115,15.8598263,1309000.0,15.90373303
5,3/10/03,15.90373303,15.745185,15.99886248,15.745185,952000.0,15.81104354,15.635419,15.87202412,15.635419,824000.0,15.13049957,15.091472,15.14269641,14.86706398,2479000.0,15.09147241,15.489066,15.55248531,15.04756639,1570000.0,15.34515141,15.540289,15.68420413,15.22806871,1019000.0,15.57443773
6,3/17/03,15.57443773,15.97691,16.18668341,15.50857969,2704000.0,15.97691027,15.574438,15.97691027,15.41344953,2533000.0,15.85494883,15.81836,15.9159294,15.58907354,1639000.0,15.81835986,15.513457,15.81835986,15.26221753,2933000.0,15.67688445,15.647615,15.83055671,15.63054044,1357000.0,15.47199073
7,3/24/03,15.47199073,15.245143,15.59395187,15.24026455,1100000.0,15.63541831,15.796408,15.87202342,15.49638285,1484000.0,15.86958383,15.696399,15.9281264,15.64761552,1558000.0,15.33539484,15.501262,15.62566213,15.33051615,1460000.0,15.47686916,15.647615,15.75737905,15.46223333,718000.0,15.47687026
8,3/31/03,15.47687026,15.432964,15.52565496,15.35978755,671000.0,15.73298826,15.959836,15.959836,15.6744474,1077000.0,15.93300371,15.928126,16.06959946,15.87934032,1097000.0,16.18912341,16.091554,16.22083257,16.07447968,1294000.0,16.342794,16.342794,16.42816632,16.22327256,819000.0,16.64769703
9,4/7/03,16.64769703,16.354991,16.68428586,16.354991,2093000.0,16.41353139,16.428166,16.50134366,16.29644796,1276000.0,16.51353801,16.469632,16.70867657,16.44767973,1391000.0,16.24522448,16.196441,16.30620506,16.05984305,1075000.0,16.2257103,16.047648,16.3330366,16.04033058,905000.0,16.07447914
10,6/2/03,18.41896619,18.61518,18.77869222,18.37620209,765000.0,18.62524206,18.90447,18.93968766,18.59505452,985000.0,18.94220388,19.286835,19.29689751,18.94220388,1020000.0,18.96987563,19.178666,19.23904081,18.96987563,596000.0,19.29438169,19.218916,19.36984939,19.14848044,612000.0,19.13590227
11,6/9/03,19.13590227,19.173636,19.25413408,19.07049708,1567000.0,19.28683484,19.389974,19.39500412,19.22897785,900000.0,19.74718382,20.074208,20.074208,19.71448223,886000.0,20.26287524,20.137097,20.2980929,20.03647416,1339000.0,20.14967452,19.935852,20.19998707,19.8352289,1843000.0,20.31570251
12,6/16/03,20.31570251,20.567259,20.57480544,20.21004728,1406000.0,20.15470611,20.11194,20.23268787,20.0440205,1769000.0,20.10690979,20.06666,20.15219021,20.00628695,916000.0,19.96100659,19.928305,20.07923864,19.84026073,927000.0,20.10942637,19.920759,20.15973691,19.88554134,838000.0,19.80755701
13,6/23/03,19.80755701,19.729575,19.84529073,19.6868109,653000.0,19.68932519,19.7497,19.81007305,19.64656084,585000.0,19.58870399,19.608827,19.82265152,19.57360934,801000.0,19.38997406,19.329599,19.48304871,19.31450637,1160000.0,19.09816812,19.093138,19.24407139,19.05540402,638000.0,19.18118166
14,9/8/03,19.86793182,20.069176,20.069176,19.85283717,586000.0,19.92327266,19.810073,19.9283048,19.75976246,553000.0,19.86038393,19.65914,19.8629,19.65914,588000.0,19.75724659,19.724545,19.78994818,19.67674851,423000.0,19.85283757,19.782402,19.87296259,19.67423271,507000.0,19.51323641
15,9/15/03,19.51323641,19.545938,19.56606302,19.42519189,809000.0,19.49562735,19.588704,19.64404467,19.44280074,655000.0,19.59625098,19.558517,19.66417022,19.53336185,2467000.0,19.51323693,19.515753,19.53336195,19.37488011,502000.0,19.44783176,19.495628,19.5635475,19.3950049,642000.0,19.28935079
16,9/22/03,19.28935079,19.249101,19.36230242,19.15351004,891000.0,19.26168053,19.231493,19.29941426,19.19376104,516000.0,19.48304871,19.329599,19.51323624,19.20633683,1264000.0,19.56606276,19.410099,19.60631255,19.410099,685000.0,19.16860352,19.138418,19.18369817,19.03527883,836000.0,18.98748416
17,9/29/03,18.98748416,19.223946,19.2667101,18.95981295,817000.0,19.28180476,19.067982,19.28180476,18.92962518,1248000.0,19.25413368,19.722029,19.75473059,19.25413368,1106000.0,19.21639944,19.344694,19.4805345,19.21639944,1057000.0,19.65914022,19.495628,19.76730951,19.495628,1049000.0,19.63398478
18,10/6/03,19.63398478,19.739638,19.76730947,19.6214062,795000.0,19.64656132,19.759763,19.76730944,19.53587798,676000.0,19.95597606,19.691841,19.95597606,19.62392151,547000.0,19.76227677,19.810073,19.90566371,19.76227677,573000.0,19.95345998,19.973585,20.01886517,19.93082065,305000.0,20.09181729
19,10/13/03,20.09181729,20.187408,20.18992407,20.08175478,558000.0,20.21004684,20.313186,20.313186,20.14967378,885000.0,20.27042168,20.137097,20.30563934,20.09936328,645000.0,20.0742085,20.084269,20.20753319,20.04653704,677000.0,19.87547905,19.835229,19.91824315,19.76730975,689000.0,19.8352289
20,10/20/03,19.8352289,19.935852,20.01383401,19.81007375,424000.0,19.82265148,19.852837,19.92578863,19.79498002,680000.0,19.7673091,19.666686,19.83019822,19.66416993,594000.0,19.49814325,19.633984,19.68177847,19.4402845,745000.0,19.44028534,19.533362,19.60631338,19.44028534,662000.0,19.62140596
21,10/27/03,19.62140596,19.661656,19.7471842,19.61888989,315000.0,19.62140535,19.714482,19.72202844,19.53084476,903000.0,19.50820581,19.651593,19.71951224,19.50820581,532000.0,19.91321253,19.621406,19.93333554,19.621406,1738000.0,19.47047266,19.639015,19.639015,19.44028512,1033000.0,19.65913956
22,11/3/03,19.65913956,19.530845,19.70693378,19.51575237,1653000.0,19.72202895,19.646561,19.75221447,19.6289523,817000.0,19.42519215,19.400037,19.46795625,19.31953892,854000.0,19.478019,19.535878,19.55851708,19.40758369,546000.0,19.5534865,19.699388,19.74215386,19.51072063,709000.0,19.70945005
23,11/10/03,19.70945005,19.445317,19.71699649,19.445317,509000.0,19.50569047,19.535878,19.60882762,19.48808151,422000.0,19.50317403,19.744668,19.744668,19.483049,468000.0,19.73963816,19.898118,19.898118,19.68932586,500000.0,19.94843022,20.046537,20.19495457,19.94339809,1089000.0,19.92830477
24,11/17/03,19.92830477,19.772339,19.98616176,19.63398419,597000.0,19.78491856,19.734606,19.79498082,19.64656148,877000.0,19.87044601,19.850323,19.88302459,19.70441974,855000.0,19.6088273,19.684295,19.79246429,19.6088273,818000.0,19.84780695,19.830198,19.87044603,19.74466779,979000.0,19.90315031
25,12/1/03,20.60247664,20.791144,20.80120626,20.60247664,1211000.0,20.8691261,20.826362,20.93453129,20.81629949,993000.0,21.08798108,21.007483,21.15590032,21.00496693,765000.0,20.97226533,21.085465,21.10559002,20.91692265,665000.0,20.88170446,20.932015,20.9747791,20.85906337,1194000.0,20.93453151
26,12/8/03,20.93453151,21.186088,21.20118089,20.91189042,594000.0,21.61373226,21.525688,21.65649636,21.51562549,784000.0,21.46531498,21.48544,21.5709682,21.40745598,513000.0,21.39488011,21.613733,21.6564971,21.35463007,1158000.0,21.80743214,21.8024,21.82252502,21.69674678,563000.0,21.88541439
27,12/15/03,21.88541439,21.676622,21.90805347,21.67159188,739000.0,22.00112969,22.129424,22.14954902,21.96591203,1032000.0,22.15206336,22.370918,22.38601089,22.09672043,904000.0,22.45393226,22.85139,22.90673293,22.45393226,956000.0,22.6627229,22.501727,22.69039437,22.42374499,1986000.0,22.60234968
28,1/5/04,23.59599924,24.013582,24.013582,23.58845103,1324000.0,23.8349771,23.734354,23.84755568,23.63121685,1555000.0,23.10546231,23.035027,23.12307127,22.90924876,1724000.0,22.94195089,22.926858,22.99226344,22.80359608,1261000.0,22.70297283,22.748253,22.87906162,22.5621017,1029000.0,22.92937428
29,1/12/04,22.92937428,22.967108,23.01741854,22.86900122,657000.0,23.02999728,22.941951,23.08030782,22.941951,591000.0,22.60989585,22.770892,22.82875075,22.55958531,763000.0,23.0073559,22.84636,23.04005749,22.79353339,872000.0,22.47657129,22.708003,22.72309765,22.45393221,859000.0,22.97213783
30,2/2/04,22.16212632,22.275328,22.39859018,22.07659812,880000.0,22.4413543,22.516822,22.53946108,22.36337254,669000.0,22.49166614,22.350793,22.58222471,22.350793,649000.0,22.44386997,22.280358,22.48663407,22.27532762,571000.0,22.26274877,22.572164,22.572164,22.26274877,613000.0,22.97465436
31,2/9/04,22.97465436,23.067729,23.13313419,22.88660984,1302000.0,22.77844042,23.072761,23.07779138,22.71051916,872000.0,22.73819013,23.276521,23.276521,22.72561155,769000.0,22.82120446,22.871515,23.0476058,22.81114195,646000.0,22.93440444,22.665239,22.96207591,22.52688419,868000.0,22.82623473
32,3/1/04,23.41487769,23.621154,23.6387627,23.33689392,1513000.0,23.46267298,23.221179,23.47022118,23.20860218,1043000.0,23.26142853,23.231241,23.30670895,22.92937422,915000.0,22.95704503,23.198539,23.29161364,22.90421842,802000.0,23.10797936,23.384691,23.44254975,23.09037041,664000.0,23.54317015
33,3/8/04,23.54317015,23.440033,23.67649685,23.39475283,514000.0,23.39475347,23.367082,23.49286024,23.29413037,1292000.0,23.63876334,23.548203,23.76705765,23.548203,1976000.0,23.21363197,22.972138,23.33689415,22.972138,1889000.0,22.75076906,22.826235,22.83378144,22.57216421,1325000.0,22.93189039
34,3/15/04,22.93189039,22.665239,23.03754361,22.61492871,1238000.0,22.69542641,22.728128,22.75076909,22.57719461,1081000.0,22.59731998,22.821205,22.87403161,22.50927546,1102000.0,23.1004328,23.185961,23.24885012,22.94195096,1461000.0,23.16583524,23.097916,23.23375675,23.01238755,996000.0,22.97213793
35,3/22/04,22.97213793,22.635053,22.97213793,22.62247442,816000.0,22.76837795,22.750769,22.80862599,22.58725703,647000.0,22.51933571,22.287904,22.56964802,22.287904,1568000.0,22.28790443,22.35834,22.39355791,22.21243875,1636000.0,22.45141663,22.640084,22.70297312,22.37091856,996000.0,22.68536386
36,3/29/04,22.68536386,22.768378,22.85139013,22.67781767,852000.0,22.73567456,23.00484,23.05515256,22.73567456,1105000.0,23.20608612,23.143197,23.27400562,22.91427959,843000.0,22.979684,23.037543,23.24381931,22.94949848,1601000.0,23.29412976,23.419908,23.419908,23.23375696,931000.0,23.41236212
37,7/12/04,25.7610129,25.709024,25.79220764,25.64403658,730000.0,25.57904913,25.488067,25.57904913,25.39968307,1654000.0,25.51666246,25.68303,25.74021737,25.51666246,597000.0,25.89098796,25.659633,25.92998093,25.659633,1551000.0,25.91698263,26.072954,26.072954,25.88058993,1609000.0,25.78700735
38,7/19/04,25.78700735,25.677829,25.94297871,25.66743075,1326000.0,25.48286729,25.52186,25.64143659,25.48026727,1360000.0,25.27230902,25.087745,25.34509467,25.08514498,1434000.0,24.98376405,24.988962,25.12413713,24.89278192,1605000.0,24.85378907,24.716016,24.86418732,24.66922506,1149000.0,24.73421268
39,7/26/04,24.73421268,24.474263,24.74201065,24.474263,1217000.0,24.44046872,24.638031,24.66142751,24.31569391,788000.0,24.47946132,24.739411,24.78620194,24.37548118,1860000.0,25.17352595,25.168328,25.3113011,25.07214584,2039000.0,25.2697083,25.306101,25.44127613,25.24111358,1186000.0,25.11633886
40,8/2/04,25.11633886,25.165728,25.19432246,24.96816754,2307000.0,25.3918851,25.475069,25.59204558,25.38668715,1205000.0,25.19692328,24.999361,25.24111421,24.98116452,1073000.0,25.17872693,24.908379,25.2541126,24.908379,1474000.0,25.24371452,24.812197,25.28010722,24.812197,1547000.0,24.97076572
41,8/9/04,24.97076572,24.986364,25.17612597,24.86938534,909000.0,25.29830313,25.207321,25.44127623,25.17872653,2508000.0,25.17872651,25.15533,25.24371393,24.95516952,1637000.0,25.21511905,25.025355,25.27230824,25.00975854,793000.0,25.16053025,25.150132,25.23071588,25.05654985,1016000.0,25.03835347
42,8/16/04,25.03835347,25.246314,25.25931018,25.01755698,1001000.0,25.22291761,24.918777,25.22551763,24.89278229,1783000.0,24.94217172,25.139734,25.139734,24.94217172,994000.0,25.12413776,25.090343,25.19692315,25.03835384,646000.0,25.13713429,25.176127,25.31650009,25.13193607,1132000.0,25.16572807
43,8/23/04,25.16572807,24.845991,25.1709281,24.83039272,997000.0,24.65102906,24.653627,24.73161269,24.57564339,1267000.0,24.65622697,24.830393,24.86938571,24.63283254,951000.0,24.79920006,25.027955,25.05914974,24.76800532,811000.0,25.17612651,25.196923,25.23591597,25.09554288,852000.0,25.24631422
44,8/30/04,25.24631422,25.196923,25.32689784,25.07994642,980000.0,25.34249416,25.472469,25.472469,25.22031755,872000.0,25.47246856,25.540056,25.56345043,25.42307942,1185000.0,25.61544196,25.761013,25.761013,25.57904926,940000.0,25.57904892,25.675229,25.70902376,25.53485773,997000.0,25.55305516
45,9/20/04,26.10674677,26.114545,26.18733065,26.05475761,1489000.0,26.65784068,26.987976,27.05816137,26.65784068,2612000.0,26.76181916,26.70983,26.76701919,26.54866042,1757000.0,26.73842497,26.517468,26.73842497,26.46287883,1167000.0,26.86060148,26.798212,26.94118511,26.76701934,838000.0,26.96977948
46,9/27/04,26.96977948,27.133547,27.24272743,26.95938123,1600000.0,27.38309911,26.876198,27.44028856,26.79561438,3788000.0,26.74362265,26.670837,26.77221738,26.50186945,2460000.0,26.59545196,26.559059,26.61624819,26.40308971,1395000.0,26.88659631,26.964582,26.99317465,26.81381092,1256000.0,26.60844988
47,10/4/04,26.60844988,26.527866,26.6734373,26.527866,1009000.0,26.63444454,26.886596,26.90219246,26.63444454,1088000.0,27.01397099,27.240128,27.27912071,27.01397099,1490000.0,27.1803388,27.013971,27.20373531,26.9775783,1475000.0,27.2037347,27.318111,27.38309842,27.20113442,2945000.0,27.26612219
48,10/11/04,27.26612219,27.208933,27.27652044,27.1257491,846000.0,26.95678123,26.767019,26.97757772,26.7514228,1128000.0,26.53826226,26.569457,26.62404617,26.35629826,1678000.0,26.65784134,26.689034,26.79821235,26.63704484,1217000.0,26.83720488,26.982778,26.99577418,26.78781574,930000.0,27.09975413
49,10/18/04,27.09975413,26.81381,27.11535059,26.75662055,1134000.0,26.90739221,26.847603,26.95158313,26.79561384,1187000.0,26.98277802,27.162142,27.1985347,26.94118503,1247000.0,27.25832383,27.312913,27.36750217,27.12055076,1187000.0,27.27132273,27.242728,27.41949379,27.17514056,1058000.0,27.20373476
50,10/25/04,27.20373476,26.987976,27.26092395,26.93078655,1484000.0,27.00097439,27.078958,27.08155802,26.80341212,1160000.0,27.27652067,27.019171,27.35190634,26.87879817,2032000.0,26.8813977,26.995774,27.3207111,26.83980471,1633000.0,27.03736736,27.107553,27.18033865,26.90999072,1151000.0,27.26872222
51,11/1/04,27.26872222,27.037367,27.39869706,26.90999036,2260000.0,27.07376055,26.917791,27.18813686,26.89959452,1342000.0,27.49487736,27.578061,27.578061,27.30771515,1962000.0,27.81461647,28.022577,28.09276264,27.77042554,2025000.0,27.8276141,27.910798,28.092762,27.7678249,1411000.0,27.8744055
52,11/8/04,27.8744055,27.658647,27.91339639,27.6118558,1080000.0,27.76262734,27.611856,27.88740215,27.58066126,1303000.0,27.78862187,27.892602,27.95758942,27.57286311,1766000.0,27.96278745,28.313719,28.32151723,27.96278745,1485000.0,27.84061075,28.25913,28.30072299,27.81721632,2030000.0,27.93679276
53,11/15/04,27.93679276,27.902998,27.95238922,27.77562317,1152000.0,27.66644489,27.572863,27.79641973,27.55466652,1565000.0,27.97838327,28.051171,28.16034935,27.89519963,1029000.0,28.14995197,28.110959,28.20973936,28.03297331,586000.0,28.37625983,28.265498,28.38153554,28.20484163,1110000.0,28.07825626
54,11/29/04,29.10676445,28.95908,29.14104725,28.84040684,623000.0,28.99072709,28.903699,29.05929479,28.82722023,625000.0,29.02237396,28.835131,29.15686979,28.76128996,1328000.0,28.67162588,28.289231,28.67426361,28.289231,1501000.0,28.38417046,28.476474,28.52394384,28.21011639,1034000.0,28.48702158
55,12/6/04,28.48702158,28.558227,28.58459846,28.37625949,706000.0,28.64525486,28.315605,28.70590911,28.27868422,722000.0,27.88837817,28.141549,28.1942943,27.73014677,1505000.0,28.13891163,28.199568,28.26022463,27.92529905,751000.0,28.09144158,28.020238,28.16528473,27.97013069,1005000.0,28.25494836
56,12/13/04,28.25494836,28.47911,28.50020812,28.23385051,930000.0,28.25758606,28.389446,28.41054385,28.17846904,1067000.0,28.44218952,28.547678,28.74019431,28.36834848,1305000.0,28.19429415,27.954308,28.21539016,27.95167027,1325000.0,27.66157804,27.730146,27.7406948,27.55345394,2798000.0,27.98067964
57,1/24/05,28.22330209,28.11254,28.2734094,28.11254,1038000.0,28.27077072,28.244399,28.37362122,28.15209757,1134000.0,28.54240403,28.608334,28.64525478,28.41845542,1464000.0,28.28131997,28.476474,28.500208,28.25758623,2014000.0,28.39999506,28.270771,28.39999506,28.20747875,711000.0,28.10990206
58,1/31/05,28.10990206,28.363075,28.51339534,28.10199099,1003000.0,28.56877611,28.832496,28.84040733,28.5529516,1423000.0,28.85359375,28.916886,28.95380652,28.81930885,1505000.0,28.61360751,28.882601,28.882601,28.53712848,1160000.0,28.93534649,28.974905,29.05665737,28.85622973,951000.0,28.94062004
59,2/7/05,28.94062004,28.700636,28.9458955,28.58459846,843000.0,28.46856123,28.832496,28.86150519,28.42900483,2666000.0,28.56086458,28.513395,28.68217546,28.48438555,2428000.0,28.7586546,28.919524,28.9590804,28.75601688,2676000.0,28.95644468,29.193791,29.26499643,28.92215978,1174000.0,29.27818084
60,2/14/05,29.27818084,29.37312,29.41004078,29.22016405,954000.0,29.60255715,29.647389,29.7001343,29.51552906,1177000.0,29.60783111,29.990226,30.05088052,29.49179567,2349000.0,30.1695561,29.916385,30.23548607,29.89264915,2509000.0,30.22229908,30.420089,30.49129469,30.21966135,2061000.0,30.51766583
61,3/7/05,31.84153871,31.751875,31.88109695,31.65166012,1372000.0,31.84417594,31.997134,32.09998449,31.82835327,1936000.0,32.11316986,31.78352,32.37161614,31.69912964,4362000.0,31.79143322,31.685945,31.93647784,31.52771333,3481000.0,31.7255027,31.799344,32.04723937,31.69385552,1417000.0,31.79143299
62,3/14/05,31.79143299,31.812529,31.8810967,31.54353577,1461000.0,32.04196647,31.730777,32.08943605,31.730777,1412000.0,31.8389029,31.804618,32.15272825,31.77824654,1726000.0,31.89428357,32.010319,32.09470936,31.78615762,2230000.0,31.93120474,32.134268,32.2265697,31.83890304,1446000.0,31.81780427
63,6/6/05,30.26987739,30.232292,30.28061642,30.06852565,963000.0,30.29135561,30.328941,30.50612945,30.28330181,1764000.0,30.51149959,30.280616,30.73164388,30.24034512,1599000.0,30.31551597,30.605463,30.61083157,30.21886714,2481000.0,30.76117639,30.522239,30.76117639,30.37726575,1209000.0,30.4175356
64,6/13/05,30.4175356,30.852454,30.90614914,30.35041836,941000.0,30.90883232,30.957157,30.99474239,30.80681491,794000.0,30.96789628,30.973267,31.06186015,30.80681543,1213000.0,31.14240076,31.209518,31.22294225,30.99474202,1108000.0,31.76524911,32.162584,32.162584,31.76256389,1679000.0,31.79478114
65,6/20/05,31.79478114,31.824313,31.91559138,31.56389782,2086000.0,31.54510439,31.507519,31.71155596,31.44845529,1939000.0,31.45919493,31.545105,31.6256465,31.34912184,1814000.0,31.41087004,31.335699,31.72229513,31.3276452,1075000.0,31.60953626,31.477987,31.71155581,31.42160878,724000.0,31.5934289
66,6/27/05,31.5934289,31.690078,31.75719524,31.52631166,1337000.0,31.6793396,31.663232,31.92633053,31.5773222,1800000.0,31.48872623,31.486041,31.6847075,31.38670882,1476000.0,31.73571707,31.370599,31.78672698,31.33569884,1424000.0,31.6766541,31.741088,31.7652494,31.4699338,1400000.0,31.57732182
67,7/18/05,33.24988236,33.223036,33.37069474,33.16665778,1158000.0,33.38680214,33.773398,33.79755913,33.25793596,1998000.0,33.42707285,33.598893,33.6848028,33.05926955,1840000.0,32.97335929,32.831071,33.15323296,32.68072891,2211000.0,32.83912527,33.373378,33.40828004,32.82033244,3200000.0,33.6257395
68,7/25/05,33.6257395,33.706281,33.82977646,33.5317759,2976000.0,33.29283817,33.311631,33.47271185,33.22840428,1541000.0,33.32505323,33.483451,33.56130727,33.24182865,1622000.0,33.62573964,33.652586,33.75997413,33.34384641,1001000.0,33.80829815,33.558622,33.85125211,33.558622,992000.0,33.93716388
69,8/1/05,33.93716388,33.896893,34.01501801,33.77608089,872000.0,34.1036137,34.441883,34.441883,34.04186691,2159000.0,34.79358113,34.858011,34.97882123,34.70229872,3023000.0,34.33718269,34.449941,34.73988401,34.25664092,2755000.0,34.42040872,34.057974,34.48483859,33.9613249,1229000.0,34.54121936
70,8/8/05,34.54121936,34.484839,34.6620296,34.37476565,1001000.0,35.03788478,34.922445,35.09694822,34.80431784,1694000.0,35.27682205,35.362734,35.38421206,35.15064136,1386000.0,35.44058799,35.547978,35.66610489,35.3707874,1308000.0,35.45938282,35.558715,35.61509536,35.41105626,1503000.0,35.2875629
71,8/15/05,35.2875629,35.223129,35.4003196,35.16138221,958000.0,34.75330852,34.436517,34.88217255,34.39087781,1364000.0,34.16267685,34.001596,34.59491216,33.92373973,2428000.0,33.82977622,33.773398,33.89420823,33.54519776,1670000.0,34.03649608,34.390877,34.390877,34.03649608,1044000.0,34.62712777
72,8/22/05,34.62712777,34.457995,34.75062511,34.24590236,1099000.0,34.3076505,34.227109,34.34255066,34.07408168,1544000.0,34.33449696,34.409668,34.56001009,34.28080397,1113000.0,34.39087725,34.377453,34.40161413,34.22979426,807000.0,34.21637032,33.784135,34.22174078,33.784135,1072000.0,34.10898426
73,8/29/05,34.10898426,34.149253,34.19489434,33.94790127,1129000.0,33.80293001,34.135831,34.213687,33.80024478,1864000.0,34.8070014,35.394949,35.40569018,34.74525461,2764000.0,36.09028293,36.576215,36.61916708,36.09028293,2283000.0,36.33996059,36.560103,36.57084391,36.25404837,2746000.0,36.30237493
74,9/19/05,36.12787161,36.366809,36.46882426,36.12787161,1792000.0,36.47151203,36.181565,36.63796145,36.16814075,1682000.0,36.60574649,36.364122,36.65675211,36.26210647,1486000.0,36.25941914,36.087599,36.60574627,35.7412759,2090000.0,35.63657376,35.703691,35.84329218,35.5506618,2292000.0,35.79228572
75,9/26/05,35.79228572,36.546683,36.59232219,35.78422789,2025000.0,36.04195984,36.356068,36.4285557,35.99095019,1712000.0,36.56547323,36.841996,36.85810333,36.4795653,1394000.0,36.914484,36.914484,36.914484,36.67822996,1287000.0,36.71313227,36.463458,37.03529423,36.463458,1460000.0,36.28895154
76,10/3/05,36.28895154,36.079546,36.28895154,35.95068223,1144000.0,35.96410611,35.309041,35.99632105,35.30635389,1988000.0,34.92512749,34.315704,35.0325175,34.28080357,2281000.0,34.28885783,34.192209,34.78015659,33.96132541,2470000.0,34.73182966,34.498263,34.81237116,34.44725336,2831000.0,34.82042571
77,10/10/05,34.82042571,34.511688,34.82311309,34.31033627,1593000.0,34.60028287,34.785527,34.92781529,34.52242445,1179000.0,34.67813742,34.350605,34.7774696,34.20831671,1289000.0,33.81366653,33.883469,33.91300086,33.28746761,2494000.0,33.65527138,33.695542,33.77608162,33.0270529,3219000.0,34.33718249
78,10/17/05,34.33718249,33.92374,34.33718249,33.74118083,1225000.0,33.22840425,32.763954,33.43781166,32.73710737,2235000.0,32.78274693,33.558622,33.558622,32.4847461,1999000.0,33.11833304,32.26997,33.23377469,32.0874111,2765000.0,32.34245807,32.4579,32.84986444,32.29144843,2130000.0,32.72905378
79,10/24/05,32.72905378,33.314314,33.38411647,32.6887829,1528000.0,33.3062607,33.472712,33.63916357,33.14249435,1511000.0,33.51566624,33.394856,33.84319893,33.32505353,2669000.0,33.29283818,32.753215,33.29283818,32.753215,1958000.0,33.10759418,33.257936,33.37337793,32.71562974,1938000.0,33.51298227
80,10/31/05,33.51298227,33.832459,33.9183688,33.45123333,3500000.0,33.83245909,33.961325,34.08482046,33.67943177,2953000.0,33.88078405,34.417722,34.45262431,33.88078405,1891000.0,34.6727668,35.276822,35.27950937,34.61102001,2042000.0,34.88754222,34.551956,34.9251276,34.29691128,2863000.0,34.09555989
81,11/7/05,34.09555989,34.138516,34.29691162,33.93179355,1062000.0,33.7572884,34.012335,34.12240621,33.73312727,1587000.0,33.96132505,33.939847,34.35328949,33.70628034,1934000.0,33.42975607,32.731737,33.42975607,32.67535878,3707000.0,32.47937759,32.782747,32.82033239,32.47937759,3148000.0,33.35458492
82,11/14/05,33.35458492,33.386802,33.50492889,33.07000834,1558000.0,33.42170287,33.274046,33.84051582,33.21229733,1976000.0,33.07000907,33.317,33.49150537,32.906243,1870000.0,33.50761236,33.558622,33.85393734,33.38680212,1775000.0,33.99891073,34.076767,34.10629886,33.68748779,1899000.0,34.7330339
83,11/28/05,34.7738787,34.169354,34.79021861,34.169354,1797000.0,34.30823002,34.215646,34.36269294,34.16118281,2960000.0,34.06315103,33.954229,34.1693535,33.78539678,3723000.0,34.59143128,34.983557,35.16872532,34.54513927,1107000.0,34.94543427,34.961772,35.05980357,34.75209504,1055000.0,35.15511327
84,12/5/05,35.15511327,35.141497,35.39474261,35.04618716,960000.0,35.168726,35.152388,35.34028214,35.02168097,1301000.0,35.03257112,34.534247,35.10337422,34.44983171,1711000.0,34.7058007,35.24225,35.36206684,34.58598603,2089000.0,34.86918793,34.760264,35.02984925,34.68401771,1275000.0,34.89914225
85,12/12/05,34.89914225,34.97811,35.04074002,34.83106496,1079000.0,35.4410343,35.318496,35.56357669,35.24224971,1590000.0,35.77597853,35.84133,35.9039641,35.72151343,1758000.0,35.49277389,35.17962,35.57446745,34.97538814,1476000.0,35.45192944,35.13605,35.49549999,35.04618743,1911000.0,34.90186366
86,12/19/05,34.90186366,34.798387,35.13604981,34.65133978,1226000.0,34.61594021,34.507016,34.79293952,34.47978563,1841000.0,34.88280471,34.583263,34.92092772,34.50701671,2751000.0,34.82834163,34.863741,34.88280455,34.65406377,1643000.0,34.74120225,34.812001,34.93726512,34.59687868,805000.0,34.63772317
87,2/6/06,36.45402529,36.394117,36.60651787,36.21711768,1144000.0,36.04011827,35.650714,36.10274829,35.57174625,1625000.0,35.40291203,35.285821,35.44376086,35.0489134,2451000.0,35.72423873,35.323944,35.88762177,35.27765199,2268000.0,35.41925345,35.048913,35.53634448,34.79838695,2690000.0,34.81744912
88,2/13/06,34.81744912,35.059804,35.46554601,34.81472521,2024000.0,34.68129359,34.912758,35.18778861,34.5968783,2220000.0,34.7766018,34.447108,35.27220446,34.26193778,2653000.0,34.55330787,34.749371,34.77387773,34.45800021,2445000.0,34.9890044,35.212296,35.212296,34.91003257,1847000.0,35.30215832
89,3/6/06,34.62410981,33.90249,34.63500218,33.88887373,1541000.0,33.76633479,33.875259,33.94333629,33.67919587,2156000.0,33.64651885,33.90249,33.99507402,33.5049189,1707000.0,33.76361206,33.872536,34.00324549,33.67102804,1926000.0,33.79356591,34.144845,34.18841555,33.73910517,2054000.0,34.29733729
90,3/13/06,34.29733729,34.613217,34.65134001,34.29733729,2466000.0,34.63227778,35.209574,35.31032702,34.59143114,1588000.0,35.359345,35.359345,35.40018974,35.10609531,1421000.0,35.21502209,35.590806,35.63709801,35.17417326,1213000.0,35.6507136,35.413806,35.65343533,35.34028144,1145000.0,35.397468
91,3/20/06,35.397468,34.983557,35.44920347,34.95905027,1437000.0,34.88007825,34.585986,34.92637053,34.56964609,1372000.0,34.71941679,34.828341,35.01623268,34.64044687,1175000.0,34.90731121,34.784771,34.9835575,34.62683332,1312000.0,35.07341986,35.299437,35.46554558,35.04346558,1120000.0,35.19867943
92,3/27/06,35.19867943,35.326665,35.39746783,35.16872515,795000.0,35.52817572,35.182342,35.65888302,35.14694453,1831000.0,35.53906632,35.729686,35.81954421,35.41108048,1158000.0,36.08096271,36.14904,36.50304272,36.05373016,1720000.0,36.06734686,35.871284,36.10546987,35.73512942,1147000.0,35.94753044
93,4/3/06,35.94753044,36.029224,36.39956445,35.89579496,1091000.0,36.27157873,36.277026,36.42951858,36.05100886,2484000.0,36.366888,36.788968,36.788968,36.26885643,1346000.0,36.53571901,36.497596,36.64464512,36.18171629,1279000.0,37.13752372,36.353272,37.18381574,36.31787045,1497000.0,36.87338385
94,6/5/06,37.89575008,37.004759,37.95286443,36.95906592,934000.0,36.71918415,36.410763,36.72489679,36.07949531,1692000.0,36.04522837,35.576886,36.27939898,35.54261648,1848000.0,34.78869929,35.05714,35.18850432,34.08618575,1993000.0,34.76014276,34.79441,35.19992767,34.57166237,1251000.0,34.96004422
95,6/12/06,34.96004422,34.326068,35.08569763,34.26895422,1333000.0,34.08047368,33.252309,34.21755064,33.16092512,1417000.0,34.04620607,33.783478,34.30322323,33.37796033,1594000.0,34.35462716,35.211351,35.28559869,34.35462716,1300000.0,35.02287028,34.805833,35.11996679,34.60593134,2137000.0,34.7430083
96,6/19/06,34.7430083,34.126166,34.77727554,33.91484136,1077000.0,34.29751054,34.274664,34.88579596,34.15472323,1585000.0,34.41174091,35.085697,35.29131129,34.39460701,1880000.0,34.9257768,35.097121,35.18279167,34.72016251,881000.0,35.3084454,35.605443,35.90815152,35.2741753,1148000.0,35.52548234
97,6/26/06,35.52548234,35.67398,35.7996334,35.16565776,1200000.0,35.83961379,35.319868,36.10234187,35.29702146,1549000.0,35.63971268,35.719673,35.79963332,35.34271451,1230000.0,35.70253698,36.639224,36.69633778,35.60544276,2587000.0,37.27320006,37.421696,37.59875512,36.99333408,2078000.0,37.69013642
98,7/10/06,37.63873536,37.798656,38.0214042,37.47310151,1027000.0,37.87290406,38.021404,38.06709708,37.49023465,1089000.0,38.05567168,37.764389,38.07851822,37.5416408,940000.0,37.39885353,37.158968,37.60446326,37.12470019,1782000.0,37.40456217,37.158968,37.41027481,36.78201179,1544000.0,36.13089854
99,7/17/06,36.13089854,35.953844,36.38220592,35.77107625,1688000.0,36.18801577,36.068075,36.19372612,35.61686654,1359000.0,35.55403991,36.764878,36.89052683,35.54261692,1805000.0,36.89623879,36.427897,36.95906578,36.40505274,1284000.0,36.72489745,36.262266,36.7820118,36.23370682,1329000.0,36.45645667
100,7/24/06,36.45645667,37.010472,37.12470013,36.37649407,1534000.0,37.26177421,37.358873,37.73011657,37.04473921,1206000.0,37.68442777,38.255577,38.36980513,37.55306174,1278000.0,39.07802919,38.421207,39.08945446,38.31839957,1553000.0,38.75247439,38.883841,39.18654952,38.68393934,1787000.0,38.93524219
101,7/31/06,38.93524219,38.969514,39.15228176,38.72962847,654000.0,38.41549824,38.752474,38.77532054,38.2669983,996000.0,38.64966716,38.187038,38.76960793,38.06709723,4776000.0,37.73011723,37.850058,38.05567172,37.70156206,2528000.0,38.28984474,38.518305,38.67251358,38.16419134,2534000.0,38.34695864
102,8/7/06,38.34695864,38.187038,38.50687985,38.06709723,1211000.0,37.88433022,37.941444,38.26128643,37.81007796,882000.0,38.67251359,38.581132,39.07802897,38.50687974,1179000.0,38.66680091,38.495459,38.69536009,38.22701772,1260000.0,38.21559701,38.432632,38.5411515,38.0728097,911000.0,38.56970667
103,8/14/06,38.56970667,38.432632,38.70107271,38.23843898,1093000.0,39.10658861,39.295069,39.36360405,38.97522257,2560000.0,39.29506817,39.049474,39.51781579,38.88954822,1211000.0,38.70678141,38.798167,39.06089507,38.53543893,1537000.0,38.96380095,39.032336,39.05518254,38.66109243,1542000.0,39.37502933
104,8/21/06,39.37502933,39.357896,39.50068331,39.22081676,714000.0,39.20939609,39.380738,39.40358454,39.13514383,617000.0,39.72343109,39.203683,39.82623795,39.10658877,898000.0,39.67202525,39.380738,39.68915916,39.11230129,998000.0,39.42071759,39.329336,39.58635144,39.23794984,530000.0,39.35218318
105,8/28/06,39.35218318,39.540663,39.60919805,39.27222229,889000.0,39.28935668,39.369317,39.39216354,38.83814821,1847000.0,39.40929694,39.043762,39.40929694,38.80387989,971000.0,38.66109294,38.512593,38.7353412,38.44976658,1194000.0,38.55828555,38.752474,38.88384061,38.39836433,1189000.0,38.52972601
106,9/18/06,36.02809453,36.633511,36.69062535,36.02809453,1258000.0,36.61066471,36.125189,36.71347214,35.86246092,1354000.0,36.49072367,36.405053,36.85054654,36.33080303,1817000.0,36.63922481,36.821992,37.00475976,36.46787776,1051000.0,37.18752704,36.58211,37.19894774,36.4735905,1003000.0,36.41076337
107,9/25/06,36.41076337,36.633511,36.74773913,35.95384456,1885000.0,36.53070444,36.964779,37.05045253,36.5078579,1403000.0,37.06187267,37.398853,37.47881389,36.81056587,1514000.0,37.68442813,37.570196,37.85577062,37.53021555,1000000.0,37.71298372,37.661582,37.7700975,37.41027519,770000.0,37.62160096
108,10/2/06,37.62160096,37.278908,37.77580897,37.26177409,578000.0,36.83912547,36.604952,37.08471964,36.5478405,2076000.0,36.56497152,37.210373,37.21608563,36.38791641,2150000.0,37.22179445,37.181814,37.2960467,37.02760599,1499000.0,36.82199148,37.1247,37.18181378,36.73060589,850000.0,37.37600666
109,10/9/06,37.37600666,37.021893,37.44454229,36.95335338,784000.0,36.95335343,37.324601,37.46738831,36.93621952,1097000.0,36.90195214,37.004759,37.2560658,36.79914471,895000.0,37.2103728,37.587329,37.59304163,37.12469927,905000.0,37.4102746,37.535928,37.69013658,37.33602691,1487000.0,37.5530615
110,10/16/06,37.5530615,38.135632,38.16990381,37.54734887,1091000.0,38.26699845,38.07281,38.32411223,37.92431006,1015000.0,38.06138395,37.758676,38.2155971,37.65586857,1115000.0,38.181325,38.65538,38.68393918,38.14134512,1232000.0,38.5811316,38.706781,38.75247351,38.50117128,1110000.0,38.09565152
111,10/23/06,38.09565152,38.741053,38.80387941,38.06138371,825000.0,38.46689985,38.838148,38.87241581,38.41549871,1514000.0,38.59826593,39.078029,39.25508812,38.52401368,1658000.0,39.4092965,39.300777,39.43785567,39.09516271,1542000.0,39.27222187,38.912395,39.28364314,38.79245423,1363000.0,38.58113262
112,10/30/06,38.58113262,38.512593,38.80958889,38.49545967,875000.0,38.51259262,38.918108,38.95237581,38.34124613,1072000.0,38.94666702,38.752474,39.08945433,38.70107285,1530000.0,38.24415152,38.415498,38.56970658,38.1756119,1562000.0,38.33553787,38.666801,38.80958831,38.27841953,1715000.0,38.96380077
113,11/6/06,38.96380077,39.53495,39.58635172,38.66680089,1305000.0,39.80909975,39.626332,39.96331233,39.54066304,1255000.0,39.63775745,40.071832,40.20890667,39.62633161,1222000.0,40.43165412,40.72865,40.89428327,40.32313405,1371000.0,41.19128448,41.019938,41.19128448,40.80290243,1452000.0,40.7914764
114,11/13/06,40.7914764,40.665823,40.96853552,40.62013449,1633000.0,41.04295107,40.996539,41.1357845,40.69483501,906000.0,40.86309244,41.176398,41.28663668,40.86309244,1020000.0,41.57093131,40.590401,41.6695632,40.55559108,1644000.0,40.3641253,40.723847,40.723847,40.27129652,1282000.0,40.50917411
115,11/27/06,41.03715205,40.654222,41.16479134,40.60780529,1432000.0,40.62521144,41.042952,41.12998174,40.62521144,1294000.0,41.01974401,41.739188,41.84942204,40.92111212,1360000.0,41.59413846,41.460692,41.64635421,41.23441676,1561000.0,41.35625789,40.955922,41.43748453,40.52077618,1946000.0,40.5323818
116,12/4/06,40.5323818,40.926914,41.00233753,40.31190909,1057000.0,41.35045459,41.756593,41.756593,41.34465554,1335000.0,41.08936854,41.11838,41.60574099,41.08356543,1186000.0,41.57673397,41.617347,41.70437268,41.46069219,1930000.0,41.54772242,41.350454,41.7507893,41.26342832,881000.0,41.27502951
117,12/11/06,41.27502951,41.715979,41.88423538,41.18220073,862000.0,41.39106664,41.30984,41.58833506,41.11257622,1324000.0,41.53611544,41.849421,41.90164082,41.52451387,956000.0,42.23235182,42.284567,42.35419207,42.02928436,1405000.0,42.55725894,42.075697,42.62108091,42.00027289,1194000.0,42.27876873
118,12/18/06,42.27876873,41.402674,42.29037029,41.29823843,1391000.0,41.34465494,41.901641,42.13371993,41.33885184,942000.0,41.91904631,41.623146,42.02348131,41.55352557,973000.0,41.40847733,41.704373,41.73918757,41.1705953,1151000.0,41.53611595,40.880498,41.53611595,40.86309275,824000.0,40.96172504
119,2/5/07,39.88836571,39.841949,39.95218768,39.67369204,865000.0,39.73171575,39.749121,39.79553307,39.50543586,1099000.0,39.94058129,39.708507,40.09143299,39.67369243,1185000.0,39.63307884,39.917377,40.01600889,39.51123801,1375000.0,39.84775242,39.650484,39.96378956,39.58666668,963000.0,39.2733611
120,2/12/07,39.2733611,39.163123,39.32557686,39.0238775,991000.0,39.36038652,39.731715,39.8767636,39.35458805,1460000.0,40.60200721,40.694836,40.8398846,40.41054248,2496000.0,40.93271734,40.700639,40.94431949,40.50337058,1383000.0,40.49757176,40.723847,40.76446061,40.49176865,846000.0,40.32351118
121,3/5/07,37.31230182,37.086026,37.74744764,37.06862075,3752000.0,37.75325047,37.828674,38.05494924,37.50376629,1724000.0,37.48636184,38.327642,38.63514388,37.48055815,2651000.0,38.46108843,38.368255,38.53651196,38.18839647,1906000.0,38.49589843,38.426278,38.55391729,38.22320647,1684000.0,38.11877158
122,3/12/07,38.11877158,38.31604,38.43788025,38.02594279,1950000.0,37.99113249,37.619804,38.44368356,37.61400554,2085000.0,37.75905311,37.857685,37.857685,37.20206706,2252000.0,37.19046059,37.770655,37.92150729,37.18465748,2060000.0,38.08396075,37.822875,38.36245639,37.70103475,1439000.0,38.06655651
123,3/19/07,38.06655651,38.414672,38.49589864,37.99113239,1069000.0,38.15938495,38.542315,38.61194007,38.04915091,1033000.0,38.60033394,39.052885,39.17472525,38.40886862,1377000.0,39.21533826,39.499637,39.72010914,39.15152093,1416000.0,39.74331704,39.911574,40.06822475,39.72591179,1454000.0,40.11464171
124,3/26/07,40.11464171,39.96379,40.1262485,39.51704262,1396000.0,39.92317604,39.917377,40.0566225,39.78973365,886000.0,40.44535181,40.114641,40.53238214,40.06242582,1310000.0,40.68323371,40.636817,40.79346775,40.41054176,2673000.0,40.54978638,40.485965,40.86889505,40.35832165,2022000.0,40.72384724
125,6/4/07,44.75583336,44.897558,44.9802308,44.60229588,1512000.0,44.69678165,44.602296,44.96842281,44.47238007,1725000.0,45.04518945,44.289319,45.0570023,44.19483276,1842000.0,44.30112725,43.710603,44.64953892,43.63383603,1704000.0,43.84642621,43.958627,43.958627,43.40943944,1931000.0,43.4862059
126,6/11/07,43.4862059,43.858235,44.11216043,43.46849135,1504000.0,43.68108024,43.309047,43.94681438,43.309047,1396000.0,43.92319192,44.324749,44.38970667,43.8287104,1476000.0,44.90346505,45.812873,45.86011612,44.87393707,2084000.0,46.46835473,46.503785,46.64550964,46.24985957,1913000.0,46.85809817
127,6/18/07,46.85809817,46.669131,46.89943487,46.56874306,957000.0,46.93486935,46.799047,46.93486935,46.56283612,1521000.0,47.37185649,46.409299,47.44271645,46.35615418,2820000.0,47.0234452,46.858099,47.07659475,46.4565425,1352000.0,46.63370117,46.409299,46.86400563,46.17899513,1246000.0,46.30891093
128,6/25/07,46.30891093,46.178995,46.62779462,45.92506957,2351000.0,46.61598586,45.824681,46.61598586,45.73610177,1777000.0,45.68295657,45.936882,45.94869071,45.31092748,2343000.0,46.75180389,47.076594,47.27737047,46.71637421,2361000.0,47.85608627,47.820656,48.15725483,47.55491772,2133000.0,48.38755886
129,7/9/07,49.88158406,50.265426,50.46029546,49.86977121,1422000.0,49.5508932,49.072565,49.90520657,49.05485045,2038000.0,49.060756,49.308775,49.43869093,49.00760645,1331000.0,49.98787943,51.033105,51.033105,49.97016429,1815000.0,51.08625501,51.363802,51.5763866,51.0094839,1962000.0,50.46029596
130,7/16/07,50.46029596,50.389436,50.78508607,50.10007557,1472000.0,50.18275336,49.798912,50.4071514,49.62175295,2212000.0,49.36192012,49.598131,49.81071973,49.19067222,2365000.0,49.56270054,49.793005,50.05873914,49.55679412,1531000.0,49.1257141,48.523377,49.23200906,48.14544207,2738000.0,49.19067213
131,7/23/07,49.19067213,49.420976,49.62175247,48.87178844,1893000.0,48.62967114,47.838371,48.97217639,47.64940324,2031000.0,47.56082406,47.413193,47.71436155,46.61007942,3672000.0,47.495866,46.409299,47.80293684,45.6770501,3167000.0,46.22033202,45.44084,46.53331342,45.17510585,2390000.0,46.3325323
132,7/30/07,46.3325323,46.621888,46.7399958,45.96050379,2286000.0,46.85219175,46.421112,47.2714681,46.36796246,1865000.0,46.42111248,46.515594,46.8699121,45.24006397,3054000.0,45.20463378,45.340452,45.58847101,44.90346523,2230000.0,44.73811867,43.616122,44.91527359,43.616122,2370000.0,43.87004737
133,8/6/07,43.87004737,44.289319,44.3306557,43.41534133,2168000.0,43.71060301,44.767642,44.98023073,43.66926631,1825000.0,44.69678227,45.488083,45.92506977,44.67906772,2115000.0,43.97634207,43.580692,44.62591816,43.53344888,1880000.0,43.29133183,43.480299,43.62793006,42.6653773,2203000.0,43.85823491
134,8/13/07,43.85823491,43.403533,44.0117724,43.35628988,1284000.0,43.90547707,42.736242,43.9645289,42.66537732,1280000.0,42.32287245,41.850456,42.94883112,41.79140003,2009000.0,41.33079115,41.342604,41.49023506,40.1615555,3025000.0,42.1457173,42.435073,42.62994659,41.68510425,4889000.0,42.35830629
135,8/20/07,42.35830629,42.122096,42.49412451,41.56700143,2048000.0,41.66739052,41.572909,41.9331288,41.41937092,1415000.0,42.37011561,42.730336,42.81300881,42.27562937,2036000.0,42.96063978,42.8012,43.14370112,42.5295553,2188000.0,43.39172427,43.935006,43.94681412,43.31495317,1051000.0,43.53344906
136,8/27/07,43.53344906,43.633837,43.81689834,43.26180849,1216000.0,43.02559776,42.02761,43.14960726,42.00989486,1605000.0,42.39964346,43.273617,43.35038811,42.15752615,1663000.0,43.20275661,43.527542,43.91138394,43.0728401,2498000.0,44.77354907,44.342464,44.79126362,44.19483294,1422000.0,43.98224796
137,9/17/07,45.736102,45.736102,45.96050417,45.35816707,1116000.0,46.1553783,47.495866,47.63759064,46.03136407,1470000.0,48.00962406,47.861993,48.39936771,47.80293703,1857000.0,48.3166945,48.440704,48.64738631,48.16906343,1068000.0,48.1808721,48.092297,48.40527427,48.00371777,1620000.0,48.44070344
138,9/24/07,48.44070344,48.216306,48.53518909,48.12772618,1289000.0,47.63168936,47.737979,47.93875961,47.43681517,2759000.0,48.28126454,47.950568,48.3462228,47.50767481,1574000.0,48.32850284,48.304886,48.3934611,47.85608638,1196000.0,47.7675066,47.85018,48.05096061,47.46633805,1859000.0,47.41909981
139,10/1/07,47.41909981,47.861993,47.93875938,47.16517437,1622000.0,46.62188802,46.651416,46.80495349,46.37977543,2884000.0,45.706579,45.671144,45.96640613,45.64752716,2594000.0,45.67114288,46.00184,46.09632152,45.32273594,1651000.0,46.04317712,45.995934,46.13765864,45.5943775,1942000.0,45.62390547
140,10/8/07,45.62390547,45.44084,45.65342932,45.2695921,1150000.0,45.5294192,46.173093,46.20261685,45.48808309,2004000.0,45.46446062,46.0727,46.26166717,45.42312392,1640000.0,46.01364832,46.084513,46.85809799,45.70067106,2606000.0,46.39158415,46.651416,46.84629018,46.13175643,2305000.0,47.77931966
141,10/15/07,47.77931966,47.40138,47.8797076,47.13564586,1659000.0,47.77932037,47.915138,48.0745825,47.64940385,2442000.0,47.95647382,47.903329,48.04505364,47.24194007,3048000.0,47.50177198,47.755698,47.79112768,47.27146811,1898000.0,47.65530566,46.734089,47.65530566,46.63960748,2242000.0,45.86601819
142,10/22/07,45.86601819,46.232145,46.33843937,45.65342945,2192000.0,46.26757452,46.173093,46.44473416,45.70067182,2726000.0,45.96050411,46.409299,46.48016368,45.62980757,3132000.0,45.8778308,46.043177,46.17899522,45.47036788,3332000.0,46.85809919,47.501773,47.51358171,46.62188889,4352000.0,47.97418928
143,10/29/07,47.97418928,47.69074,47.99781084,47.57853921,2630000.0,47.53129605,47.106118,47.60216074,47.04116447,2738000.0,47.10021597,47.602161,47.80884331,47.02344487,2168000.0,46.73408901,45.67705,46.73408901,45.67705,3863000.0,46.35615395,46.781332,46.88171994,46.06089182,4613000.0,46.65732221
144,11/5/07,46.65732221,46.539215,46.75771015,46.18490104,2509000.0,47.05297331,47.649404,47.649404,46.81676302,2519000.0,49.41506969,48.848167,49.87567802,48.848167,9783000.0,49.53317256,49.544986,49.75166831,48.87769064,4376000.0,49.13161626,48.818639,49.40326156,48.59424155,2746000.0,47.58444525
145,11/12/07,47.58444525,47.24194,47.98600174,47.24194,2267000.0,46.61108523,47.350083,47.43419624,46.34672564,3500000.0,47.70456521,47.283993,48.07106123,47.16984151,2657000.0,47.10375179,46.857416,47.49428094,46.47289559,2710000.0,48.09509479,48.059043,48.24529808,47.51230543,2143000.0,48.04702797
146,11/26/07,49.26667822,48.022995,49.42289084,47.95089622,1568000.0,48.083076,48.083076,48.20924616,47.31403577,2928000.0,47.6625082,48.731955,48.87013902,47.6625082,2264000.0,48.18521229,48.263321,48.74396851,48.13114151,2321000.0,48.99631429,48.617799,49.04437574,48.1792078,1939000.0,48.38949117
147,12/3/07,48.38949117,48.509652,48.56372759,48.22126409,1194000.0,48.70792154,48.509652,48.87614802,48.49763754,1042000.0,49.2967213,49.392849,49.75333629,49.20058879,1932000.0,49.33276862,50.282054,50.39020097,49.33276862,1100000.0,49.6511977,49.765354,50.01168499,49.50700435,1558000.0,49.20659815
148,12/10/07,49.20659815,49.693255,49.95761459,49.18857436,1201000.0,49.74132096,48.755988,49.86749112,48.55170913,1918000.0,49.86749129,49.717288,50.03571837,49.2786926,2342000.0,48.72594513,48.930224,49.01433784,48.31138766,2389000.0,48.10109911,47.830735,48.43755748,47.74662116,2184000.0,47.66851302
149,12/17/07,47.66851302,47.091733,47.67452236,46.92350592,1568000.0,47.29601229,47.145809,47.48226317,46.54499584,1839000.0,47.59641845,47.530329,47.76464553,46.8634258,2059000.0,47.73460333,47.746622,47.96891986,47.45222476,1308000.0,48.1311426,48.341426,48.47961483,48.00497243,1754000.0,48.42553846
