,date,open1,close1,high1,low1,volume1,open2,close2,high2,low2,volume2,open3,close3,high3,low3,volume3,open4,close4,high4,low4,volume4,open5,close5,high5,low5,volume5,target
0,2003-01-06,8.92499952878,9.47,9.5949999934,8.89000003062,21209400.0,8.9350005,9.575,9.6499995,8.9300005,28092600.0,9.4350005,9.375,9.6499995,9.2799995,19244600.0,9.45999951337,9.72,9.74499949871,9.39999901646,15946400.0,9.3999995,10.0,10.0,9.3999995,26122600.0,10.165
1,2003-01-13,10.165,9.835,10.1949995,9.675,27927600.0,9.77999900355,9.85,9.91999949645,9.64999901015,16060600.0,9.9849995,9.79,10.09,9.745,44611000.0,9.1499995,9.375,9.745,9.0550005,58419400.0,9.29999949374,9.185,9.4899994834,9.18000000027,22038600.0,9.1049995
2,2003-02-03,9.02500000223,8.985,9.20000051196,8.96500049889,9586600.0,8.915,8.875,8.9300005,8.75,11921400.0,8.91499949888,8.895,9.07499948988,8.82499950393,12986800.0,8.8599995,8.965,9.09,8.7749995,10670000.0,8.88499949344,8.77,8.92499949116,8.64999900684,14120200.0,8.785
3,2003-02-10,8.785,8.96,8.9849995,8.7299995,10486400.0,8.99999950793,9.145,9.24499949453,8.98999950847,14895800.0,9.1000005,9.085,9.3,9.0,12368000.0,9.34500101773,9.025,9.36500051884,8.77999998643,26697800.0,9.1549995,9.45,9.455,9.045,15901600.0,9.425
4,2003-03-03,10.3950005,9.96,10.5,9.95,26211600.0,9.95999949874,9.935,10.0799994927,9.87499950302,20929000.0,9.99,9.95,10.0600005,9.865,12279000.0,9.91499948997,9.72,9.91499948997,9.60000000617,21565200.0,9.62499950943,9.81,9.83499949873,9.3999990209,20720200.0,9.69499899479
5,2003-03-10,9.69499899479,9.595,9.82499948801,9.54499950261,11862800.0,9.63000050791,9.48,9.67000051002,9.41000049631,12019800.0,9.47000000651,9.595,9.60999899922,9.23499901876,13683400.0,9.8450005,10.125,10.24,9.7250005,23618400.0,10.2499995046,10.345,10.4149994966,10.0249990155,18290000.0,10.0600009495
6,2003-03-17,10.0600009495,11.19,11.2000005004,10.0450004488,42114000.0,10.9250004973,10.985,11.050000503,10.7500004893,25790000.0,11.0249999964,11.105,11.1850010036,10.7000004818,24803000.0,11.0150005,11.425,11.63,10.8999995,29435600.0,11.7900004919,11.985,12.0950010046,11.4650004783,36211200.0,11.415
7,2003-03-24,11.415,11.675,11.8599995,11.2650005,33779000.0,11.6800000055,11.81,12.2699999805,11.645000007,35374400.0,12.245,12.38,12.495,11.7749995,37575800.0,12.3500005,12.205,12.495,12.125,36248400.0,12.1400009979,12.19,12.3750005076,12.1150004969,21920600.0,11.91
8,2003-03-31,11.91,12.01,12.1949995,11.825,27397200.0,11.6499989888,11.395,11.7999994822,11.2599995059,47505200.0,11.5200005,11.87,11.955,11.335,37083400.0,12.0249995,12.17,12.3900005,11.66,27701400.0,12.025,12.025,12.0950010029,11.5550009805,49753200.0,12.51
9,2003-04-07,12.51,12.0,12.625,11.9700005,35569400.0,12.0900005078,11.905,12.1150005088,11.8199999964,25371000.0,11.9049989794,11.435,11.9549994773,11.319999005,48223400.0,11.8599995,12.135,12.1850005,11.5649995,72957000.0,12.175,12.215,12.465,11.7749995,44018000.0,11.8950005
10,2003-06-02,15.1549995,14.33,15.2,14.2749995,34546600.0,14.4650005067,14.275,14.4900005075,14.1150004944,42024400.0,14.2250005,14.795,14.83,14.1949995,42710000.0,14.7500005019,14.695,14.7650010024,14.490000493,19126800.0,15.0049994631,13.975,15.0999999597,13.7499995081,42757200.0,14.2749995
11,2003-06-09,14.2749995,13.75,14.33,13.675,36217400.0,13.8,13.95,13.995,13.5249995,20410600.0,14.16,14.8,14.9750005,14.1000005,39347800.0,14.8649994995,14.85,14.9449989968,14.5799995091,26566000.0,14.8150000158,14.36,14.8750005179,14.2799999972,21168000.0,14.925
12,2003-06-16,14.925,15.33,15.3950005,14.8,38891000.0,15.4750005,15.71,15.8100005,15.335,27192600.0,15.4950004797,16.15,16.410000508,15.4700009789,32913800.0,16.0550010076,15.815,16.5950000247,15.7500004979,27878200.0,16.1500000025,16.07,16.2450015054,15.8149999921,25535800.0,15.95
13,2003-06-23,15.95,15.76,16.075001,15.5600005,17155200.0,15.7199999987,15.68,15.9699999908,15.2849995126,21847600.0,15.6000005,15.675,16.049999,15.585,20055600.0,15.8500005,16.450001,16.5,15.705,28344600.0,16.5499995137,16.110001,16.7450015197,16.0900004994,25943200.0,16.3299995006
14,2003-09-08,17.3250005125,17.77,17.8349984982,17.2900005135,22017600.0,17.629999,17.495001,18.3999995,17.385,47070200.0,17.245001,17.215,17.6000005,17.0650005,28382200.0,17.375,17.295,17.4850005,17.0300005,26116000.0,17.1949995,17.41,17.625,16.950001,22852400.0,17.4500015039
15,2003-09-15,17.4500015039,17.315001,17.5350005064,17.2900014993,12989400.0,17.375,17.91,17.9349995,17.3500005,24541600.0,17.8549995,18.0,18.24,17.6800005,25265000.0,17.8999995,18.790001,18.915001,17.8600005,35570800.0,18.575001,18.620001,18.8999995,18.3999995,23608800.0,18.3449995
16,2003-09-22,18.3449995,18.290001,18.455,18.01,23126000.0,18.3500005,18.91,19.0300005,18.325001,31720600.0,18.9199994832,18.305,19.1249994776,18.305,31594000.0,18.0599990056,18.264999,18.7249999874,17.8600000111,27535000.0,18.290001,17.540001,18.42,17.455,24548000.0,17.7099985106
17,2003-09-29,17.7099985106,18.094999,18.1249994992,17.479999017,23433600.0,18.015000009,17.695,18.1250005122,17.6550009989,21203000.0,18.049999,18.200001,18.3600005,17.5,35383400.0,18.254999,18.955,19.0,18.165001,30040000.0,19.4799995,19.620001,19.7749995,19.245001,33854800.0,19.6749985054
18,2003-10-06,19.6749985054,19.889999,19.9399999987,19.4500005111,20135400.0,19.6900005,19.465,19.950001,19.1900005,43982000.0,19.5299999965,19.395,19.7199989916,19.2049995049,46509600.0,20.700001,21.375,21.8600005,20.6000005,110624800.0,21.299999,21.58,21.6550005,21.1450005,36079200.0,21.450001
19,2003-10-13,21.450001,21.450001,21.5,21.045,25207800.0,21.15,21.15,21.4249995065,21.1250004994,21432800.0,21.4050005,20.715,21.4050005,20.665001,23228600.0,20.8150009931,21.105,21.2500005034,20.7749999922,19299800.0,21.2649995,21.120001,21.450001,20.8050005,26315000.0,21.2499994985
20,2003-10-20,21.2499994985,21.184999,21.3700004956,20.9050000066,17092600.0,21.049999,21.41,21.6450005,21.0,22456400.0,21.075001,20.885,21.295,20.7800005,23981000.0,20.504999,20.200001,20.625,19.9300005,34960400.0,19.979999007,20.264999,20.3899989969,19.6800000144,28786600.0,20.3999995
21,2003-10-27,20.3999995,20.584999,20.7299995,20.3050005,17490000.0,20.745001,21.51,21.535,20.700001,25868600.0,21.4699995,21.540001,21.99,21.3600005,27784800.0,21.9000000009,21.860001,22.2750000095,21.6299994947,33259800.0,21.7299999971,21.855,22.0000005033,21.5949999941,19394000.0,21.870001
22,2003-11-03,21.870001,21.965,22.385,21.799999,21367400.0,21.950001,21.715,22.0149995,21.6499995,17291800.0,21.4999995118,22.02,22.1299984975,21.4500005129,15054200.0,21.5000005003,21.485001,21.8600010087,21.2749999951,23257200.0,21.5949995,21.174999,21.674999,21.115,18215600.0,21.1499995
23,2003-11-10,21.1499995,20.620001,21.25,20.6000005,17051200.0,20.6249994922,20.309999,20.8149999876,20.1100000049,19698600.0,20.284999523,21.264999,21.2900004994,20.2649990235,21975800.0,21.1800009891,21.65,21.7950005033,21.0300009857,19295200.0,21.440001015,20.815001,21.6850000209,20.7600004987,18739600.0,20.4599984931
24,2003-11-17,20.4599984931,20.18,20.5400004911,19.3399995208,42204400.0,20.375,19.004999,20.495001,18.9750005,35245800.0,19.24,19.635,19.8050005,19.1000005,37942000.0,19.4549994972,19.344999,19.9799989836,19.3150000008,21760400.0,19.6450005,19.74,19.8600005,19.3500005,20227200.0,20.1000000189
25,2003-12-01,21.7099994911,22.105,22.1450010009,21.6600004899,20852000.0,21.9300005,21.754999,22.09,21.7350005,17536400.0,21.834999,21.25,21.99,21.174999,18848400.0,21.4750009979,21.565001,21.8050010056,21.0499994881,20857800.0,21.3950005,21.424999,21.8449995,21.325001,16190000.0,21.389999
26,2003-12-08,21.389999,21.389999,21.5349994966,20.8050000137,19364600.0,21.5200005,20.785,21.549999,20.715,17286000.0,20.7800005,20.58,21.045,20.2649995,20578400.0,20.53499952,21.389999,21.519999997,20.53499952,18270000.0,21.5,21.49,21.5,21.004999,15672800.0,21.92
27,2003-12-15,21.92,21.125,22.0,21.049999,19726000.0,20.9699989848,20.35,21.0949989817,20.104999006,29586600.0,20.290001,20.365,20.415001,19.9799995,21553600.0,20.5300009901,20.945,21.0250000019,20.3799994865,16245800.0,20.9649995021,21.055,21.1499989977,20.5750005114,19387800.0,20.915001
28,2004-01-05,22.879999,23.450001,23.5550005,22.674999,23107800.0,23.2199995,23.620001,23.7250005,23.174999,20527800.0,23.450001,23.834999,23.879999,23.424999,19229000.0,24.0,24.290001,24.4850005,23.9349995,25469200.0,24.0200000008,24.059999,24.3799984933,23.9999995012,19043400.0,24.125
29,2004-01-12,24.125,24.870001,24.9300005,24.1000005,29919400.0,24.8650005095,24.4,25.2050005165,24.104999994,28687400.0,24.6900010102,24.195,24.8100000127,23.8449999928,34347200.0,23.2800005,24.045,24.3999995,22.9300005,54017800.0,24.2299989964,24.055,24.2499994959,23.5499985105,24108600.0,23.950001
30,2004-02-02,23.5499984957,23.35,23.724999992,22.9850000078,20970400.0,23.334999,22.745001,23.34,22.540001,20293400.0,22.4099995014,22.475,23.0199999879,22.3999990017,17276400.0,22.6399995,23.049999,23.3500005,22.5650005,18855400.0,23.1100005,23.245001,23.285,22.9400005,14507600.0,23.1399995
31,2004-02-09,23.1399995,23.459999,23.625,23.115,11495600.0,23.3799994986,23.445,23.7000015054,23.2800009965,7743800.0,23.5149990088,23.934999,23.9699989993,23.2599995141,15619200.0,23.785,23.76,24.035,23.615,9577000.0,23.8050005,23.200001,23.9349995,23.174999,14322400.0,23.3899995
32,2004-03-01,22.2749995,22.040001,22.4400005,21.955,26580200.0,22.0599995,21.5,22.299999,21.49,21491200.0,21.4150005061,21.68,21.7849994976,21.0949990135,20006400.0,21.7299999924,22.065001,22.1050000009,21.6749994912,18474400.0,21.795,22.200001,22.3899995,21.7350005,20294600.0,22.165001
33,2004-03-08,22.165001,21.92,22.715,21.8500005,20297600.0,21.9349995,21.674999,22.1399995,21.455,20994200.0,21.6650004805,20.85,21.8749994754,20.7549985023,26451600.0,20.6450005,20.825001,21.2800005,20.5699995,28028800.0,20.9400005,21.51,21.629999,20.8600005,17305800.0,21.575001
34,2004-03-15,21.575001,20.875,21.6849995,20.8099995,14253200.0,21.045,21.285,21.4850005,21.0,20002800.0,22.08,22.424999,22.5249995,22.0249995,32029200.0,22.3950009971,22.525,22.6450010027,22.1800009923,20207200.0,22.4300005,22.875,23.3449995,22.42,28441000.0,22.500000506
35,2004-03-22,22.500000506,22.235001,22.5750015076,21.879999492,24057600.0,22.375,22.040001,22.42,21.92,18597400.0,22.135,22.25,22.285,21.745001,17418400.0,22.4899995209,23.469999,23.4950004995,22.4799990211,23709000.0,23.375000496,23.565001,23.7650000042,23.3650004958,16950800.0,23.6000000051
36,2004-03-29,23.6000000051,23.844999,23.9500004978,23.5550000061,17705600.0,23.7999985122,24.395,24.4299999993,23.7749990127,17370400.0,24.3700015028,24.235001,24.6500000086,24.1650014986,21079800.0,24.4099995064,24.725,24.8549989974,24.2099985104,22423000.0,25.26,25.075001,25.3150005,24.629999,22649600.0,25.0300005
37,2004-07-12,29.66,30.26,30.360001,29.530001,19661900.0,30.59,30.34,30.799999,30.01,19083300.0,29.74,30.66,31.15,29.299999,18758700.0,31.0,30.25,31.01,30.09,13566000.0,30.719999,29.190001,30.75,29.15,18654300.0,28.9
38,2004-07-19,28.9,28.110001,29.0,27.540001,32020300.0,28.200001,29.389999,29.629999,28.16,19513500.0,30.110001,28.129999,30.15,28.1,19493300.0,27.82,29.26,29.32,27.51,26079400.0,28.200001,28.190001,28.969999,28.030001,15762300.0,28.450001
39,2004-07-26,28.450001,28.209999,28.75,27.58,21484500.0,28.6,30.0,30.219999,28.450001,25597200.0,29.790001,29.700001,30.379999,28.860001,24592700.0,30.559999,30.49,30.799999,30.0,18747300.0,30.25,30.799999,31.120001,30.190001,16265700.0,30.57
40,2004-08-02,30.57,30.42,30.610001,30.129999,12250800.0,30.41,29.15,30.59,28.98,17729200.0,27.98,27.91,28.23,27.58,30154500.0,28.459999,26.799999,28.459999,26.700001,27642000.0,26.469999,26.02,26.700001,25.77,30177200.0,26.290001
41,2004-08-09,26.290001,25.700001,26.389999,25.52,18997700.0,26.16,27.15,27.24,26.0,24449700.0,26.4,27.42,27.809999,26.24,24805300.0,27.43,27.549999,27.93,27.190001,18779300.0,27.83,27.49,27.879999,26.9,16278400.0,27.389999
42,2004-08-16,27.389999,28.25,28.77,27.299999,15923600.0,28.629999,28.34,29.16,28.17,19609800.0,27.459999,28.48,28.540001,27.42,22358300.0,28.34,28.110001,28.969999,27.9,27657500.0,27.879999,28.610001,28.83,27.83,17228700.0,29.1
43,2004-08-23,29.1,28.629999,29.190001,28.559999,13024400.0,28.99,28.41,29.08,28.049999,16537400.0,28.360001,29.370001,29.5,28.209999,15518100.0,29.0,29.17,29.49,28.959999,9756000.0,29.43,29.299999,29.57,29.190001,8327500.0,29.07
44,2004-08-30,29.07,28.459999,29.07,28.35,12762700.0,28.48,28.51,28.700001,28.08,11381700.0,28.389999,29.01,29.040001,28.129999,16668100.0,28.700001,29.84,30.16,28.66,17247700.0,29.75,29.459999,30.309999,29.27,12782700.0,29.870001
45,2004-09-20,32.849998,33.259998,34.040001,32.849998,18702200.0,33.349998,33.259998,33.48,32.799999,17063500.0,32.810001,32.470001,33.75,32.380001,22239800.0,32.709999,33.040001,33.330002,32.330002,15695100.0,33.189999,32.580002,33.25,32.560001,11285600.0,32.540001
46,2004-09-27,32.540001,31.82,32.720001,31.65,15218800.0,32.27,32.799999,33.0,31.67,18218200.0,32.779999,34.0,34.150002,32.77,30183700.0,33.59,33.91,34.490002,33.560001,25706900.0,34.349998,35.029999,35.139999,34.119999,22100300.0,35.049999
47,2004-10-04,35.049999,34.91,35.450001,34.73,21264100.0,34.52,34.959999,35.0,34.43,14934400.0,34.720001,34.959999,35.150002,34.509998,17118000.0,34.880001,34.779999,35.490002,34.720001,16233700.0,34.48,34.169998,35.0,34.099998,16152700.0,34.400002
48,2004-10-11,34.400002,34.02,34.549999,33.650002,12664400.0,33.709999,34.23,34.48,33.599998,31284000.0,35.950001,34.959999,36.279999,34.84,49492300.0,34.98,34.959999,35.150002,34.220001,22861600.0,34.889999,34.52,35.029999,34.41,19657500.0,34.32
49,2004-10-18,34.32,35.299999,35.400002,34.110001,19801400.0,35.439999,34.639999,35.689999,34.529999,22291600.0,34.380001,34.490002,34.57,34.0,15943900.0,35.400002,35.700001,35.93,34.900002,27937000.0,36.57,34.959999,36.75,34.93,35643200.0,34.830002
50,2004-10-25,34.830002,35.200001,35.240002,34.5,17718300.0,35.119999,35.09,35.389999,34.75,15698700.0,34.900002,36.18,36.52,34.849998,20968100.0,35.82,36.450001,36.5,35.82,13245200.0,36.080002,36.189999,36.720001,35.860001,13432500.0,35.91
51,2004-11-01,35.91,36.919998,37.0,35.860001,16436900.0,37.029999,37.740002,38.150002,36.889999,22925400.0,39.200001,37.970001,39.25,37.540001,25377500.0,37.57,37.66,37.950001,36.75,19812300.0,37.68,36.349998,37.849998,35.759998,25428100.0,36.790001
52,2004-11-08,36.790001,37.139999,37.32,36.709999,15368500.0,37.240002,37.029999,37.630001,36.860001,14937800.0,36.849998,36.66,37.189999,36.369999,14160400.0,36.900002,37.790001,37.82,36.459999,16640100.0,37.869999,37.799999,38.299999,37.529999,16545200.0,37.77
53,2004-11-15,37.77,37.630001,38.0,37.310001,13108100.0,37.290001,36.740002,37.41,36.560001,15160100.0,36.950001,36.950001,37.369999,36.48,15189100.0,37.43,37.189999,37.779999,37.099998,15401000.0,37.240002,36.150002,37.41,35.900002,15936600.0,35.990002
54,2004-11-29,38.09,38.119999,38.240002,37.5,13895100.0,37.919998,37.619999,38.189999,37.52,10965100.0,37.900002,38.0,38.029999,37.349998,13204800.0,37.959999,39.139999,39.400002,37.889999,22437500.0,39.139999,39.02,39.790001,38.709999,15890900.0,38.709999
55,2004-12-06,38.709999,38.84,39.0,38.509998,12007500.0,38.75,37.080002,38.93,37.0,17718900.0,37.349998,37.049999,37.439999,36.779999,14006800.0,36.830002,38.310001,38.639999,36.82,18900700.0,38.02,38.02,38.580002,37.93,10019700.0,38.259998
56,2004-12-13,38.259998,38.09,38.32,37.549999,10266600.0,37.98,38.259998,38.470001,37.82,10088500.0,38.130001,38.290001,38.59,37.950001,9710500.0,38.330002,37.080002,38.360001,36.900002,18292300.0,36.77,36.77,37.540001,36.610001,13640900.0,36.889999
57,2005-01-24,35.48,33.93,35.52,33.75,31477400.0,34.549999,34.040001,34.759998,33.939999,26521400.0,34.709999,35.470001,35.740002,34.389999,25767500.0,35.380001,34.73,35.490002,34.349998,21450800.0,34.900002,34.619999,35.240002,34.119999,17853700.0,35.040001
58,2005-01-31,35.040001,35.209999,35.439999,34.529999,20712200.0,35.130001,34.75,35.279999,34.459999,18633600.0,36.02,35.540001,36.34,35.290001,33495200.0,35.27,35.09,35.669998,35.0,16742400.0,34.709999,35.02,35.299999,34.709999,16850200.0,35.07
59,2005-02-07,35.07,34.470001,35.189999,34.360001,14588900.0,34.639999,34.360001,34.91,34.32,17321500.0,34.599998,33.59,34.66,33.450001,18285100.0,33.720001,33.439999,33.720001,32.470001,32637400.0,33.450001,34.150002,34.700001,33.310001,20005800.0,34.009998
60,2005-02-14,34.009998,34.330002,34.41,33.779999,20065300.0,34.34,33.98,34.919998,33.810001,20391900.0,33.810001,34.419998,34.82,33.75,22176200.0,34.419998,33.82,34.790001,33.759998,16203500.0,33.84,33.599998,33.98,33.380001,12436100.0,33.25
61,2005-03-07,32.400002,33.09,33.310001,32.360001,17679200.0,33.549999,33.16,33.73,33.139999,17839300.0,33.009998,32.32,33.150002,32.009998,21824400.0,32.43,31.91,32.560001,31.6,19381200.0,31.860001,31.65,32.209999,31.65,13364800.0,31.74
62,2005-03-14,31.74,31.32,31.83,30.65,19762000.0,31.610001,31.940001,32.279999,31.530001,20880800.0,31.870001,31.58,32.349998,31.4,17952000.0,31.799999,31.610001,31.98,31.540001,13760200.0,31.530001,31.110001,31.73,30.91,20796400.0,31.290001
63,2005-06-06,37.790001,38.52,38.740002,37.75,12416000.0,38.720001,37.439999,38.950001,37.32,22848300.0,37.419998,36.630001,37.450001,36.32,20121100.0,36.810001,37.450001,37.48,36.380001,18455100.0,37.48,36.810001,37.5,36.32,14216900.0,36.66
64,2005-06-13,36.66,36.900002,37.509998,36.529999,11586300.0,36.560001,36.799999,37.049999,36.43,12781200.0,36.970001,36.32,37.110001,35.91,22753900.0,36.459999,36.400002,36.740002,36.220001,12228700.0,36.759998,36.299999,36.98,36.119999,15952800.0,35.959999
65,2005-06-20,35.959999,36.450001,36.84,35.790001,12753200.0,36.369999,36.950001,37.310001,36.360001,16219200.0,36.91,36.900002,37.32,36.84,12148100.0,36.849998,36.200001,37.310001,36.200001,15547700.0,36.259998,36.09,36.400002,35.599998,13468200.0,35.880001
66,2005-06-27,35.880001,35.68,36.110001,35.200001,12044700.0,35.950001,35.799999,36.240002,35.509998,13346200.0,35.799999,34.939999,35.939999,34.880001,16481900.0,34.84,34.650002,35.169998,34.439999,16699500.0,34.759998,34.439999,34.849998,34.220001,9861600.0,34.25
67,2005-07-18,36.450001,36.580002,36.779999,36.369999,11019300.0,37.02,37.73,38.02,36.560001,32685500.0,34.209999,33.400002,34.349998,33.310001,82623300.0,33.75,32.939999,33.759998,32.75,37778500.0,33.349998,33.529999,33.77,33.169998,27561500.0,33.880001
68,2005-07-25,33.880001,33.849998,34.080002,33.59,23252600.0,34.049999,34.150002,34.299999,33.91,16819200.0,34.220001,34.290001,34.369999,33.950001,20497500.0,34.23,34.009998,34.310001,33.98,11871600.0,34.009998,33.34,34.060001,33.34,16236100.0,33.630001
69,2005-08-01,33.630001,33.330002,33.689999,33.310001,12637100.0,33.459999,33.880001,34.200001,33.389999,17581900.0,33.75,34.509998,34.68,33.73,18240600.0,34.259998,34.060001,34.599998,34.0,11143400.0,34.09,33.52,34.279999,33.490002,11873800.0,33.860001
70,2005-08-08,33.860001,33.939999,34.18,33.66,13066200.0,34.150002,34.060001,34.32,33.91,9987400.0,34.279999,34.189999,34.77,34.0,18047900.0,34.540001,34.939999,35.0,34.32,22391900.0,34.860001,34.599998,34.880001,34.450001,13306100.0,34.799999
71,2005-08-15,34.799999,34.599998,34.869999,34.490002,11244500.0,34.57,34.23,34.66,34.209999,11867100.0,34.299999,34.389999,34.73,34.23,10443700.0,34.130001,34.360001,34.73,34.119999,12154200.0,34.389999,34.0,34.470001,33.98,12810400.0,34.07
72,2005-08-22,34.07,33.200001,34.099998,33.07,21054400.0,33.290001,33.110001,33.330002,32.650002,16912700.0,32.919998,33.470001,33.68,32.880001,23249500.0,33.540001,33.48,33.619999,33.200001,12564900.0,33.509998,33.57,33.810001,33.380001,9833400.0,33.400002
73,2005-08-29,33.400002,33.68,33.779999,33.310001,11427600.0,33.5,33.18,33.669998,33.0,13496000.0,33.23,33.32,33.389999,32.990002,13035500.0,33.279999,33.240002,33.509998,33.040001,11848500.0,33.200001,33.169998,33.369999,33.099998,6849000.0,33.18
74,2005-09-19,33.27,32.75,33.470001,32.25,15429900.0,32.880001,32.639999,33.110001,32.360001,14578900.0,32.529999,31.969999,33.099998,31.6,21896000.0,32.09,32.040001,32.41,31.76,18259400.0,32.119999,32.130001,32.25,31.75,14903700.0,32.48
75,2005-09-26,32.48,32.18,32.549999,31.99,13548200.0,32.169998,32.48,32.610001,32.169998,12246900.0,32.669998,32.349998,32.799999,32.27,11622800.0,32.400002,33.459999,33.700001,32.119999,22209100.0,33.59,33.84,34.099998,33.560001,15697000.0,33.799999
76,2005-10-03,33.799999,33.77,34.119999,33.709999,13184500.0,33.75,33.57,34.369999,33.509998,14331000.0,33.790001,33.490002,33.93,33.360001,14642000.0,33.950001,33.799999,34.299999,33.540001,21836100.0,34.029999,34.16,34.290001,33.970001,12253200.0,34.200001
77,2005-10-10,34.200001,34.529999,34.900002,34.119999,15227800.0,34.549999,34.099998,34.84,33.66,16504700.0,33.990002,33.93,34.709999,33.91,16089600.0,33.799999,33.369999,33.849998,32.970001,16254600.0,33.619999,33.52,33.619999,32.77,17425200.0,33.849998
78,2005-10-17,33.849998,34.16,34.299999,33.799999,21994600.0,34.400002,33.700001,34.759998,33.639999,35010300.0,34.619999,35.91,35.939999,34.59,63254000.0,35.900002,35.259998,36.939999,35.049999,29267000.0,35.990002,35.290001,36.330002,35.189999,28423400.0,35.299999
79,2005-10-24,35.299999,35.279999,35.490002,34.939999,19591900.0,35.189999,35.119999,35.380001,34.889999,14441100.0,35.060001,35.459999,35.75,34.970001,17125600.0,35.34,35.450001,35.66,35.299999,11605000.0,35.619999,35.580002,35.919998,35.25,14123800.0,35.599998
80,2005-10-31,35.599998,36.970001,37.27,35.599998,24867100.0,36.619999,37.720001,38.709999,36.59,41932100.0,37.490002,37.990002,38.040001,37.43,17886200.0,38.259998,37.450001,38.279999,37.330002,16880800.0,37.59,37.869999,37.990002,37.369999,11656100.0,37.689999
81,2005-11-07,37.689999,37.900002,38.18,37.41,11652700.0,37.75,37.970001,38.5,37.599998,14434400.0,37.759998,37.75,38.040001,37.43,12217600.0,37.52,38.689999,38.75,37.52,13722400.0,38.689999,38.490002,39.049999,38.34,12234400.0,38.43
82,2005-11-14,38.43,38.450001,38.720001,37.959999,10112500.0,38.259998,37.650002,38.610001,37.540001,11981600.0,37.900002,40.040001,40.07,37.860001,39464600.0,40.32,42.23,42.5,40.029999,44796000.0,42.040001,41.540001,42.41,41.290001,30747600.0,41.259998
83,2005-11-28,41.630001,41.110001,41.77,40.66,23190900.0,41.009998,40.189999,41.59,39.82,28698200.0,39.380001,40.23,40.84,39.09,31608700.0,40.740002,41.07,41.25,40.540001,20069600.0,41.220001,41.209999,41.849998,40.889999,14411400.0,40.880001
84,2005-12-05,40.880001,40.470001,41.029999,40.369999,15389400.0,40.779999,40.189999,41.18,40.119999,16356800.0,40.310001,40.110001,40.630001,39.57,15644900.0,40.25,40.349998,40.540001,39.950001,12851600.0,40.5,40.310001,40.869999,40.200001,11116900.0,40.41
85,2005-12-12,40.41,40.080002,40.540001,39.810001,9776300.0,40.009998,41.200001,41.400002,40.0,17264700.0,41.119999,41.299999,41.68,40.84,23034200.0,41.23,41.75,41.84,41.139999,20900800.0,41.860001,42.32,42.669998,41.75,21805000.0,42.16
86,2005-12-19,42.16,41.049999,42.889999,40.880001,18563700.0,41.259998,40.68,41.360001,40.48,15269500.0,40.52,40.470001,41.049999,40.349998,11626900.0,40.689999,40.830002,41.68,40.549999,9548300.0,41.09,40.630001,41.099998,40.450001,5070200.0,40.650002
87,2006-02-06,33.900002,32.919998,33.950001,32.779999,23523100.0,33.009998,33.02,33.099998,32.32,37236800.0,33.240002,33.0,33.400002,32.509998,28112900.0,33.009998,32.5,33.360001,32.400002,25335200.0,32.580002,32.509998,32.599998,32.099998,19628600.0,32.209999
88,2006-02-13,32.209999,32.040001,32.439999,31.700001,26139300.0,32.139999,32.720001,32.830002,32.049999,26198600.0,32.619999,33.02,33.330002,32.549999,19542100.0,33.299999,32.75,33.400002,32.599998,19500100.0,32.880001,32.759998,33.139999,32.709999,12620200.0,32.900002
89,2006-03-06,31.530001,31.57,31.940001,31.450001,17211200.0,31.42,31.43,32.200001,31.309999,23365100.0,31.309999,30.99,31.549999,30.82,20910200.0,31.049999,30.280001,31.32,30.25,18277000.0,30.4,30.58,31.1,29.75,28991400.0,30.719999
90,2006-03-13,30.719999,30.15,30.969999,30.120001,18437700.0,30.1,30.99,31.0,30.1,19294700.0,31.25,30.530001,31.280001,30.469999,20758000.0,30.77,30.129999,30.879999,30.1,17108000.0,30.35,30.07,30.360001,29.83,23629700.0,30.379999
91,2006-03-20,30.379999,30.440001,30.93,30.200001,21455200.0,30.110001,30.110001,30.780001,30.02,18876400.0,30.33,30.75,30.91,30.309999,23147400.0,31.52,31.83,31.950001,31.48,33834000.0,32.279999,31.77,32.310001,31.530001,17816500.0,31.84
92,2006-03-27,31.84,31.450001,32.080002,31.299999,14858500.0,31.450001,32.389999,32.5,31.41,25981500.0,32.439999,32.560001,32.91,32.139999,25508200.0,32.75,32.419998,32.830002,32.09,14314000.0,32.450001,32.259998,32.630001,32.009998,12677300.0,32.41
93,2006-04-03,32.41,31.889999,32.529999,31.790001,14887900.0,31.690001,32.099998,32.25,31.66,16232700.0,32.299999,32.110001,32.5,31.959999,11982500.0,32.119999,32.790001,33.139999,32.110001,21572600.0,32.849998,32.27,32.970001,32.209999,12980200.0,32.279999
94,2006-06-05,31.190001,30.82,31.43,30.790001,17188500.0,30.83,30.700001,30.969999,30.35,15615600.0,30.799999,30.540001,31.25,30.360001,17470100.0,30.43,30.450001,30.99,29.83,20538600.0,30.700001,30.370001,30.799999,30.23,10044700.0,30.370001
95,2006-06-12,30.370001,29.780001,30.65,29.66,14344600.0,29.77,29.65,30.200001,29.51,16435700.0,29.809999,29.620001,30.0,29.25,19257500.0,29.98,30.790001,30.959999,29.719999,22375000.0,30.700001,30.360001,30.860001,30.15,12951700.0,30.51
96,2006-06-19,30.51,30.35,30.75,30.059999,12236700.0,30.42,30.6,30.65,30.1,12613200.0,30.77,31.059999,31.540001,30.65,18252900.0,30.85,30.68,31.16,30.440001,11500300.0,31.08,31.370001,31.76,30.82,17378500.0,31.450001
97,2006-06-26,31.450001,31.549999,31.700001,31.16,11457000.0,31.85,31.51,32.220001,31.32,16589400.0,31.75,31.92,32.169998,31.700001,14032800.0,32.259998,32.970001,33.0,32.200001,15745900.0,33.009998,33.0,33.119999,32.540001,22566600.0,32.900002
98,2006-07-10,32.91,32.849998,33.139999,32.73,15317600.0,32.790001,33.169998,33.349998,32.32,11285900.0,33.029999,33.380001,33.740002,32.990002,18708400.0,32.849998,32.23,33.16,32.07,19463500.0,32.34,32.080002,32.48,31.85,12484700.0,31.98
99,2006-07-17,31.98,31.84,32.400002,31.690001,16369600.0,32.080002,32.240002,32.259998,31.25,39767700.0,26.41,25.200001,26.700001,25.040001,204339000.0,25.549999,25.27,26.209999,24.91,54659700.0,24.99,25.889999,26.059999,24.91,36187100.0,26.24
100,2006-07-24,26.24,26.940001,27.23,25.889999,42631300.0,26.75,26.950001,27.190001,26.57,21388800.0,26.780001,27.08,27.51,26.57,20073800.0,27.35,26.700001,27.5,26.639999,25153000.0,26.9,27.469999,27.5,26.33,21584800.0,27.459999
101,2006-07-31,27.459999,27.139999,27.549999,26.99,16492600.0,27.059999,26.940001,27.120001,26.74,18613100.0,27.01,26.629999,27.1,26.450001,18116200.0,26.5,26.9,27.049999,26.4,15468500.0,27.200001,26.99,27.58,26.83,11607900.0,26.92
102,2006-08-07,26.92,27.08,27.110001,26.58,12847200.0,26.950001,27.440001,27.700001,26.629999,19332800.0,27.75,27.219999,27.85,27.0,14736100.0,26.950001,27.49,27.799999,26.85,12597900.0,27.52,27.5,27.719999,27.4,9252200.0,27.709999
103,2006-08-14,27.709999,27.26,27.799999,27.0,10640100.0,27.58,28.17,28.200001,27.48,15298500.0,28.35,28.389999,28.459999,27.969999,12589400.0,28.379999,28.91,29.32,28.34,17251600.0,28.9,29.780001,29.969999,28.77,19611300.0,29.219999
104,2006-08-21,29.219999,28.9,29.52,28.83,11575200.0,28.84,29.26,29.65,28.799999,10891800.0,29.34,28.700001,29.469999,28.68,8837400.0,28.75,28.99,29.129999,28.700001,8983600.0,28.950001,28.77,29.280001,28.74,6203800.0,28.75
105,2006-08-28,28.75,28.91,29.25,28.700001,10404700.0,28.860001,28.959999,29.01,28.51,9888800.0,29.0,29.02,29.139999,28.709999,13119300.0,28.99,28.83,29.02,28.59,8879300.0,28.91,29.49,29.530001,28.91,11573600.0,29.450001
106,2006-09-18,29.370001,29.0,29.389999,28.58,15685000.0,29.09,25.75,29.129999,25.1,127718600.0,26.040001,25.639999,26.09,25.379999,55636600.0,25.530001,25.34,25.950001,25.209999,28584500.0,25.34,25.52,25.690001,25.18,20667400.0,25.639999
107,2006-09-25,25.639999,25.290001,25.870001,25.200001,19992400.0,25.440001,25.049999,25.48,24.809999,34950100.0,25.0,24.65,25.01,24.6,29835900.0,24.870001,25.33,25.5,24.84,35331200.0,25.5,25.280001,25.59,25.24,18982600.0,25.450001
108,2006-10-02,25.450001,24.879999,25.459999,24.75,19641300.0,24.809999,24.84,25.0,24.700001,21148300.0,24.889999,25.209999,25.26,24.74,21717900.0,25.16,25.18,25.25,24.879999,17634000.0,25.09,25.469999,25.5,25.01,20847000.0,25.450001
109,2006-10-09,25.450001,25.030001,25.719999,25.0,15729500.0,24.940001,24.469999,25.030001,24.32,30371900.0,24.290001,24.24,24.639999,23.799999,39356300.0,24.32,24.120001,24.379999,24.1,25824500.0,23.9,24.42,24.5,23.57,51338900.0,24.34
110,2006-10-16,24.34,24.18,24.52,23.75,36496400.0,23.74,24.15,24.35,23.68,67417200.0,24.57,22.99,24.75,22.879999,111660900.0,23.02,23.139999,23.59,23.0,42280400.0,23.219999,23.209999,23.27,22.65,49795600.0,23.139999
111,2006-10-23,23.139999,23.370001,23.5,23.1,26301200.0,23.35,23.530001,23.639999,23.15,31704000.0,23.73,24.49,24.639999,23.690001,40110600.0,24.700001,25.280001,25.33,24.360001,38435800.0,25.23,25.34,25.6,24.9,29647200.0,25.870001
112,2006-10-30,25.870001,25.950001,26.4,25.66,35295800.0,26.440001,26.34,26.700001,26.1,33492800.0,26.5,25.99,26.620001,25.82,26300200.0,25.940001,26.530001,26.6,25.77,34824500.0,26.629999,26.18,26.700001,26.040001,15313800.0,26.34
113,2006-11-06,26.34,26.59,26.700001,26.1,22563600.0,26.690001,26.610001,27.15,26.58,28442700.0,26.360001,26.9,27.25,26.309999,23384800.0,27.18,27.450001,27.65,26.959999,27428600.0,27.4,27.389999,27.5,27.030001,21366600.0,27.17
114,2006-11-13,27.17,27.4,27.620001,27.15,16876500.0,27.4,27.24,27.5,27.110001,20145700.0,27.18,27.15,27.5,27.030001,22112700.0,27.309999,26.639999,27.33,26.200001,38508500.0,26.68,26.91,27.049999,26.629999,17955200.0,26.959999
115,2006-11-27,27.5,27.27,28.5,27.17,19922300.0,27.030001,27.0,27.24,26.85,14940800.0,27.4,27.040001,27.4,26.709999,19375100.0,27.0,27.01,27.15,26.73,14916300.0,27.0,26.49,27.25,26.0,20055800.0,26.49
116,2006-12-04,26.49,26.889999,27.299999,26.49,28012700.0,26.870001,27.43,27.610001,26.860001,27118200.0,27.25,26.860001,27.450001,26.6,35202800.0,26.950001,26.629999,27.16,26.6,22407000.0,26.65,26.34,26.780001,26.27,19262200.0,26.370001
117,2006-12-11,26.370001,26.49,26.700001,26.120001,12916900.0,26.629999,26.75,27.379999,26.6,31971600.0,27.049999,26.6,27.23,26.51,20428600.0,26.629999,26.870001,26.969999,26.5,14400300.0,27.0,26.9,27.219999,26.76,27227300.0,26.889999
118,2006-12-18,26.889999,26.299999,26.969999,26.07,19431200.0,26.049999,26.41,26.5,25.91,18973800.0,26.24,25.59,26.309999,25.540001,24905600.0,25.709999,25.48,25.75,25.129999,27050600.0,25.67,25.549999,25.879999,25.450001,14666100.0,25.49
119,2007-02-05,28.67,28.559999,28.799999,28.360001,11163300.0,28.610001,29.35,29.559999,28.6,24506800.0,29.35,29.889999,30.15,29.120001,29162600.0,29.75,30.08,30.24,29.73,15561700.0,30.07,29.74,30.16,29.51,18172200.0,29.290001
120,2007-02-12,29.290001,29.17,29.77,29.049999,18316200.0,29.370001,29.559999,29.68,29.26,12802300.0,29.690001,30.66,30.860001,29.639999,30821100.0,30.82,31.25,31.65,30.690001,28160300.0,31.0,31.91,32.0,31.0,36774800.0,31.799999
121,2007-03-05,30.18,30.309999,31.9,30.139999,21469000.0,30.889999,30.799999,31.059999,30.52,33472600.0,30.950001,30.389999,31.030001,30.33,16014300.0,30.82,30.709999,31.040001,30.58,13715100.0,29.85,29.120001,30.15,28.790001,72749900.0,29.299999
122,2007-03-12,29.299999,29.99,30.110001,29.290001,35991600.0,29.77,29.559999,30.24,29.42,18263800.0,29.629999,29.860001,30.040001,29.26,23604900.0,29.809999,30.059999,30.07,29.780001,15440900.0,30.02,29.879999,30.110001,29.719999,19799300.0,30.0
123,2007-03-19,30.0,30.030001,30.190001,29.92,9983800.0,30.0,30.33,30.35,29.940001,12203800.0,30.33,31.290001,31.389999,30.209999,26667300.0,31.360001,31.26,31.440001,30.85,12989800.0,31.33,31.360001,31.700001,31.16,12727900.0,31.25
124,2007-03-26,31.25,31.66,31.74,31.24,12907000.0,31.559999,31.549999,31.66,31.24,9403100.0,31.450001,31.41,31.700001,31.25,13162500.0,31.709999,31.34,31.73,30.83,13815000.0,31.209999,31.290001,31.6,31.02,9425000.0,31.219999
125,2007-06-04,28.6,28.59,28.780001,28.4,13428800.0,28.4,28.23,28.59,28.1,20494800.0,28.049999,27.440001,28.110001,27.299999,33508200.0,27.34,26.98,27.73,26.98,34232300.0,27.02,27.389999,27.450001,26.959999,18618500.0,27.27
126,2007-06-11,27.27,27.35,27.52,27.15,14856500.0,27.299999,27.049999,27.66,26.98,22203600.0,27.120001,27.379999,27.41,26.610001,31210700.0,27.379999,27.299999,27.639999,27.15,18919400.0,27.49,27.309999,27.52,27.190001,23816900.0,27.719999
127,2007-06-18,27.719999,28.120001,28.34,27.5,70919400.0,29.4,27.629999,29.4,27.540001,65967500.0,27.889999,27.66,28.17,27.66,33496400.0,27.690001,27.67,27.940001,27.549999,17885800.0,27.68,27.379999,27.790001,27.309999,33796900.0,27.6
128,2007-06-25,27.6,27.639999,27.77,27.34,21232200.0,27.73,27.709999,28.18,27.360001,25324000.0,27.51,27.58,27.66,27.4,13997000.0,27.440001,27.25,27.49,27.120001,17124500.0,27.209999,27.129999,27.379999,26.93,13842500.0,27.190001
129,2007-07-09,26.92,27.200001,27.33,26.82,17515800.0,27.09,26.969999,27.57,26.959999,24635500.0,27.030001,26.690001,27.049999,26.549999,21970700.0,26.700001,26.959999,26.969999,26.34,20082300.0,26.870001,26.58,26.969999,26.5,18522700.0,26.48
130,2007-07-16,26.48,26.700001,26.74,26.129999,30804500.0,26.74,27.530001,27.799999,26.700001,53656100.0,26.07,26.200001,26.719999,26.02,65125900.0,26.32,26.030001,26.34,25.92,29537900.0,25.700001,25.35,25.889999,25.200001,38056100.0,25.43
131,2007-07-23,25.43,24.99,25.459999,24.98,26631500.0,24.799999,24.84,25.34,24.73,28981000.0,25.01,24.68,25.32,24.59,21882400.0,24.4,24.030001,24.49,23.620001,33373300.0,23.98,23.49,24.49,23.469999,35783800.0,23.549999
132,2007-07-30,23.549999,23.620001,23.879999,23.379999,20976600.0,23.879999,23.25,23.93,23.24,21575800.0,23.17,23.25,23.4,22.85,22030400.0,22.65,23.360001,23.700001,22.65,21098900.0,23.200001,22.92,23.389999,22.870001,19702100.0,23.030001
133,2007-08-06,23.030001,22.969999,23.15,22.440001,28948000.0,22.75,23.440001,23.700001,22.690001,20075300.0,23.459999,23.870001,23.870001,23.43,17198000.0,23.67,23.799999,24.450001,23.51,24052500.0,23.93,23.940001,24.219999,23.52,22939800.0,24.209999
134,2007-08-13,24.209999,24.57,24.74,24.01,21317600.0,24.690001,23.719999,24.700001,23.690001,18707100.0,23.559999,23.32,24.0,23.25,18767700.0,23.0,22.76,23.15,22.5,29652200.0,23.26,23.540001,23.629999,22.76,19528200.0,23.639999
135,2007-08-20,23.639999,23.34,23.74,23.18,13338900.0,23.25,23.040001,23.48,22.91,25962900.0,23.219999,23.23,23.52,23.18,18763700.0,23.35,23.129999,23.360001,22.950001,15603000.0,23.030001,23.59,23.73,23.030001,11191100.0,23.59
136,2007-08-27,23.59,23.030001,23.76,23.01,16523800.0,22.950001,22.52,23.1,22.5,18030600.0,22.6,22.549999,22.690001,22.27,24599900.0,22.49,22.610001,22.91,22.379999,18172500.0,22.809999,22.73,22.83,22.51,13052500.0,23.299999
137,2007-09-17,24.5,24.950001,25.1,24.379999,20594000.0,25.059999,25.059999,25.209999,24.530001,28121000.0,25.09,25.290001,25.370001,24.809999,25867900.0,25.280001,25.290001,25.610001,25.16,17312000.0,25.540001,26.049999,26.209999,25.290001,53074900.0,26.129999
138,2007-09-24,26.129999,25.73,26.4,25.51,27597800.0,25.700001,26.51,26.65,25.629999,33721300.0,26.700001,26.700001,27.07,26.5,18692400.0,26.950001,26.27,26.950001,26.17,21365200.0,26.49,26.84,26.889999,26.200001,22155600.0,26.76
139,2007-10-01,26.76,27.040001,27.1,26.73,16938700.0,27.200001,26.950001,27.24,26.620001,15133400.0,27.16,27.17,27.379999,26.82,18052500.0,27.190001,27.15,27.290001,26.9,19203600.0,27.780001,27.879999,28.16,27.75,28389600.0,28.01
140,2007-10-08,28.01,28.049999,28.17,27.75,15060700.0,28.35,28.370001,28.76,27.940001,19539500.0,28.43,28.360001,28.700001,27.9,14847100.0,28.440001,27.65,28.68,27.5,25298300.0,27.76,28.48,28.51,27.65,22130500.0,28.32
141,2007-10-15,28.32,27.860001,28.4,27.459999,22994100.0,27.370001,26.690001,27.48,26.549999,56275300.0,29.1,28.82,29.200001,28.0,75067700.0,28.59,29.35,29.6,28.469999,28152200.0,29.360001,29.030001,29.959999,28.85,41933000.0,28.93
142,2007-10-22,28.93,29.85,30.0,28.799999,27750100.0,30.120001,30.639999,30.879999,30.030001,45406200.0,30.68,30.68,30.98,30.0,33603100.0,30.75,31.34,31.620001,30.5,38706600.0,32.43,33.630001,33.990002,31.610001,66018100.0,34.07
143,2007-10-29,34.07,31.790001,34.080002,31.18,83685800.0,31.549999,30.83,31.639999,30.120001,52417300.0,31.5,31.1,31.75,30.5,34762000.0,30.860001,30.219999,31.1,30.040001,26913300.0,30.540001,31.110001,31.209999,29.639999,34090300.0,30.709999
144,2007-11-05,30.709999,31.360001,32.369999,30.35,43520300.0,31.76,29.93,31.790001,29.0,63664400.0,29.27,27.629999,29.299999,27.559999,57069800.0,28.110001,26.700001,28.24,25.82,58160600.0,26.129999,25.790001,26.379999,25.4,45199700.0,25.799999
145,2007-11-12,25.799999,24.780001,26.200001,24.690001,31264200.0,25.530001,26.1,26.24,25.299999,34123300.0,26.42,25.07,26.440001,25.0,38183700.0,24.940001,25.42,25.75,24.9,27920800.0,25.66,26.82,27.129999,25.1,53044400.0,27.110001
146,2007-11-26,26.08,25.219999,26.25,25.200001,24174600.0,25.18,25.59,26.0,25.17,19484500.0,26.030001,26.200001,26.700001,25.93,23239300.0,26.01,26.629999,26.709999,25.91,17929700.0,26.959999,26.809999,27.33,26.51,23994000.0,26.639999
147,2007-12-03,26.639999,26.610001,27.200001,26.559999,15250100.0,26.139999,26.42,26.73,26.110001,14668800.0,26.629999,25.98,26.73,25.73,21170900.0,25.879999,25.959999,26.02,25.389999,19236500.0,25.860001,25.629999,26.110001,25.5,11443200.0,25.51
148,2007-12-10,25.51,25.200001,25.57,24.92,26074900.0,25.15,24.469999,25.65,24.360001,28579100.0,24.82,24.540001,25.0,24.110001,20241200.0,24.389999,24.379999,24.75,24.190001,23787400.0,24.129999,24.059999,24.469999,24.0,15125500.0,23.799999
149,2007-12-17,23.799999,23.040001,24.030001,22.940001,37877100.0,23.219999,23.02,23.35,22.799999,27735600.0,22.92,23.309999,23.690001,22.92,26547300.0,23.5,23.639999,23.799999,23.24,21030700.0,23.879999,24.01,24.1,23.74,24094600.0,24.01
